Process Grid (p x p x t): 8 x 8 x 16
filename: /project/projectdirs/m1982/LACC/noheader/HV15R.mtx
COMBBLAS Warning: It is dangerous to create (matrix) objects without specifying the communicator, are you sure you want to create this object in MPI_COMM_WORLD?
File is 10095084900 bytes
MPIIO WARNING: DVS stripe width of 32 was requested but DVS set it to 28
See MPICH_MPIIO_DVS_MAXNODES in the intro_mpi man page.
As a whole: 2017169 rows and 2017169 columns and 283073458 nonzeros
Symmatricizing an unsymmetric input matrix.
As a whole: 2017169 rows and 2017169 columns and 326732307 nonzeros
File Read time: 53.5941
isolated vertice: 0
Load balance: 1.04544
Nonzeros: 326732307
===== Running the SV algorithm ======
Iteration 1: diff 2002215, spmv 0
total 0.142, GP 0.059, SpMV 0.047, Hooking 0.036, Others 0.000
Iteration 2: diff 1887420, spmv 0
total 0.167, GP 0.086, SpMV 0.029, Hooking 0.051, Others 0.000
Iteration 3: diff 1828471, spmv 0
total 0.112, GP 0.042, SpMV 0.031, Hooking 0.039, Others 0.000
Iteration 4: diff 1723598, spmv 0
total 0.101, GP 0.043, SpMV 0.028, Hooking 0.029, Others 0.000
Iteration 5: diff 1408603, spmv 0
total 0.101, GP 0.043, SpMV 0.030, Hooking 0.027, Others 0.001
Iteration 6: diff 469907, spmv 0
total 0.101, GP 0.043, SpMV 0.032, Hooking 0.025, Others 0.000
Iteration 7: diff 0, spmv 0
total 0.100, GP 0.043, SpMV 0.030, Hooking 0.027, Others 0.001
Number of components: 1
Total time: 0.870883
=================================================

===== Running LACC ======
Iteration: 1 converged: 0 stars: 1107075 nonstars: 910094
 Time:  t_cond_hook: 0.058743 t_starcheck1: 2.40803e-05 t_uncond_hook: 0.080256 t_starcheck2: 0.000257015 t_shortcut: 0.0512371 t_starcheck: 0.114938
Iteration: 2 converged: 0 stars: 822458 nonstars: 1194711
 Time:  t_cond_hook: 0.051883 t_starcheck1: 0.0351391 t_uncond_hook: 0.0449622 t_starcheck2: 0.00325799 t_shortcut: 0.038805 t_starcheck: 0.0877299
Iteration: 3 converged: 0 stars: 657707 nonstars: 1359462
 Time:  t_cond_hook: 0.0437231 t_starcheck1: 0.0307472 t_uncond_hook: 0.037102 t_starcheck2: 0.00299621 t_shortcut: 0.0360162 t_starcheck: 0.0797629
Iteration: 4 converged: 0 stars: 461192 nonstars: 1555977
 Time:  t_cond_hook: 0.0649052 t_starcheck1: 0.0242591 t_uncond_hook: 0.036839 t_starcheck2: 0.00249887 t_shortcut: 0.0353029 t_starcheck: 0.495532
Iteration: 5 converged: 0 stars: 0 nonstars: 2017169
 Time:  t_cond_hook: 0.0606909 t_starcheck1: 0.0225649 t_uncond_hook: 0.0340941 t_starcheck2: 0.00252986 t_shortcut: 0.0422549 t_starcheck: 0.080462
Iteration: 6 converged: 0 stars: 2017169 nonstars: 0
 Time:  t_cond_hook: 0.03338 t_starcheck1: 0.00408602 t_uncond_hook: 0.036649 t_starcheck2: 0.00318098 t_shortcut: 0.0344269 t_starcheck: 0.0683601
Iteration: 6 converged: 0 stars: 2017169 nonstars: 0
 Time:  t_cond_hook: 0.03338 t_starcheck1: 0.00408602 t_uncond_hook: 0.036649 t_starcheck2: 0.00318098 t_shortcut: 0.0344269 t_starcheck: 0.0683601
Iteration: 7 converged: 2017169 stars: 0 nonstars: 0
Number of components: 1
Total time: 3.23136
=================================================

Process Grid (p x p x t): 8 x 8 x 16
filename: /project/projectdirs/m1982/LACC/noheader/uk-2002.mtx
COMBBLAS Warning: It is dangerous to create (matrix) objects without specifying the communicator, are you sure you want to create this object in MPI_COMM_WORLD?
File is 5042641736 bytes
MPIIO WARNING: DVS stripe width of 32 was requested but DVS set it to 28
See MPICH_MPIIO_DVS_MAXNODES in the intro_mpi man page.
As a whole: 18484117 rows and 18484117 columns and 298113762 nonzeros
Symmatricizing an unsymmetric input matrix.
As a whole: 18484117 rows and 18484117 columns and 529444615 nonzeros
File Read time: 42.9786
isolated vertice: 0
Load balance: 1.0829
Nonzeros: 529444615
===== Running the SV algorithm ======
Iteration 1: diff 15548174, spmv 0
total 1.172, GP 0.301, SpMV 0.666, Hooking 0.203, Others 0.002
Iteration 2: diff 16187106, spmv 0
total 0.961, GP 0.553, SpMV 0.148, Hooking 0.257, Others 0.002
Iteration 3: diff 18043400, spmv 0
total 0.812, GP 0.445, SpMV 0.149, Hooking 0.215, Others 0.002
Iteration 4: diff 10903723, spmv 0
total 0.595, GP 0.262, SpMV 0.151, Hooking 0.180, Others 0.002
Iteration 5: diff 257804, spmv 0
total 0.541, GP 0.227, SpMV 0.150, Hooking 0.162, Others 0.002
Iteration 6: diff 2202, spmv 1
total 0.459, GP 0.224, SpMV 0.048, Hooking 0.185, Others 0.002
Iteration 7: diff 0, spmv 1
total 0.434, GP 0.227, SpMV 0.028, Hooking 0.177, Others 0.002
Number of components: 1990
Total time: 5.7192
=================================================

===== Running LACC ======
Iteration: 1 converged: 0 stars: 12140894 nonstars: 6343223
 Time:  t_cond_hook: 0.289407 t_starcheck1: 7.10487e-05 t_uncond_hook: 0.414185 t_starcheck2: 0.00131106 t_shortcut: 0.302091 t_starcheck: 0.946008
Iteration: 2 converged: 7156 stars: 4267380 nonstars: 14209581
 Time:  t_cond_hook: 0.561623 t_starcheck1: 0.567507 t_uncond_hook: 0.271581 t_starcheck2: 0.031846 t_shortcut: 0.258816 t_starcheck: 0.504252
Iteration: 3 converged: 16318 stars: 342747 nonstars: 18125052
 Time:  t_cond_hook: 0.236695 t_starcheck1: 0.090097 t_uncond_hook: 0.196639 t_starcheck2: 0.0175211 t_shortcut: 0.213809 t_starcheck: 0.374932
Iteration: 4 converged: 24086 stars: 25592 nonstars: 18434439
 Time:  t_cond_hook: 0.172294 t_starcheck1: 0.0250051 t_uncond_hook: 0.208028 t_starcheck2: 0.01074 t_shortcut: 0.198457 t_starcheck: 0.374128
Iteration: 5 converged: 24494 stars: 2152 nonstars: 18457471
 Time:  t_cond_hook: 0.16795 t_starcheck1: 0.0282772 t_uncond_hook: 0.178769 t_starcheck2: 0.0101659 t_shortcut: 0.191125 t_starcheck: 0.367912
Iteration: 6 converged: 24989 stars: 18459128 nonstars: 0
 Time:  t_cond_hook: 0.200391 t_starcheck1: 0.0260851 t_uncond_hook: 0.504116 t_starcheck2: 0.104096 t_shortcut: 0.189336 t_starcheck: 0.349679
Iteration: 6 converged: 24989 stars: 18459128 nonstars: 0
 Time:  t_cond_hook: 0.200391 t_starcheck1: 0.0260851 t_uncond_hook: 0.504116 t_starcheck2: 0.104096 t_shortcut: 0.189336 t_starcheck: 0.349679
Iteration: 7 converged: 18484117 stars: 0 nonstars: 0
Number of components: 1990
Total time: 11.3687
=================================================

Process Grid (p x p x t): 8 x 8 x 16
filename: /project/projectdirs/m1982/LACC/noheader/Queen_4147.mtx
COMBBLAS Warning: It is dangerous to create (matrix) objects without specifying the communicator, are you sure you want to create this object in MPI_COMM_WORLD?
File is 4801000621 bytes
MPIIO WARNING: DVS stripe width of 32 was requested but DVS set it to 28
See MPICH_MPIIO_DVS_MAXNODES in the intro_mpi man page.
As a whole: 4147110 rows and 4147110 columns and 166823197 nonzeros
Symmatricizing an unsymmetric input matrix.
As a whole: 4147110 rows and 4147110 columns and 329499284 nonzeros
File Read time: 26.2716
isolated vertice: 0
Load balance: 1.08922
Nonzeros: 329499284
===== Running the SV algorithm ======
Iteration 1: diff 4094239, spmv 0
total 0.257, GP 0.102, SpMV 0.085, Hooking 0.069, Others 0.001
Iteration 2: diff 3775657, spmv 0
total 0.269, GP 0.123, SpMV 0.056, Hooking 0.088, Others 0.001
Iteration 3: diff 3756325, spmv 0
total 0.193, GP 0.070, SpMV 0.061, Hooking 0.061, Others 0.001
Iteration 4: diff 3663423, spmv 0
total 0.173, GP 0.074, SpMV 0.055, Hooking 0.043, Others 0.001
Iteration 5: diff 3334885, spmv 0
total 0.174, GP 0.075, SpMV 0.055, Hooking 0.043, Others 0.001
Iteration 6: diff 3688048, spmv 0
total 0.174, GP 0.075, SpMV 0.054, Hooking 0.043, Others 0.001
Iteration 7: diff 1518636, spmv 0
total 0.607, GP 0.076, SpMV 0.494, Hooking 0.036, Others 0.001
Iteration 8: diff 0, spmv 0
total 0.174, GP 0.076, SpMV 0.056, Hooking 0.042, Others 0.001
Number of components: 1
Total time: 2.09463
=================================================

===== Running LACC ======
Iteration: 1 converged: 0 stars: 2468375 nonstars: 1678735
 Time:  t_cond_hook: 0.0873652 t_starcheck1: 3.31402e-05 t_uncond_hook: 0.151508 t_starcheck2: 0.000431061 t_shortcut: 0.099026 t_starcheck: 0.20853
Iteration: 2 converged: 0 stars: 1826235 nonstars: 2320875
 Time:  t_cond_hook: 0.102221 t_starcheck1: 0.0703151 t_uncond_hook: 0.07832 t_starcheck2: 0.00434995 t_shortcut: 0.071645 t_starcheck: 0.15577
Iteration: 3 converged: 0 stars: 1528310 nonstars: 2618800
 Time:  t_cond_hook: 0.0800941 t_starcheck1: 0.0526438 t_uncond_hook: 0.072686 t_starcheck2: 0.00405097 t_shortcut: 0.0625329 t_starcheck: 0.133867
Iteration: 4 converged: 0 stars: 1557318 nonstars: 2589792
 Time:  t_cond_hook: 0.112296 t_starcheck1: 0.0412121 t_uncond_hook: 0.0851519 t_starcheck2: 0.00733399 t_shortcut: 0.0599 t_starcheck: 0.132506
Iteration: 5 converged: 0 stars: 1415305 nonstars: 2731805
 Time:  t_cond_hook: 0.091923 t_starcheck1: 0.0475261 t_uncond_hook: 0.0643601 t_starcheck2: 0.00326991 t_shortcut: 0.0596349 t_starcheck: 0.132678
Iteration: 6 converged: 0 stars: 0 nonstars: 4147110
 Time:  t_cond_hook: 0.0933371 t_starcheck1: 0.044929 t_uncond_hook: 0.0651538 t_starcheck2: 0.00356817 t_shortcut: 0.0597322 t_starcheck: 0.131377
Iteration: 7 converged: 0 stars: 4147110 nonstars: 0
 Time:  t_cond_hook: 0.059454 t_starcheck1: 0.00365901 t_uncond_hook: 0.0683749 t_starcheck2: 0.00313592 t_shortcut: 0.0597451 t_starcheck: 0.513817
Iteration: 7 converged: 0 stars: 4147110 nonstars: 0
 Time:  t_cond_hook: 0.059454 t_starcheck1: 0.00365901 t_uncond_hook: 0.0683749 t_starcheck2: 0.00313592 t_shortcut: 0.0597451 t_starcheck: 0.513817
Iteration: 8 converged: 4147110 stars: 0 nonstars: 0
Number of components: 1
Total time: 4.89066
=================================================

Process Grid (p x p x t): 8 x 8 x 16
filename: /project/projectdirs/m1982/LACC/noheader/kmer_A2a.mtx
COMBBLAS Warning: It is dangerous to create (matrix) objects without specifying the communicator, are you sure you want to create this object in MPI_COMM_WORLD?
File is 3370814474 bytes
MPIIO WARNING: DVS stripe width of 32 was requested but DVS set it to 28
See MPICH_MPIIO_DVS_MAXNODES in the intro_mpi man page.
As a whole: 170728175 rows and 170728175 columns and 180292586 nonzeros
Symmatricizing an unsymmetric input matrix.
As a whole: 170728175 rows and 170728175 columns and 360585172 nonzeros
File Read time: 79.7925
isolated vertice: 0
Load balance: 1.00087
Nonzeros: 360585172
===== Running the SV algorithm ======
Iteration 1: diff 114976404, spmv 0
total 4.739, GP 1.975, SpMV 0.881, Hooking 1.869, Others 0.015
Iteration 2: diff 103090354, spmv 0
total 6.873, GP 2.295, SpMV 0.528, Hooking 4.032, Others 0.019
Iteration 3: diff 106249066, spmv 0
total 9.724, GP 7.003, SpMV 0.548, Hooking 2.117, Others 0.056
Iteration 4: diff 121391934, spmv 0
total 10.163, GP 7.239, SpMV 0.822, Hooking 2.087, Others 0.015
Iteration 5: diff 146637525, spmv 0
total 7.757, GP 5.155, SpMV 0.522, Hooking 2.065, Others 0.015
Iteration 6: diff 166138405, spmv 0
total 6.515, GP 3.810, SpMV 0.536, Hooking 2.154, Others 0.015
Iteration 7: diff 78074674, spmv 0
total 5.817, GP 3.203, SpMV 0.935, Hooking 1.664, Others 0.015
Iteration 8: diff 3360917, spmv 0
total 3.867, GP 1.798, SpMV 0.526, Hooking 1.528, Others 0.015
Iteration 9: diff 59687, spmv 1
total 3.506, GP 1.782, SpMV 0.146, Hooking 1.563, Others 0.015
Iteration 10: diff 0, spmv 1
total 3.194, GP 1.764, SpMV 0.031, Hooking 1.385, Others 0.015
Number of components: 5353
Total time: 64.7011
=================================================

===== Running LACC ======
Iteration: 1 converged: 0 stars: 137804739 nonstars: 32923436
 Time:  t_cond_hook: 1.41728 t_starcheck1: 0.00018096 t_uncond_hook: 3.02232 t_starcheck2: 0.0107801 t_shortcut: 2.27075 t_starcheck: 11.8325
Iteration: 2 converged: 0 stars: 119643068 nonstars: 51085107
 Time:  t_cond_hook: 1.42067 t_starcheck1: 3.51834 t_uncond_hook: 1.65235 t_starcheck2: 0.665311 t_shortcut: 2.3739 t_starcheck: 10.5538
Iteration: 3 converged: 210 stars: 101554365 nonstars: 69173600
 Time:  t_cond_hook: 1.51328 t_starcheck1: 3.07025 t_uncond_hook: 2.11769 t_starcheck2: 0.647644 t_shortcut: 2.49626 t_starcheck: 8.54685
Iteration: 4 converged: 7060 stars: 63161396 nonstars: 107559719
 Time:  t_cond_hook: 1.6146 t_starcheck1: 2.15901 t_uncond_hook: 1.64897 t_starcheck2: 0.399358 t_shortcut: 2.81866 t_starcheck: 6.00316
Iteration: 5 converged: 51495 stars: 30901082 nonstars: 139775598
 Time:  t_cond_hook: 1.35921 t_starcheck1: 1.21653 t_uncond_hook: 1.38085 t_starcheck2: 0.2471 t_shortcut: 2.25853 t_starcheck: 4.62128
Iteration: 6 converged: 237482 stars: 730802 nonstars: 169759891
 Time:  t_cond_hook: 0.817429 t_starcheck1: 0.540082 t_uncond_hook: 1.18203 t_starcheck2: 0.0912879 t_shortcut: 1.83691 t_starcheck: 3.36514
Iteration: 7 converged: 344893 stars: 21462 nonstars: 170361820
 Time:  t_cond_hook: 0.646612 t_starcheck1: 0.0989962 t_uncond_hook: 0.722718 t_starcheck2: 0.066956 t_shortcut: 1.63038 t_starcheck: 2.97844
Iteration: 8 converged: 355716 stars: 0 nonstars: 170372459
 Time:  t_cond_hook: 0.64111 t_starcheck1: 0.0735719 t_uncond_hook: 0.720726 t_starcheck2: 0.0609288 t_shortcut: 1.60188 t_starcheck: 2.91659
Iteration: 9 converged: 355716 stars: 170372459 nonstars: 0
 Time:  t_cond_hook: 0.637567 t_starcheck1: 0.042002 t_uncond_hook: 1.07049 t_starcheck2: 0.083065 t_shortcut: 1.52849 t_starcheck: 2.88291
Iteration: 9 converged: 355716 stars: 170372459 nonstars: 0
 Time:  t_cond_hook: 0.637567 t_starcheck1: 0.042002 t_uncond_hook: 1.07049 t_starcheck2: 0.083065 t_shortcut: 1.52849 t_starcheck: 2.88291
Iteration: 10 converged: 170728175 stars: 0 nonstars: 0
Number of components: 5353
Total time: 117.873
=================================================

Process Grid (p x p x t): 8 x 8 x 16
filename: /project/projectdirs/m1982/LACC/noheader/kmer_V1r.mtx
COMBBLAS Warning: It is dangerous to create (matrix) objects without specifying the communicator, are you sure you want to create this object in MPI_COMM_WORLD?
File is 4412689701 bytes
MPIIO WARNING: DVS stripe width of 32 was requested but DVS set it to 28
See MPICH_MPIIO_DVS_MAXNODES in the intro_mpi man page.
As a whole: 214005017 rows and 214005017 columns and 232705452 nonzeros
Symmatricizing an unsymmetric input matrix.
As a whole: 214005017 rows and 214005017 columns and 465410904 nonzeros
File Read time: 99.2367
isolated vertice: 0
Load balance: 1.00051
Nonzeros: 465410904
===== Running the SV algorithm ======
Iteration 1: diff 145241805, spmv 0
total 5.734, GP 2.310, SpMV 1.158, Hooking 2.245, Others 0.021
Iteration 2: diff 134253444, spmv 0
total 8.576, GP 2.781, SpMV 0.654, Hooking 5.121, Others 0.019
Iteration 3: diff 142882581, spmv 0
total 11.968, GP 8.639, SpMV 0.653, Hooking 2.657, Others 0.019
Iteration 4: diff 169969303, spmv 0
total 12.895, GP 9.215, SpMV 0.653, Hooking 3.008, Others 0.019
Iteration 5: diff 201511770, spmv 0
total 11.114, GP 7.820, SpMV 0.686, Hooking 2.590, Others 0.018
Iteration 6: diff 210142594, spmv 0
total 8.976, GP 5.999, SpMV 0.656, Hooking 2.302, Others 0.018
Iteration 7: diff 213920264, spmv 0
total 5.027, GP 2.402, SpMV 0.657, Hooking 1.949, Others 0.019
Iteration 8: diff 3624368, spmv 0
total 4.474, GP 2.008, SpMV 0.649, Hooking 1.799, Others 0.019
Iteration 9: diff 4173, spmv 1
total 4.247, GP 2.008, SpMV 0.590, Hooking 1.631, Others 0.018
Iteration 10: diff 0, spmv 1
total 4.036, GP 2.007, SpMV 0.037, Hooking 1.975, Others 0.018
Number of components: 9
Total time: 80.0905
=================================================

===== Running LACC ======
Iteration: 1 converged: 0 stars: 170489332 nonstars: 43515685
 Time:  t_cond_hook: 1.31626 t_starcheck1: 0.000283003 t_uncond_hook: 3.95638 t_starcheck2: 0.0134768 t_shortcut: 2.72432 t_starcheck: 15.2339
Iteration: 2 converged: 0 stars: 145269512 nonstars: 68735505
 Time:  t_cond_hook: 1.66524 t_starcheck1: 4.60128 t_uncond_hook: 1.93701 t_starcheck2: 0.333393 t_shortcut: 2.79481 t_starcheck: 14.3883
Iteration: 3 converged: 0 stars: 112839330 nonstars: 101165687
 Time:  t_cond_hook: 2.02171 t_starcheck1: 3.88755 t_uncond_hook: 2.2151 t_starcheck2: 0.772961 t_shortcut: 2.9049 t_starcheck: 12.5578
Iteration: 4 converged: 22 stars: 55830213 nonstars: 158174782
 Time:  t_cond_hook: 2.41511 t_starcheck1: 2.65706 t_uncond_hook: 1.64322 t_starcheck2: 0.337515 t_shortcut: 3.20566 t_starcheck: 8.78076
Iteration: 5 converged: 95 stars: 9242780 nonstars: 204762142
 Time:  t_cond_hook: 1.93837 t_starcheck1: 1.02476 t_uncond_hook: 0.944998 t_starcheck2: 0.147653 t_shortcut: 2.63945 t_starcheck: 4.12107
Iteration: 6 converged: 230 stars: 95700 nonstars: 213909087
 Time:  t_cond_hook: 0.908752 t_starcheck1: 0.418871 t_uncond_hook: 0.890818 t_starcheck2: 0.0779738 t_shortcut: 1.96904 t_starcheck: 3.40837
Iteration: 7 converged: 500 stars: 450 nonstars: 214004067
 Time:  t_cond_hook: 0.799936 t_starcheck1: 0.0934799 t_uncond_hook: 1.33045 t_starcheck2: 0.138305 t_shortcut: 1.76449 t_starcheck: 3.31921
Iteration: 8 converged: 625 stars: 0 nonstars: 214004392
 Time:  t_cond_hook: 0.77891 t_starcheck1: 0.08445 t_uncond_hook: 0.835456 t_starcheck2: 0.0747001 t_shortcut: 1.76946 t_starcheck: 3.58605
Iteration: 9 converged: 625 stars: 214004392 nonstars: 0
 Time:  t_cond_hook: 0.736247 t_starcheck1: 0.0505669 t_uncond_hook: 0.834816 t_starcheck2: 0.0725369 t_shortcut: 1.98646 t_starcheck: 3.2741
Iteration: 9 converged: 625 stars: 214004392 nonstars: 0
 Time:  t_cond_hook: 0.736247 t_starcheck1: 0.0505669 t_uncond_hook: 0.834816 t_starcheck2: 0.0725369 t_shortcut: 1.98646 t_starcheck: 3.2741
Iteration: 10 converged: 214005017 stars: 0 nonstars: 0
Number of components: 9
Total time: 141.409
=================================================

Process Grid (p x p x t): 8 x 8 x 16
filename: /project/projectdirs/m1982/LACC/noheader/mawi_201512020330.mtx
COMBBLAS Warning: It is dangerous to create (matrix) objects without specifying the communicator, are you sure you want to create this object in MPI_COMM_WORLD?
File is 5144900929 bytes
MPIIO WARNING: DVS stripe width of 32 was requested but DVS set it to 28
See MPICH_MPIIO_DVS_MAXNODES in the intro_mpi man page.
As a whole: 226196185 rows and 226196185 columns and 240023949 nonzeros
Symmatricizing an unsymmetric input matrix.
As a whole: 226196185 rows and 226196185 columns and 480047894 nonzeros
File Read time: 120.651
isolated vertice: 0
Load balance: 7.15693
Nonzeros: 480047894
===== Running the SV algorithm ======
Iteration 1: diff 58447205, spmv 0
total 12.666, GP 2.597, SpMV 7.712, Hooking 2.337, Others 0.020
Iteration 2: diff 165804661, spmv 0
total 7.316, GP 3.420, SpMV 1.078, Hooking 2.797, Others 0.021
Iteration 3: diff 1436926, spmv 0
total 5.720, GP 2.420, SpMV 1.061, Hooking 2.219, Others 0.020
Iteration 4: diff 2609, spmv 1
total 5.073, GP 2.450, SpMV 0.247, Hooking 2.357, Others 0.019
Iteration 5: diff 575, spmv 1
total 4.470, GP 2.414, SpMV 0.180, Hooking 1.856, Others 0.020
Iteration 6: diff 0, spmv 1
total 4.741, GP 2.364, SpMV 0.161, Hooking 2.197, Others 0.019
Number of components: 3971144
Total time: 50.3718
=================================================

===== Running LACC ======
Iteration: 1 converged: 0 stars: 14307450 nonstars: 211888735
 Time:  t_cond_hook: 14.506 t_starcheck1: 3.00407e-05 t_uncond_hook: 4.51119 t_starcheck2: 0.090955 t_shortcut: 2.20346 t_starcheck: 4.3032
Iteration: 2 converged: 12253501 stars: 251231 nonstars: 213691453
 Time:  t_cond_hook: 1.63436 t_starcheck1: 0.573344 t_uncond_hook: 1.63802 t_starcheck2: 0.37592 t_shortcut: 1.97816 t_starcheck: 3.61791
Iteration: 3 converged: 12469142 stars: 43677 nonstars: 213683366
 Time:  t_cond_hook: 1.22369 t_starcheck1: 0.0686049 t_uncond_hook: 1.5334 t_starcheck2: 0.0870521 t_shortcut: 1.98485 t_starcheck: 3.59089
Iteration: 4 converged: 12507213 stars: 6289 nonstars: 213682683
 Time:  t_cond_hook: 1.20251 t_starcheck1: 0.079361 t_uncond_hook: 1.27642 t_starcheck2: 0.0806439 t_shortcut: 2.02124 t_starcheck: 3.6103
Iteration: 5 converged: 12512884 stars: 213683301 nonstars: 0
 Time:  t_cond_hook: 1.4549 t_starcheck1: 0.0552058 t_uncond_hook: 1.2451 t_starcheck2: 0.078511 t_shortcut: 1.97191 t_starcheck: 3.58137
Iteration: 5 converged: 12512884 stars: 213683301 nonstars: 0
 Time:  t_cond_hook: 1.4549 t_starcheck1: 0.0552058 t_uncond_hook: 1.2451 t_starcheck2: 0.078511 t_shortcut: 1.97191 t_starcheck: 3.58137
Iteration: 6 converged: 226196185 stars: 0 nonstars: 0
Number of components: 3971144
Total time: 70.1266
=================================================

Process Grid (p x p x t): 8 x 8 x 16
filename: /project/projectdirs/m1982/LACC/noheader/uk-2005.mtx
COMBBLAS Warning: It is dangerous to create (matrix) objects without specifying the communicator, are you sure you want to create this object in MPI_COMM_WORLD?
File is 16451547498 bytes
MPIIO WARNING: DVS stripe width of 32 was requested but DVS set it to 28
See MPICH_MPIIO_DVS_MAXNODES in the intro_mpi man page.
As a whole: 39454746 rows and 39454746 columns and 936364282 nonzeros
Symmatricizing an unsymmetric input matrix.
As a whole: 39454746 rows and 39454746 columns and 1581073454 nonzeros
File Read time: 136.294
isolated vertice: 0
Load balance: 1.1018
Nonzeros: 1581073454
===== Running the SV algorithm ======
Iteration 1: diff 34316986, spmv 0
total 1.792, GP 0.784, SpMV 0.542, Hooking 0.463, Others 0.004
Iteration 2: diff 34716282, spmv 0
total 2.129, GP 1.190, SpMV 0.395, Hooking 0.540, Others 0.004
Iteration 3: diff 38820930, spmv 0
total 1.853, GP 0.997, SpMV 0.393, Hooking 0.458, Others 0.004
Iteration 4: diff 10742073, spmv 0
total 1.362, GP 0.566, SpMV 0.386, Hooking 0.406, Others 0.004
Iteration 5: diff 45757, spmv 0
total 1.314, GP 0.559, SpMV 0.384, Hooking 0.368, Others 0.004
Iteration 6: diff 42, spmv 1
total 1.037, GP 0.563, SpMV 0.063, Hooking 0.407, Others 0.004
Iteration 7: diff 0, spmv 1
total 1.017, GP 0.561, SpMV 0.045, Hooking 0.408, Others 0.004
Number of components: 7727
Total time: 11.2062
=================================================

===== Running LACC ======
Iteration: 1 converged: 0 stars: 25873567 nonstars: 13581179
 Time:  t_cond_hook: 0.734568 t_starcheck1: 0.000132084 t_uncond_hook: 1.10921 t_starcheck2: 0.00261188 t_shortcut: 0.640187 t_starcheck: 1.93085
Iteration: 2 converged: 67623 stars: 5172009 nonstars: 34215114
 Time:  t_cond_hook: 1.24636 t_starcheck1: 0.841953 t_uncond_hook: 0.646999 t_starcheck2: 0.0558159 t_shortcut: 0.601215 t_starcheck: 1.08005
Iteration: 3 converged: 144406 stars: 265474 nonstars: 39044866
 Time:  t_cond_hook: 0.530991 t_starcheck1: 0.121297 t_uncond_hook: 0.493296 t_starcheck2: 0.0411401 t_shortcut: 0.488677 t_starcheck: 1.23151
Iteration: 4 converged: 193872 stars: 13727 nonstars: 39247147
 Time:  t_cond_hook: 0.457352 t_starcheck1: 0.022665 t_uncond_hook: 0.47916 t_starcheck2: 0.020509 t_shortcut: 0.451998 t_starcheck: 0.836745
Iteration: 5 converged: 201144 stars: 723 nonstars: 39252879
 Time:  t_cond_hook: 0.455288 t_starcheck1: 0.0391409 t_uncond_hook: 0.481863 t_starcheck2: 0.0171299 t_shortcut: 0.443352 t_starcheck: 1.17621
Iteration: 6 converged: 201867 stars: 39252879 nonstars: 0
 Time:  t_cond_hook: 0.454155 t_starcheck1: 0.0129271 t_uncond_hook: 0.479553 t_starcheck2: 0.0159299 t_shortcut: 0.436097 t_starcheck: 0.825728
Iteration: 6 converged: 201867 stars: 39252879 nonstars: 0
 Time:  t_cond_hook: 0.454155 t_starcheck1: 0.0129271 t_uncond_hook: 0.479553 t_starcheck2: 0.0159299 t_shortcut: 0.436097 t_starcheck: 0.825728
Iteration: 7 converged: 39454746 stars: 0 nonstars: 0
Number of components: 7727
Total time: 27.1502
=================================================

Process Grid (p x p x t): 8 x 8 x 16
filename: /project/projectdirs/m1982/LACC/noheader/twitter7.mtx
COMBBLAS Warning: It is dangerous to create (matrix) objects without specifying the communicator, are you sure you want to create this object in MPI_COMM_WORLD?
File is 24659244697 bytes
MPIIO WARNING: DVS stripe width of 32 was requested but DVS set it to 28
See MPICH_MPIIO_DVS_MAXNODES in the intro_mpi man page.
As a whole: 41652230 rows and 41652230 columns and 1468365182 nonzeros
Symmatricizing an unsymmetric input matrix.
As a whole: 41652230 rows and 41652230 columns and 2405026390 nonzeros
File Read time: 368.917
isolated vertice: 0
Load balance: 1.03885
Nonzeros: 2405026390
===== Running the SV algorithm ======
Iteration 1: diff 36636276, spmv 0
total 2.142, GP 0.790, SpMV 0.825, Hooking 0.523, Others 0.004
Iteration 2: diff 41620900, spmv 0
total 2.374, GP 1.281, SpMV 0.456, Hooking 0.633, Others 0.004
Iteration 3: diff 3244207, spmv 0
total 1.475, GP 0.543, SpMV 0.446, Hooking 0.482, Others 0.004
Iteration 4: diff 158, spmv 0
total 1.455, GP 0.588, SpMV 0.441, Hooking 0.423, Others 0.004
Iteration 5: diff 0, spmv 1
total 1.259, GP 0.727, SpMV 0.060, Hooking 0.447, Others 0.026
Number of components: 1
Total time: 9.84417
=================================================

===== Running LACC ======
Iteration: 1 converged: 0 stars: 5722564 nonstars: 35929666
 Time:  t_cond_hook: 1.39871 t_starcheck1: 0.000230074 t_uncond_hook: 1.10123 t_starcheck2: 0.00273323 t_shortcut: 0.688444 t_starcheck: 1.43757
Iteration: 2 converged: 0 stars: 403 nonstars: 41651827
 Time:  t_cond_hook: 1.50615 t_starcheck1: 0.211286 t_uncond_hook: 0.601727 t_starcheck2: 0.0167201 t_shortcut: 0.557179 t_starcheck: 0.949115
Iteration: 3 converged: 0 stars: 0 nonstars: 41652230
 Time:  t_cond_hook: 0.528008 t_starcheck1: 0.0135622 t_uncond_hook: 0.557299 t_starcheck2: 0.015974 t_shortcut: 0.474478 t_starcheck: 1.34911
Iteration: 4 converged: 0 stars: 41652230 nonstars: 0
 Time:  t_cond_hook: 0.529157 t_starcheck1: 0.0120902 t_uncond_hook: 0.546723 t_starcheck2: 0.0158889 t_shortcut: 0.462852 t_starcheck: 0.859247
Iteration: 4 converged: 0 stars: 41652230 nonstars: 0
 Time:  t_cond_hook: 0.529157 t_starcheck1: 0.0120902 t_uncond_hook: 0.546723 t_starcheck2: 0.0158889 t_shortcut: 0.462852 t_starcheck: 0.859247
Iteration: 5 converged: 41652230 stars: 0 nonstars: 0
Number of components: 1
Total time: 24.7196
=================================================

Process Grid (p x p x t): 8 x 8 x 16
filename: /project/projectdirs/m1982/LACC/noheader/sk-2005.mtx
COMBBLAS Warning: It is dangerous to create (matrix) objects without specifying the communicator, are you sure you want to create this object in MPI_COMM_WORLD?
File is 34382171786 bytes
MPIIO WARNING: DVS stripe width of 32 was requested but DVS set it to 28
See MPICH_MPIIO_DVS_MAXNODES in the intro_mpi man page.
As a whole: 50636073 rows and 50636073 columns and 1949412601 nonzeros
Symmatricizing an unsymmetric input matrix.
As a whole: 50636073 rows and 50636073 columns and 3639246313 nonzeros
File Read time: 287.858
isolated vertice: 0
Load balance: 1.08619
Nonzeros: 3639246313
===== Running the SV algorithm ======
Iteration 1: diff 45282772, spmv 0
total 1.899, GP 0.644, SpMV 0.711, Hooking 0.540, Others 0.005
Iteration 2: diff 48537666, spmv 0
total 2.813, GP 1.590, SpMV 0.620, Hooking 0.598, Others 0.005
Iteration 3: diff 47887993, spmv 0
total 1.771, GP 0.686, SpMV 0.615, Hooking 0.466, Others 0.004
Iteration 4: diff 5757920, spmv 0
total 1.547, GP 0.519, SpMV 0.600, Hooking 0.423, Others 0.005
Iteration 5: diff 97484, spmv 0
total 1.522, GP 0.508, SpMV 0.603, Hooking 0.407, Others 0.004
Iteration 6: diff 352, spmv 1
total 1.039, GP 0.506, SpMV 0.096, Hooking 0.432, Others 0.004
Iteration 7: diff 0, spmv 1
total 1.042, GP 0.521, SpMV 0.080, Hooking 0.437, Others 0.004
Number of components: 45
Total time: 12.1294
=================================================

===== Running LACC ======
Iteration: 1 converged: 0 stars: 22987505 nonstars: 27648568
 Time:  t_cond_hook: 0.781078 t_starcheck1: 0.00018096 t_uncond_hook: 1.22296 t_starcheck2: 0.00325894 t_shortcut: 0.68297 t_starcheck: 1.80578
Iteration: 2 converged: 236 stars: 2358414 nonstars: 48277423
 Time:  t_cond_hook: 1.73214 t_starcheck1: 0.385886 t_uncond_hook: 0.798155 t_starcheck2: 0.038131 t_shortcut: 0.585243 t_starcheck: 0.953125
Iteration: 3 converged: 291 stars: 412217 nonstars: 50223565
 Time:  t_cond_hook: 0.692231 t_starcheck1: 0.127468 t_uncond_hook: 0.684679 t_starcheck2: 0.0285349 t_shortcut: 0.478271 t_starcheck: 0.883717
Iteration: 4 converged: 1673 stars: 29926 nonstars: 50604474
 Time:  t_cond_hook: 0.646082 t_starcheck1: 0.0332732 t_uncond_hook: 0.659372 t_starcheck2: 0.020344 t_shortcut: 0.462659 t_starcheck: 0.898001
Iteration: 5 converged: 1955 stars: 0 nonstars: 50634118
 Time:  t_cond_hook: 0.634112 t_starcheck1: 0.0478809 t_uncond_hook: 0.663418 t_starcheck2: 0.0202408 t_shortcut: 0.451846 t_starcheck: 0.889497
Iteration: 6 converged: 1955 stars: 50634118 nonstars: 0
 Time:  t_cond_hook: 0.63774 t_starcheck1: 0.015413 t_uncond_hook: 0.663718 t_starcheck2: 0.020155 t_shortcut: 0.456427 t_starcheck: 0.847361
Iteration: 6 converged: 1955 stars: 50634118 nonstars: 0
 Time:  t_cond_hook: 0.63774 t_starcheck1: 0.015413 t_uncond_hook: 0.663718 t_starcheck2: 0.020155 t_shortcut: 0.456427 t_starcheck: 0.847361
Iteration: 7 converged: 50636073 stars: 0 nonstars: 0
Number of components: 45
Total time: 36.5514
=================================================

Process Grid (p x p x t): 8 x 8 x 16
filename: /project/projectdirs/m1982/LACC/noheader/MOLIERE_2016.mtx
COMBBLAS Warning: It is dangerous to create (matrix) objects without specifying the communicator, are you sure you want to create this object in MPI_COMM_WORLD?
File is 88119102918 bytes
MPIIO WARNING: DVS stripe width of 32 was requested but DVS set it to 28
See MPICH_MPIIO_DVS_MAXNODES in the intro_mpi man page.
As a whole: 30219118 rows and 30219118 columns and 3338650683 nonzeros
Symmatricizing an unsymmetric input matrix.
As a whole: 30219118 rows and 30219118 columns and 6677301366 nonzeros
File Read time: 1101.5
isolated vertice: 0
Load balance: 1.00845
Nonzeros: 6677301366
===== Running the SV algorithm ======
Iteration 1: diff 29205004, spmv 0
total 2.201, GP 0.651, SpMV 1.219, Hooking 0.327, Others 0.003
Iteration 2: diff 29994634, spmv 0
total 2.321, GP 0.738, SpMV 1.151, Hooking 0.430, Others 0.003
Iteration 3: diff 2574262, spmv 0
total 1.983, GP 0.497, SpMV 1.139, Hooking 0.345, Others 0.003
Iteration 4: diff 222223, spmv 0
total 1.944, GP 0.478, SpMV 1.140, Hooking 0.323, Others 0.003
Iteration 5: diff 1845, spmv 1
total 0.985, GP 0.474, SpMV 0.137, Hooking 0.371, Others 0.004
Iteration 6: diff 0, spmv 1
total 0.940, GP 0.475, SpMV 0.092, Hooking 0.369, Others 0.004
Number of components: 4457
Total time: 10.8374
=================================================

===== Running LACC ======
Iteration: 1 converged: 0 stars: 6674817 nonstars: 23544301
 Time:  t_cond_hook: 1.34924 t_starcheck1: 0.00017786 t_uncond_hook: 1.41431 t_starcheck2: 0.00194788 t_shortcut: 0.558406 t_starcheck: 0.954384
Iteration: 2 converged: 10009 stars: 156671 nonstars: 30052438
 Time:  t_cond_hook: 1.37319 t_starcheck1: 0.174798 t_uncond_hook: 1.24522 t_starcheck2: 0.0198588 t_shortcut: 0.410356 t_starcheck: 0.780885
Iteration: 3 converged: 10088 stars: 6649 nonstars: 30202381
 Time:  t_cond_hook: 1.19359 t_starcheck1: 0.020185 t_uncond_hook: 1.21026 t_starcheck2: 0.013227 t_shortcut: 0.372076 t_starcheck: 0.693567
Iteration: 4 converged: 10088 stars: 123 nonstars: 30208907
 Time:  t_cond_hook: 1.21832 t_starcheck1: 0.014153 t_uncond_hook: 1.18882 t_starcheck2: 0.0127959 t_shortcut: 0.362556 t_starcheck: 0.750638
Iteration: 5 converged: 10088 stars: 0 nonstars: 30209030
 Time:  t_cond_hook: 1.34051 t_starcheck1: 0.068562 t_uncond_hook: 1.18686 t_starcheck2: 0.011971 t_shortcut: 0.369448 t_starcheck: 0.744752
Iteration: 6 converged: 10088 stars: 30209030 nonstars: 0
 Time:  t_cond_hook: 1.21773 t_starcheck1: 0.00958109 t_uncond_hook: 1.18953 t_starcheck2: 0.0121889 t_shortcut: 0.361902 t_starcheck: 0.678175
Iteration: 6 converged: 10088 stars: 30209030 nonstars: 0
 Time:  t_cond_hook: 1.21773 t_starcheck1: 0.00958109 t_uncond_hook: 1.18953 t_starcheck2: 0.0121889 t_shortcut: 0.361902 t_starcheck: 0.678175
Iteration: 7 converged: 30219118 stars: 0 nonstars: 0
Number of components: 4457
Total time: 50.6131
=================================================

srun: Job 23816900 step creation temporarily disabled, retrying
srun: Step created for job 23816900
Process Grid (p x p x t): 8 x 8 x 16
filename: /project/projectdirs/m1982/HipMCL/eukarya/Renamed_euk_vs_euk_30_50length.indexed.list.noheader
COMBBLAS Warning: It is dangerous to create (matrix) objects without specifying the communicator, are you sure you want to create this object in MPI_COMM_WORLD?
File is 7976295135 bytes
MPIIO WARNING: DVS stripe width of 32 was requested but DVS set it to 28
See MPICH_MPIIO_DVS_MAXNODES in the intro_mpi man page.
As a whole: 3243106 rows and 3243106 columns and 359744161 nonzeros
Symmatricizing an unsymmetric input matrix.
As a whole: 3243106 rows and 3243106 columns and 359763936 nonzeros
File Read time: 85.7857
isolated vertice: 0
Load balance: 1.00267
Nonzeros: 359763936
===== Running the SV algorithm ======
Iteration 1: diff 2932181, spmv 0
total 0.306, GP 0.085, SpMV 0.148, Hooking 0.073, Others 0.001
Iteration 2: diff 1798870, spmv 0
total 0.294, GP 0.161, SpMV 0.045, Hooking 0.087, Others 0.001
Iteration 3: diff 1113592, spmv 0
total 0.258, GP 0.134, SpMV 0.045, Hooking 0.078, Others 0.001
Iteration 4: diff 1247465, spmv 0
total 0.230, GP 0.116, SpMV 0.041, Hooking 0.073, Others 0.001
Iteration 5: diff 799875, spmv 0
total 0.224, GP 0.112, SpMV 0.041, Hooking 0.070, Others 0.001
Iteration 6: diff 61702, spmv 0
total 0.224, GP 0.111, SpMV 0.042, Hooking 0.070, Others 0.001
Iteration 7: diff 0, spmv 1
total 0.210, GP 0.111, SpMV 0.028, Hooking 0.071, Others 0.001
Number of components: 164156
Total time: 1.82633
=================================================

===== Running LACC ======
Iteration: 1 converged: 0 stars: 2554298 nonstars: 688808
 Time:  t_cond_hook: 0.154014 t_starcheck1: 2.38419e-05 t_uncond_hook: 0.11447 t_starcheck2: 0.000359058 t_shortcut: 0.0828989 t_starcheck: 0.262556
Iteration: 2 converged: 577766 stars: 2010650 nonstars: 654690
 Time:  t_cond_hook: 0.125654 t_starcheck1: 0.065201 t_uncond_hook: 0.138491 t_starcheck2: 0.0239742 t_shortcut: 0.0626431 t_starcheck: 0.151978
Iteration: 3 converged: 1061288 stars: 1526961 nonstars: 654857
 Time:  t_cond_hook: 0.0674341 t_starcheck1: 0.0453229 t_uncond_hook: 0.0672369 t_starcheck2: 0.0305941 t_shortcut: 0.0450108 t_starcheck: 0.0974131
Iteration: 4 converged: 1659477 stars: 678909 nonstars: 904720
 Time:  t_cond_hook: 0.056318 t_starcheck1: 0.032182 t_uncond_hook: 0.081166 t_starcheck2: 0.0207582 t_shortcut: 0.0335009 t_starcheck: 0.077611
Iteration: 5 converged: 1904934 stars: 1207342 nonstars: 130830
 Time:  t_cond_hook: 0.052485 t_starcheck1: 0.030442 t_uncond_hook: 0.0545571 t_starcheck2: 0.017544 t_shortcut: 0.0283959 t_starcheck: 0.067282
Iteration: 6 converged: 1938893 stars: 1304213 nonstars: 0
 Time:  t_cond_hook: 0.0501459 t_starcheck1: 0.0255351 t_uncond_hook: 0.065191 t_starcheck2: 0.0243361 t_shortcut: 0.0270009 t_starcheck: 0.0503778
Iteration: 6 converged: 1938893 stars: 1304213 nonstars: 0
 Time:  t_cond_hook: 0.0501459 t_starcheck1: 0.0255351 t_uncond_hook: 0.065191 t_starcheck2: 0.0243361 t_shortcut: 0.0270009 t_starcheck: 0.0503778
Iteration: 7 converged: 3243106 stars: 0 nonstars: 0
Number of components: 164156
Total time: 3.8394
=================================================

Process Grid (p x p x t): 8 x 8 x 16
filename: /project/projectdirs/m1982/HipMCL/archaea/Renamed_arch_vs_arch_30_50length.indexed.list.noheader
COMBBLAS Warning: It is dangerous to create (matrix) objects without specifying the communicator, are you sure you want to create this object in MPI_COMM_WORLD?
File is 4401682095 bytes
MPIIO WARNING: DVS stripe width of 32 was requested but DVS set it to 28
See MPICH_MPIIO_DVS_MAXNODES in the intro_mpi man page.
As a whole: 1644227 rows and 1644227 columns and 204784551 nonzeros
Symmatricizing an unsymmetric input matrix.
As a whole: 1644227 rows and 1644227 columns and 204792654 nonzeros
File Read time: 48.7156
isolated vertice: 0
Load balance: 1.00739
Nonzeros: 204792654
===== Running the SV algorithm ======
Iteration 1: diff 1530708, spmv 0
total 0.127, GP 0.051, SpMV 0.036, Hooking 0.040, Others 0.000
Iteration 2: diff 903421, spmv 0
total 0.174, GP 0.095, SpMV 0.024, Hooking 0.054, Others 0.000
Iteration 3: diff 464796, spmv 0
total 0.161, GP 0.074, SpMV 0.042, Hooking 0.043, Others 0.000
Iteration 4: diff 390180, spmv 0
total 0.156, GP 0.092, SpMV 0.020, Hooking 0.044, Others 0.000
Iteration 5: diff 276779, spmv 0
total 0.128, GP 0.066, SpMV 0.021, Hooking 0.040, Others 0.000
Iteration 6: diff 204544, spmv 0
total 0.148, GP 0.066, SpMV 0.044, Hooking 0.038, Others 0.001
Iteration 7: diff 10701, spmv 0
total 0.130, GP 0.067, SpMV 0.021, Hooking 0.042, Others 0.000
Iteration 8: diff 0, spmv 1
total 0.151, GP 0.067, SpMV 0.024, Hooking 0.059, Others 0.000
Number of components: 59794
Total time: 1.30639
=================================================

===== Running LACC ======
Iteration: 1 converged: 0 stars: 1333418 nonstars: 310809
 Time:  t_cond_hook: 0.126715 t_starcheck1: 1.81198e-05 t_uncond_hook: 0.0643499 t_starcheck2: 0.000236034 t_shortcut: 0.046649 t_starcheck: 0.138947
Iteration: 2 converged: 279740 stars: 1103408 nonstars: 261079
 Time:  t_cond_hook: 0.073065 t_starcheck1: 0.0328369 t_uncond_hook: 0.082001 t_starcheck2: 0.0130918 t_shortcut: 0.0316451 t_starcheck: 0.089174
Iteration: 3 converged: 509132 stars: 969729 nonstars: 165366
 Time:  t_cond_hook: 0.033783 t_starcheck1: 0.0250969 t_uncond_hook: 0.0366659 t_starcheck2: 0.0178649 t_shortcut: 0.0251012 t_starcheck: 0.049969
Iteration: 4 converged: 921298 stars: 525011 nonstars: 197918
 Time:  t_cond_hook: 0.0305781 t_starcheck1: 0.0330451 t_uncond_hook: 0.048898 t_starcheck2: 0.0152571 t_shortcut: 0.0169079 t_starcheck: 0.0435719
Iteration: 5 converged: 1130882 stars: 443194 nonstars: 70151
 Time:  t_cond_hook: 0.027272 t_starcheck1: 0.0252502 t_uncond_hook: 0.0330369 t_starcheck2: 0.0108669 t_shortcut: 0.013185 t_starcheck: 0.0349309
Iteration: 6 converged: 1258664 stars: 374274 nonstars: 11289
 Time:  t_cond_hook: 0.0502481 t_starcheck1: 0.023783 t_uncond_hook: 0.02865 t_starcheck2: 0.005584 t_shortcut: 0.00971913 t_starcheck: 0.031898
Iteration: 7 converged: 1272765 stars: 371462 nonstars: 0
 Time:  t_cond_hook: 0.0257339 t_starcheck1: 0.0107141 t_uncond_hook: 0.023514 t_starcheck2: 0.00911808 t_shortcut: 0.01019 t_starcheck: 0.0185971
Iteration: 7 converged: 1272765 stars: 371462 nonstars: 0
 Time:  t_cond_hook: 0.0257339 t_starcheck1: 0.0107141 t_uncond_hook: 0.023514 t_starcheck2: 0.00911808 t_shortcut: 0.01019 t_starcheck: 0.0185971
Iteration: 8 converged: 1644227 stars: 0 nonstars: 0
Number of components: 59794
Total time: 2.28261
=================================================

Process Grid (p x p x t): 8 x 8 x 16
filename: /project/projectdirs/m1982/LACC/noheader/out.dbpedia-link
COMBBLAS Warning: It is dangerous to create (matrix) objects without specifying the communicator, are you sure you want to create this object in MPI_COMM_WORLD?
File is 2712460738 bytes
MPIIO WARNING: DVS stripe width of 32 was requested but DVS set it to 28
See MPICH_MPIIO_DVS_MAXNODES in the intro_mpi man page.
As a whole: 18268991 rows and 18268991 columns and 136537566 nonzeros
Symmatricizing an unsymmetric input matrix.
As a whole: 18268991 rows and 18268991 columns and 253780418 nonzeros
File Read time: 35.2927
isolated vertice: 0
Load balance: 1.0896
Nonzeros: 253780418
===== Running the SV algorithm ======
Iteration 1: diff 11597204, spmv 0
total 0.644, GP 0.261, SpMV 0.169, Hooking 0.211, Others 0.002
Iteration 2: diff 18248660, spmv 0
total 0.919, GP 0.575, SpMV 0.108, Hooking 0.234, Others 0.002
Iteration 3: diff 18263171, spmv 0
total 0.736, GP 0.410, SpMV 0.111, Hooking 0.213, Others 0.002
Iteration 4: diff 27554, spmv 0
total 0.486, GP 0.213, SpMV 0.110, Hooking 0.162, Others 0.002
Iteration 5: diff 0, spmv 1
total 0.413, GP 0.211, SpMV 0.031, Hooking 0.169, Others 0.002
Number of components: 1365
Total time: 3.54935
=================================================

===== Running LACC ======
Iteration: 1 converged: 0 stars: 5553381 nonstars: 12715610
 Time:  t_cond_hook: 0.245799 t_starcheck1: 6.48499e-05 t_uncond_hook: 0.394048 t_starcheck2: 0.00133801 t_shortcut: 0.302933 t_starcheck: 0.984238
Iteration: 2 converged: 3446 stars: 3638 nonstars: 18261907
 Time:  t_cond_hook: 0.419142 t_starcheck1: 0.206285 t_uncond_hook: 0.1724 t_starcheck2: 0.00908899 t_shortcut: 0.268946 t_starcheck: 0.41194
Iteration: 3 converged: 3446 stars: 33 nonstars: 18265512
 Time:  t_cond_hook: 0.129045 t_starcheck1: 0.00853801 t_uncond_hook: 0.135755 t_starcheck2: 0.011271 t_shortcut: 0.189593 t_starcheck: 0.356328
Iteration: 4 converged: 3479 stars: 18265512 nonstars: 0
 Time:  t_cond_hook: 0.125898 t_starcheck1: 0.00744915 t_uncond_hook: 0.135533 t_starcheck2: 0.00934505 t_shortcut: 0.184043 t_starcheck: 0.336709
Iteration: 4 converged: 3479 stars: 18265512 nonstars: 0
 Time:  t_cond_hook: 0.125898 t_starcheck1: 0.00744915 t_uncond_hook: 0.135533 t_starcheck2: 0.00934505 t_shortcut: 0.184043 t_starcheck: 0.336709
Iteration: 5 converged: 18268991 stars: 0 nonstars: 0
Number of components: 1365
Total time: 6.66376
=================================================

Process Grid (p x p x t): 8 x 8 x 16
filename: /project/projectdirs/m1982/LACC/noheader/sd1-arc
COMBBLAS Warning: It is dangerous to create (matrix) objects without specifying the communicator, are you sure you want to create this object in MPI_COMM_WORLD?
File is 34401667529 bytes
MPIIO WARNING: DVS stripe width of 32 was requested but DVS set it to 28
See MPICH_MPIIO_DVS_MAXNODES in the intro_mpi man page.
As a whole: 82924686 rows and 82924686 columns and 1937489265 nonzeros
Symmatricizing an unsymmetric input matrix.
As a whole: 82924686 rows and 82924686 columns and 3681303908 nonzeros
File Read time: 463.683
isolated vertice: 0
Load balance: 1.01276
Nonzeros: 3681303908
===== Running the SV algorithm ======
Iteration 1: diff 66153513, spmv 0
total 3.032, GP 1.249, SpMV 0.896, Hooking 0.879, Others 0.008
Iteration 2: diff 81942259, spmv 0
total 4.530, GP 2.745, SpMV 0.755, Hooking 1.022, Others 0.008
Iteration 3: diff 65165911, spmv 0
total 2.625, GP 1.039, SpMV 0.767, Hooking 0.811, Others 0.008
Iteration 4: diff 199808, spmv 0
total 2.378, GP 0.966, SpMV 0.716, Hooking 0.688, Others 0.008
Iteration 5: diff 203, spmv 1
total 1.840, GP 0.969, SpMV 0.112, Hooking 0.752, Others 0.007
Iteration 6: diff 91, spmv 1
total 1.777, GP 0.956, SpMV 0.075, Hooking 0.739, Others 0.007
Iteration 7: diff 0, spmv 1
total 1.770, GP 0.954, SpMV 0.069, Hooking 0.739, Others 0.007
Number of components: 246969
Total time: 19.3378
=================================================

===== Running LACC ======
Iteration: 1 converged: 0 stars: 32532103 nonstars: 50392583
 Time:  t_cond_hook: 1.11155 t_starcheck1: 0.000211 t_uncond_hook: 1.80004 t_starcheck2: 0.00527811 t_shortcut: 1.16937 t_starcheck: 3.40528
Iteration: 2 converged: 555121 stars: 161391 nonstars: 82208174
 Time:  t_cond_hook: 1.15331 t_starcheck1: 0.601018 t_uncond_hook: 0.944052 t_starcheck2: 0.0486429 t_shortcut: 1.06498 t_starcheck: 1.70744
Iteration: 3 converged: 572019 stars: 60689 nonstars: 82291978
 Time:  t_cond_hook: 0.845814 t_starcheck1: 0.032763 t_uncond_hook: 0.855587 t_starcheck2: 0.0352728 t_shortcut: 0.875353 t_starcheck: 1.54156
Iteration: 4 converged: 631469 stars: 990 nonstars: 82292227
 Time:  t_cond_hook: 0.783356 t_starcheck1: 0.0993121 t_uncond_hook: 0.835671 t_starcheck2: 0.0330999 t_shortcut: 0.832682 t_starcheck: 1.59624
Iteration: 5 converged: 632001 stars: 82292685 nonstars: 0
 Time:  t_cond_hook: 0.866578 t_starcheck1: 0.0620871 t_uncond_hook: 0.906105 t_starcheck2: 0.030746 t_shortcut: 0.812328 t_starcheck: 1.50686
Iteration: 5 converged: 632001 stars: 82292685 nonstars: 0
 Time:  t_cond_hook: 0.866578 t_starcheck1: 0.0620871 t_uncond_hook: 0.906105 t_starcheck2: 0.030746 t_shortcut: 0.812328 t_starcheck: 1.50686
Iteration: 6 converged: 82924686 stars: 0 nonstars: 0
Number of components: 246969
Total time: 42.9017
=================================================

