Process Grid (p x p x t): 32 x 32 x 16
filename: /global/cscratch1/sd/azad/Renamed_graph_Metaclust50_MATRIX_DENSE.txt
COMBBLAS Warning: It is dangerous to create (matrix) objects without specifying the communicator, are you sure you want to create this object in MPI_COMM_WORLD?
File is 975394073985 bytes
As a whole: 282195326 rows and 282195326 columns and 37278912340 nonzeros
Symmatricizing an unsymmetric input matrix.
As a whole: 282195326 rows and 282195326 columns and 42788019521 nonzeros
File Read time: 1114.56
isolated vertice: 0
Load balance: 1.00677
Nonzeros: 42788019521
===== Running the SV algorithm ======
Iteration 1: diff 238236292, spmv 0
total 2.056, GP 0.621, SpMV 1.149, Hooking 0.283, Others 0.003
Iteration 2: diff 221161940, spmv 0
total 2.547, GP 1.193, SpMV 0.848, Hooking 0.502, Others 0.003
Iteration 3: diff 208878140, spmv 0
total 2.442, GP 1.135, SpMV 0.837, Hooking 0.466, Others 0.003
Iteration 4: diff 206784529, spmv 0
total 2.266, GP 1.046, SpMV 0.837, Hooking 0.380, Others 0.003
Iteration 5: diff 150328172, spmv 0
total 2.068, GP 0.870, SpMV 0.830, Hooking 0.365, Others 0.003
Iteration 6: diff 4014644, spmv 0
total 1.976, GP 0.835, SpMV 0.826, Hooking 0.312, Others 0.003
Iteration 7: diff 145211, spmv 1
total 1.419, GP 0.781, SpMV 0.265, Hooking 0.369, Others 0.003
Iteration 8: diff 2848, spmv 1
total 1.239, GP 0.766, SpMV 0.129, Hooking 0.340, Others 0.003
Iteration 9: diff 0, spmv 1
total 1.228, GP 0.768, SpMV 0.117, Hooking 0.340, Others 0.003
Number of components: 15982994
Total time: 20.3171
=================================================

===== Running LACC ======
Iteration: 1 converged: 0 stars: 158090649 nonstars: 124104677
 Time:  t_cond_hook: 1.27624 t_starcheck1: 6.60419e-05 t_uncond_hook: 1.22506 t_starcheck2: 0.019618 t_shortcut: 0.536292 t_starcheck: 1.76086
Iteration: 2 converged: 39260927 stars: 87949444 nonstars: 154984955
 Time:  t_cond_hook: 1.09561 t_starcheck1: 1.29638 t_uncond_hook: 1.0225 t_starcheck2: 0.086653 t_shortcut: 0.438845 t_starcheck: 1.43952
Iteration: 3 converged: 47428480 stars: 49993696 nonstars: 184773150
 Time:  t_cond_hook: 0.962141 t_starcheck1: 0.341479 t_uncond_hook: 1.29507 t_starcheck2: 0.0928941 t_shortcut: 0.381634 t_starcheck: 1.24333
Iteration: 4 converged: 55136228 stars: 75006197 nonstars: 152052901
 Time:  t_cond_hook: 1.2294 t_starcheck1: 0.153157 t_uncond_hook: 1.18916 t_starcheck2: 0.085247 t_shortcut: 0.313562 t_starcheck: 0.904872
Iteration: 5 converged: 63428227 stars: 5465840 nonstars: 213301259
 Time:  t_cond_hook: 0.915063 t_starcheck1: 0.174007 t_uncond_hook: 0.942226 t_starcheck2: 0.084481 t_shortcut: 0.277393 t_starcheck: 0.674324
Iteration: 6 converged: 67638013 stars: 996087 nonstars: 213561226
 Time:  t_cond_hook: 0.886525 t_starcheck1: 0.0577691 t_uncond_hook: 0.899882 t_starcheck2: 0.041472 t_shortcut: 0.236472 t_starcheck: 0.546816
Iteration: 7 converged: 68544789 stars: 44216 nonstars: 213606321
 Time:  t_cond_hook: 0.878314 t_starcheck1: 0.127856 t_uncond_hook: 0.886677 t_starcheck2: 0.0546191 t_shortcut: 0.237127 t_starcheck: 0.524343
Iteration: 8 converged: 68589005 stars: 213606321 nonstars: 0
 Time:  t_cond_hook: 0.873644 t_starcheck1: 0.027159 t_uncond_hook: 0.885012 t_starcheck2: 0.018219 t_shortcut: 0.225426 t_starcheck: 0.43408
Iteration: 8 converged: 68589005 stars: 213606321 nonstars: 0
 Time:  t_cond_hook: 0.873644 t_starcheck1: 0.027159 t_uncond_hook: 0.885012 t_starcheck2: 0.018219 t_shortcut: 0.225426 t_starcheck: 0.43408
Iteration: 9 converged: 282195326 stars: 0 nonstars: 0
Number of components: 15982994
Total time: 41.5484
=================================================



Process Grid (p x p x t): 32 x 32 x 16
filename: /global/cscratch1/sd/azad/hyperlinkgraph/all_hyperlinks.txt
COMBBLAS Warning: It is dangerous to create (matrix) objects without specifying the communicator, are you sure you want to create this object in MPI_COMM_WORLD?
File is 2665270142513 bytes
Error in Matrix Market format, appending missing newline at end of file
Error in Matrix Market format, appending missing newline at end of file
As a whole: 3270956391 rows and 3270956391 columns and 124904959926 nonzeros
Symmatricizing an unsymmetric input matrix.
As a whole: 3270956391 rows and 3270956391 columns and 218956070349 nonzeros
File Read time: 2265.54
isolated vertice: 0
Load balance: 1.20244
Nonzeros: 218956070349
===== Running the SV algorithm ======
Iteration 1: diff 2868352955, spmv 0
total 14.798, GP 4.464, SpMV 7.891, Hooking 2.424, Others 0.019
Iteration 2: diff 3112070723, spmv 0
total 22.181, GP 12.370, SpMV 5.513, Hooking 4.279, Others 0.020
Iteration 3: diff 3170005165, spmv 0
total 19.644, GP 11.421, SpMV 5.553, Hooking 2.650, Others 0.020
Iteration 4: diff 172569576, spmv 0
total 13.601, GP 6.108, SpMV 5.522, Hooking 1.950, Others 0.020
Iteration 5: diff 1119412, spmv 0
total 10.407, GP 3.143, SpMV 5.483, Hooking 1.761, Others 0.020
Iteration 6: diff 177083, spmv 1
total 5.425, GP 3.051, SpMV 0.551, Hooking 1.804, Others 0.019
Iteration 7: diff 47646, spmv 1
total 5.287, GP 3.054, SpMV 0.387, Hooking 1.826, Others 0.019
Iteration 8: diff 4790, spmv 1
total 5.311, GP 3.091, SpMV 0.389, Hooking 1.812, Others 0.019
Iteration 9: diff 580, spmv 1
total 5.193, GP 3.062, SpMV 0.296, Hooking 1.816, Others 0.019
Iteration 10: diff 0, spmv 1
total 5.181, GP 3.064, SpMV 0.284, Hooking 1.815, Others 0.019
Number of components: 29360027
Total time: 109.286
=================================================

===== Running LACC ======
Iteration: 1 converged: 0 stars: 2906618368 nonstars: 364338023
 Time:  t_cond_hook: 15.713 t_starcheck1: 0.000332832 t_uncond_hook: 9.28847 t_starcheck2: 0.035346 t_shortcut: 5.12504 t_starcheck: 16.1573
Iteration: 2 converged: 73645403 stars: 3098012410 nonstars: 99298578
 Time:  t_cond_hook: 8.85428 t_starcheck1: 20.2287 t_uncond_hook: 7.14981 t_starcheck2: 0.363887 t_shortcut: 3.94137 t_starcheck: 15.31
Iteration: 3 converged: 87041609 stars: 557412161 nonstars: 2626502621
 Time:  t_cond_hook: 7.28129 t_starcheck1: 2.37353 t_uncond_hook: 6.29161 t_starcheck2: 0.254288 t_shortcut: 2.68418 t_starcheck: 4.10069
Iteration: 4 converged: 96146808 stars: 9597794 nonstars: 3165211789
 Time:  t_cond_hook: 6.15359 t_starcheck1: 0.597506 t_uncond_hook: 5.83759 t_starcheck2: 0.224747 t_shortcut: 1.98028 t_starcheck: 3.49041
Iteration: 5 converged: 97779356 stars: 939269 nonstars: 3172237766
 Time:  t_cond_hook: 6.26403 t_starcheck1: 0.259648 t_uncond_hook: 5.76446 t_starcheck2: 0.100657 t_shortcut: 1.92696 t_starcheck: 3.4392
Iteration: 6 converged: 98375170 stars: 212219 nonstars: 3172369002
 Time:  t_cond_hook: 5.66872 t_starcheck1: 0.0837641 t_uncond_hook: 5.64568 t_starcheck2: 0.0935869 t_shortcut: 1.9232 t_starcheck: 3.41815
Iteration: 7 converged: 98574575 stars: 9350 nonstars: 3172372466
 Time:  t_cond_hook: 5.56481 t_starcheck1: 0.068898 t_uncond_hook: 5.69451 t_starcheck2: 0.0830119 t_shortcut: 1.92337 t_starcheck: 3.53875
Iteration: 8 converged: 98582890 stars: 3172373501 nonstars: 0
 Time:  t_cond_hook: 5.71532 t_starcheck1: 0.17701 t_uncond_hook: 5.88461 t_starcheck2: 0.0802171 t_shortcut: 1.87451 t_starcheck: 3.3938
Iteration: 8 converged: 98582890 stars: 3172373501 nonstars: 0
 Time:  t_cond_hook: 5.71532 t_starcheck1: 0.17701 t_uncond_hook: 5.88461 t_starcheck2: 0.0802171 t_shortcut: 1.87451 t_starcheck: 3.3938
Iteration: 9 converged: 3270956391 stars: 0 nonstars: 0
Number of components: 29360027
Total time: 290.486
=================================================


