Process Grid (p x p x t): 32 x 32 x 16
filename: /project/projectdirs/m1982/LACC/noheader/HV15R.mtx
COMBBLAS Warning: It is dangerous to create (matrix) objects without specifying the communicator, are you sure you want to create this object in MPI_COMM_WORLD?
File is 10095084900 bytes
MPIIO WARNING: DVS stripe width of 32 was requested but DVS set it to 28
See MPICH_MPIIO_DVS_MAXNODES in the intro_mpi man page.
As a whole: 2017169 rows and 2017169 columns and 283073458 nonzeros
Symmatricizing an unsymmetric input matrix.
As a whole: 2017169 rows and 2017169 columns and 326732307 nonzeros
File Read time: 4.29683
isolated vertice: 0
Load balance: 1.1989
Nonzeros: 326732307
===== Running the SV algorithm ======
Iteration 1: diff 2002215, spmv 0
total 0.275, GP 0.121, SpMV 0.069, Hooking 0.086, Others 0.000
Iteration 2: diff 1887420, spmv 0
total 0.113, GP 0.031, SpMV 0.013, Hooking 0.069, Others 0.000
Iteration 3: diff 1828471, spmv 0
total 0.089, GP 0.030, SpMV 0.013, Hooking 0.046, Others 0.000
Iteration 4: diff 1723598, spmv 0
total 0.063, GP 0.018, SpMV 0.013, Hooking 0.032, Others 0.000
Iteration 5: diff 1408603, spmv 0
total 0.043, GP 0.017, SpMV 0.013, Hooking 0.012, Others 0.000
Iteration 6: diff 469907, spmv 0
total 0.041, GP 0.017, SpMV 0.013, Hooking 0.011, Others 0.000
Iteration 7: diff 0, spmv 0
total 0.041, GP 0.016, SpMV 0.013, Hooking 0.011, Others 0.000
Number of components: 1
Total time: 0.951053
=================================================

===== Running LACC ======
Iteration: 1 converged: 0 stars: 1107075 nonstars: 910094
 Time:  t_cond_hook: 0.168783 t_starcheck1: 1.28746e-05 t_uncond_hook: 0.0993421 t_starcheck2: 0.000190973 t_shortcut: 0.0867841 t_starcheck: 0.230202
Iteration: 2 converged: 0 stars: 822458 nonstars: 1194711
 Time:  t_cond_hook: 0.0316169 t_starcheck1: 0.026551 t_uncond_hook: 0.03426 t_starcheck2: 0.0120752 t_shortcut: 0.0160558 t_starcheck: 0.0398221
Iteration: 3 converged: 0 stars: 657707 nonstars: 1359462
 Time:  t_cond_hook: 0.0257139 t_starcheck1: 0.0269709 t_uncond_hook: 0.023314 t_starcheck2: 0.00779295 t_shortcut: 0.0142281 t_starcheck: 0.0433931
Iteration: 4 converged: 0 stars: 461192 nonstars: 1555977
 Time:  t_cond_hook: 0.0304341 t_starcheck1: 0.0270619 t_uncond_hook: 0.0248251 t_starcheck2: 0.00852704 t_shortcut: 0.0131431 t_starcheck: 0.0391591
Iteration: 5 converged: 0 stars: 0 nonstars: 2017169
 Time:  t_cond_hook: 0.0295079 t_starcheck1: 0.028585 t_uncond_hook: 0.02402 t_starcheck2: 0.00817299 t_shortcut: 0.0105689 t_starcheck: 0.0408769
Iteration: 6 converged: 0 stars: 2017169 nonstars: 0
 Time:  t_cond_hook: 0.024528 t_starcheck1: 0.0154579 t_uncond_hook: 0.0221939 t_starcheck2: 0.00861311 t_shortcut: 0.0100372 t_starcheck: 0.027046
Iteration: 6 converged: 0 stars: 2017169 nonstars: 0
 Time:  t_cond_hook: 0.024528 t_starcheck1: 0.0154579 t_uncond_hook: 0.0221939 t_starcheck2: 0.00861311 t_shortcut: 0.0100372 t_starcheck: 0.027046
Iteration: 7 converged: 2017169 stars: 0 nonstars: 0
Number of components: 1
Total time: 1.64148
=================================================

Process Grid (p x p x t): 32 x 32 x 16
filename: /project/projectdirs/m1982/LACC/noheader/uk-2002.mtx
COMBBLAS Warning: It is dangerous to create (matrix) objects without specifying the communicator, are you sure you want to create this object in MPI_COMM_WORLD?
File is 5042641736 bytes
MPIIO WARNING: DVS stripe width of 32 was requested but DVS set it to 28
See MPICH_MPIIO_DVS_MAXNODES in the intro_mpi man page.
As a whole: 18484117 rows and 18484117 columns and 298113762 nonzeros
Symmatricizing an unsymmetric input matrix.
As a whole: 18484117 rows and 18484117 columns and 529444615 nonzeros
File Read time: 5.15887
isolated vertice: 0
Load balance: 1.36998
Nonzeros: 529444615
===== Running the SV algorithm ======
Iteration 1: diff 15548174, spmv 0
total 0.358, GP 0.165, SpMV 0.106, Hooking 0.087, Others 0.000
Iteration 2: diff 16187106, spmv 0
total 0.388, GP 0.178, SpMV 0.059, Hooking 0.150, Others 0.000
Iteration 3: diff 18043400, spmv 0
total 0.261, GP 0.129, SpMV 0.048, Hooking 0.083, Others 0.000
Iteration 4: diff 10903723, spmv 0
total 0.209, GP 0.102, SpMV 0.047, Hooking 0.059, Others 0.000
Iteration 5: diff 257804, spmv 0
total 0.185, GP 0.082, SpMV 0.048, Hooking 0.053, Others 0.000
Iteration 6: diff 2202, spmv 1
total 0.238, GP 0.050, SpMV 0.138, Hooking 0.049, Others 0.000
Iteration 7: diff 0, spmv 1
total 0.105, GP 0.047, SpMV 0.009, Hooking 0.048, Others 0.000
Number of components: 1990
Total time: 2.06513
=================================================

===== Running LACC ======
Iteration: 1 converged: 0 stars: 12140894 nonstars: 6343223
 Time:  t_cond_hook: 0.132769 t_starcheck1: 7.51019e-05 t_uncond_hook: 0.143222 t_starcheck2: 0.00230598 t_shortcut: 0.130387 t_starcheck: 0.343087
Iteration: 2 converged: 7156 stars: 4267380 nonstars: 14209581
 Time:  t_cond_hook: 0.080198 t_starcheck1: 0.180033 t_uncond_hook: 0.135866 t_starcheck2: 0.017735 t_shortcut: 0.0538769 t_starcheck: 0.168532
Iteration: 3 converged: 16318 stars: 342747 nonstars: 18125052
 Time:  t_cond_hook: 0.126621 t_starcheck1: 0.0357518 t_uncond_hook: 0.0781322 t_starcheck2: 0.0391829 t_shortcut: 0.0399549 t_starcheck: 0.146872
Iteration: 4 converged: 24086 stars: 25592 nonstars: 18434439
 Time:  t_cond_hook: 0.0753729 t_starcheck1: 0.0240428 t_uncond_hook: 0.0682921 t_starcheck2: 0.0117469 t_shortcut: 0.0347791 t_starcheck: 0.0721309
Iteration: 5 converged: 24494 stars: 2152 nonstars: 18457471
 Time:  t_cond_hook: 0.064456 t_starcheck1: 0.0205541 t_uncond_hook: 0.066715 t_starcheck2: 0.0116529 t_shortcut: 0.029407 t_starcheck: 0.0758538
Iteration: 6 converged: 24989 stars: 18459128 nonstars: 0
 Time:  t_cond_hook: 0.0830531 t_starcheck1: 0.0379379 t_uncond_hook: 0.0609059 t_starcheck2: 0.012114 t_shortcut: 0.0520358 t_starcheck: 0.0597131
Iteration: 6 converged: 24989 stars: 18459128 nonstars: 0
 Time:  t_cond_hook: 0.0830531 t_starcheck1: 0.0379379 t_uncond_hook: 0.0609059 t_starcheck2: 0.012114 t_shortcut: 0.0520358 t_starcheck: 0.0597131
Iteration: 7 converged: 18484117 stars: 0 nonstars: 0
Number of components: 1990
Total time: 3.2898
=================================================

Process Grid (p x p x t): 32 x 32 x 16
filename: /project/projectdirs/m1982/LACC/noheader/Queen_4147.mtx
COMBBLAS Warning: It is dangerous to create (matrix) objects without specifying the communicator, are you sure you want to create this object in MPI_COMM_WORLD?
File is 4801000621 bytes
MPIIO WARNING: DVS stripe width of 32 was requested but DVS set it to 28
See MPICH_MPIIO_DVS_MAXNODES in the intro_mpi man page.
As a whole: 4147110 rows and 4147110 columns and 166823197 nonzeros
Symmatricizing an unsymmetric input matrix.
As a whole: 4147110 rows and 4147110 columns and 329499284 nonzeros
File Read time: 8.54694
isolated vertice: 0
Load balance: 1.39598
Nonzeros: 329499284
===== Running the SV algorithm ======
Iteration 1: diff 4094239, spmv 0
total 0.282, GP 0.119, SpMV 0.089, Hooking 0.074, Others 0.000
Iteration 2: diff 3775657, spmv 0
total 0.223, GP 0.082, SpMV 0.025, Hooking 0.115, Others 0.001
Iteration 3: diff 3756325, spmv 0
total 0.112, GP 0.044, SpMV 0.023, Hooking 0.045, Others 0.000
Iteration 4: diff 3663423, spmv 0
total 0.099, GP 0.032, SpMV 0.025, Hooking 0.042, Others 0.000
Iteration 5: diff 3334885, spmv 0
total 0.096, GP 0.022, SpMV 0.026, Hooking 0.047, Others 0.000
Iteration 6: diff 3688048, spmv 0
total 0.065, GP 0.022, SpMV 0.024, Hooking 0.018, Others 0.000
Iteration 7: diff 1518636, spmv 0
total 0.062, GP 0.021, SpMV 0.022, Hooking 0.019, Others 0.000
Iteration 8: diff 0, spmv 0
total 0.067, GP 0.024, SpMV 0.024, Hooking 0.018, Others 0.000
Number of components: 1
Total time: 1.20255
=================================================

===== Running LACC ======
Iteration: 1 converged: 0 stars: 2468375 nonstars: 1678735
 Time:  t_cond_hook: 0.176342 t_starcheck1: 1.38283e-05 t_uncond_hook: 0.118635 t_starcheck2: 0.000293016 t_shortcut: 0.0751359 t_starcheck: 0.2276
Iteration: 2 converged: 0 stars: 1826235 nonstars: 2320875
 Time:  t_cond_hook: 0.052392 t_starcheck1: 0.040345 t_uncond_hook: 0.0584769 t_starcheck2: 0.0135138 t_shortcut: 0.0190051 t_starcheck: 0.067729
Iteration: 3 converged: 0 stars: 1528310 nonstars: 2618800
 Time:  t_cond_hook: 0.0453269 t_starcheck1: 0.045233 t_uncond_hook: 0.0469661 t_starcheck2: 0.017278 t_shortcut: 0.017741 t_starcheck: 0.0533381
Iteration: 4 converged: 0 stars: 1557318 nonstars: 2589792
 Time:  t_cond_hook: 0.0390501 t_starcheck1: 0.0291421 t_uncond_hook: 0.051749 t_starcheck2: 0.0163231 t_shortcut: 0.0156889 t_starcheck: 0.044853
Iteration: 5 converged: 0 stars: 1415305 nonstars: 2731805
 Time:  t_cond_hook: 0.040025 t_starcheck1: 0.0287931 t_uncond_hook: 0.0447221 t_starcheck2: 0.00986481 t_shortcut: 0.015734 t_starcheck: 0.045743
Iteration: 6 converged: 0 stars: 0 nonstars: 4147110
 Time:  t_cond_hook: 0.04179 t_starcheck1: 0.02846 t_uncond_hook: 0.041594 t_starcheck2: 0.00843096 t_shortcut: 0.0132842 t_starcheck: 0.043592
Iteration: 7 converged: 0 stars: 4147110 nonstars: 0
 Time:  t_cond_hook: 0.0384591 t_starcheck1: 0.015274 t_uncond_hook: 0.043479 t_starcheck2: 0.00903296 t_shortcut: 0.0136831 t_starcheck: 0.0333838
Iteration: 7 converged: 0 stars: 4147110 nonstars: 0
 Time:  t_cond_hook: 0.0384591 t_starcheck1: 0.015274 t_uncond_hook: 0.043479 t_starcheck2: 0.00903296 t_shortcut: 0.0136831 t_starcheck: 0.0333838
Iteration: 8 converged: 4147110 stars: 0 nonstars: 0
Number of components: 1
Total time: 2.20619
=================================================

Process Grid (p x p x t): 32 x 32 x 16
filename: /project/projectdirs/m1982/LACC/noheader/kmer_A2a.mtx
COMBBLAS Warning: It is dangerous to create (matrix) objects without specifying the communicator, are you sure you want to create this object in MPI_COMM_WORLD?
File is 3370814474 bytes
MPIIO WARNING: DVS stripe width of 32 was requested but DVS set it to 28
See MPICH_MPIIO_DVS_MAXNODES in the intro_mpi man page.
As a whole: 170728175 rows and 170728175 columns and 180292586 nonzeros
Symmatricizing an unsymmetric input matrix.
As a whole: 170728175 rows and 170728175 columns and 360585172 nonzeros
File Read time: 5.81601
isolated vertice: 0
Load balance: 1.00545
Nonzeros: 360585172
===== Running the SV algorithm ======
Iteration 1: diff 114976404, spmv 0
total 0.862, GP 0.348, SpMV 0.349, Hooking 0.163, Others 0.002
Iteration 2: diff 103090354, spmv 0
total 0.961, GP 0.414, SpMV 0.242, Hooking 0.303, Others 0.002
Iteration 3: diff 106249066, spmv 0
total 1.294, GP 0.488, SpMV 0.245, Hooking 0.560, Others 0.002
Iteration 4: diff 121391934, spmv 0
total 1.571, GP 0.927, SpMV 0.268, Hooking 0.373, Others 0.002
Iteration 5: diff 146637525, spmv 0
total 1.446, GP 0.898, SpMV 0.250, Hooking 0.297, Others 0.002
Iteration 6: diff 166138405, spmv 0
total 1.177, GP 0.681, SpMV 0.250, Hooking 0.243, Others 0.003
Iteration 7: diff 78074674, spmv 0
total 1.116, GP 0.681, SpMV 0.242, Hooking 0.190, Others 0.002
Iteration 8: diff 3360917, spmv 0
total 0.984, GP 0.593, SpMV 0.243, Hooking 0.145, Others 0.002
Iteration 9: diff 59687, spmv 1
total 0.669, GP 0.268, SpMV 0.187, Hooking 0.212, Others 0.003
Iteration 10: diff 0, spmv 1
total 0.517, GP 0.280, SpMV 0.027, Hooking 0.208, Others 0.003
Number of components: 5353
Total time: 13.0944
=================================================

===== Running LACC ======
Iteration: 1 converged: 0 stars: 137804739 nonstars: 32923436
 Time:  t_cond_hook: 0.396471 t_starcheck1: 1.69277e-05 t_uncond_hook: 0.548017 t_starcheck2: 0.033885 t_shortcut: 0.304963 t_starcheck: 1.0085
Iteration: 2 converged: 0 stars: 119643068 nonstars: 51085107
 Time:  t_cond_hook: 0.35657 t_starcheck1: 0.398974 t_uncond_hook: 0.411338 t_starcheck2: 0.063684 t_shortcut: 0.299302 t_starcheck: 1.27098
Iteration: 3 converged: 210 stars: 101554365 nonstars: 69173600
 Time:  t_cond_hook: 0.316109 t_starcheck1: 0.399974 t_uncond_hook: 0.359163 t_starcheck2: 0.102826 t_shortcut: 0.36273 t_starcheck: 1.11785
Iteration: 4 converged: 7060 stars: 63161396 nonstars: 107559719
 Time:  t_cond_hook: 0.333096 t_starcheck1: 0.360399 t_uncond_hook: 0.399421 t_starcheck2: 0.059128 t_shortcut: 0.345075 t_starcheck: 1.0247
Iteration: 5 converged: 51495 stars: 30901082 nonstars: 139775598
 Time:  t_cond_hook: 0.374106 t_starcheck1: 0.289852 t_uncond_hook: 0.32156 t_starcheck2: 0.05372 t_shortcut: 0.296192 t_starcheck: 0.907859
Iteration: 6 converged: 237482 stars: 730802 nonstars: 169759891
 Time:  t_cond_hook: 0.316189 t_starcheck1: 0.113585 t_uncond_hook: 0.274623 t_starcheck2: 0.022212 t_shortcut: 0.255792 t_starcheck: 0.70981
Iteration: 7 converged: 344893 stars: 21462 nonstars: 170361820
 Time:  t_cond_hook: 0.266058 t_starcheck1: 0.027879 t_uncond_hook: 0.269562 t_starcheck2: 0.0173919 t_shortcut: 0.216302 t_starcheck: 0.362436
Iteration: 8 converged: 355716 stars: 0 nonstars: 170372459
 Time:  t_cond_hook: 0.266415 t_starcheck1: 0.0235162 t_uncond_hook: 0.264772 t_starcheck2: 0.0159552 t_shortcut: 0.18558 t_starcheck: 0.37211
Iteration: 9 converged: 355716 stars: 170372459 nonstars: 0
 Time:  t_cond_hook: 0.260077 t_starcheck1: 0.017911 t_uncond_hook: 0.263723 t_starcheck2: 0.011807 t_shortcut: 0.186675 t_starcheck: 0.351076
Iteration: 9 converged: 355716 stars: 170372459 nonstars: 0
 Time:  t_cond_hook: 0.260077 t_starcheck1: 0.017911 t_uncond_hook: 0.263723 t_starcheck2: 0.011807 t_shortcut: 0.186675 t_starcheck: 0.351076
Iteration: 10 converged: 170728175 stars: 0 nonstars: 0
Number of components: 5353
Total time: 18.9429
=================================================

Process Grid (p x p x t): 32 x 32 x 16
filename: /project/projectdirs/m1982/LACC/noheader/kmer_V1r.mtx
COMBBLAS Warning: It is dangerous to create (matrix) objects without specifying the communicator, are you sure you want to create this object in MPI_COMM_WORLD?
File is 4412689701 bytes
MPIIO WARNING: DVS stripe width of 32 was requested but DVS set it to 28
See MPICH_MPIIO_DVS_MAXNODES in the intro_mpi man page.
As a whole: 214005017 rows and 214005017 columns and 232705452 nonzeros
Symmatricizing an unsymmetric input matrix.
As a whole: 214005017 rows and 214005017 columns and 465410904 nonzeros
File Read time: 7.90026
isolated vertice: 0
Load balance: 1.00465
Nonzeros: 465410904
===== Running the SV algorithm ======
Iteration 1: diff 145241805, spmv 0
total 0.948, GP 0.354, SpMV 0.410, Hooking 0.182, Others 0.003
Iteration 2: diff 134253444, spmv 0
total 1.092, GP 0.450, SpMV 0.288, Hooking 0.351, Others 0.002
Iteration 3: diff 142882581, spmv 0
total 1.573, GP 0.555, SpMV 0.284, Hooking 0.732, Others 0.003
Iteration 4: diff 169969303, spmv 0
total 1.732, GP 1.001, SpMV 0.285, Hooking 0.444, Others 0.003
Iteration 5: diff 201511770, spmv 0
total 1.675, GP 1.028, SpMV 0.285, Hooking 0.359, Others 0.003
Iteration 6: diff 210142594, spmv 0
total 1.537, GP 0.962, SpMV 0.284, Hooking 0.289, Others 0.003
Iteration 7: diff 213920264, spmv 0
total 1.400, GP 0.909, SpMV 0.281, Hooking 0.207, Others 0.003
Iteration 8: diff 3624368, spmv 0
total 0.962, GP 0.439, SpMV 0.323, Hooking 0.196, Others 0.003
Iteration 9: diff 4173, spmv 1
total 0.696, GP 0.294, SpMV 0.169, Hooking 0.231, Others 0.002
Iteration 10: diff 0, spmv 1
total 0.532, GP 0.284, SpMV 0.027, Hooking 0.220, Others 0.002
Number of components: 9
Total time: 14.8021
=================================================

===== Running LACC ======
Iteration: 1 converged: 0 stars: 170489332 nonstars: 43515685
 Time:  t_cond_hook: 0.456842 t_starcheck1: 1.50204e-05 t_uncond_hook: 0.613716 t_starcheck2: 0.029017 t_shortcut: 0.337651 t_starcheck: 1.2049
Iteration: 2 converged: 0 stars: 145269512 nonstars: 68735505
 Time:  t_cond_hook: 0.495071 t_starcheck1: 0.52837 t_uncond_hook: 0.426327 t_starcheck2: 0.0518241 t_shortcut: 0.364164 t_starcheck: 1.42902
Iteration: 3 converged: 0 stars: 112839330 nonstars: 101165687
 Time:  t_cond_hook: 0.377537 t_starcheck1: 0.583342 t_uncond_hook: 0.434229 t_starcheck2: 0.100372 t_shortcut: 0.436876 t_starcheck: 1.47993
Iteration: 4 converged: 22 stars: 55830213 nonstars: 158174782
 Time:  t_cond_hook: 0.460641 t_starcheck1: 0.598817 t_uncond_hook: 0.415612 t_starcheck2: 0.0979931 t_shortcut: 0.406156 t_starcheck: 1.33805
Iteration: 5 converged: 95 stars: 9242780 nonstars: 204762142
 Time:  t_cond_hook: 0.623692 t_starcheck1: 0.306925 t_uncond_hook: 0.36701 t_starcheck2: 0.0473261 t_shortcut: 0.355255 t_starcheck: 0.990616
Iteration: 6 converged: 230 stars: 95700 nonstars: 213909087
 Time:  t_cond_hook: 0.375724 t_starcheck1: 0.0724609 t_uncond_hook: 0.318265 t_starcheck2: 0.019825 t_shortcut: 0.280739 t_starcheck: 0.552223
Iteration: 7 converged: 500 stars: 450 nonstars: 214004067
 Time:  t_cond_hook: 0.316331 t_starcheck1: 0.0245008 t_uncond_hook: 0.31561 t_starcheck2: 0.0166731 t_shortcut: 0.233357 t_starcheck: 0.453149
Iteration: 8 converged: 625 stars: 0 nonstars: 214004392
 Time:  t_cond_hook: 0.338863 t_starcheck1: 0.0402429 t_uncond_hook: 0.312615 t_starcheck2: 0.017379 t_shortcut: 0.226899 t_starcheck: 0.445586
Iteration: 9 converged: 625 stars: 214004392 nonstars: 0
 Time:  t_cond_hook: 0.311302 t_starcheck1: 0.020473 t_uncond_hook: 0.314006 t_starcheck2: 0.0127382 t_shortcut: 0.223117 t_starcheck: 0.426716
Iteration: 9 converged: 625 stars: 214004392 nonstars: 0
 Time:  t_cond_hook: 0.311302 t_starcheck1: 0.020473 t_uncond_hook: 0.314006 t_starcheck2: 0.0127382 t_shortcut: 0.223117 t_starcheck: 0.426716
Iteration: 10 converged: 214005017 stars: 0 nonstars: 0
Number of components: 9
Total time: 22.4467
=================================================

Process Grid (p x p x t): 32 x 32 x 16
filename: /project/projectdirs/m1982/LACC/noheader/mawi_201512020330.mtx
COMBBLAS Warning: It is dangerous to create (matrix) objects without specifying the communicator, are you sure you want to create this object in MPI_COMM_WORLD?
File is 5144900929 bytes
MPIIO WARNING: DVS stripe width of 32 was requested but DVS set it to 28
See MPICH_MPIIO_DVS_MAXNODES in the intro_mpi man page.
As a whole: 226196185 rows and 226196185 columns and 240023949 nonzeros
Symmatricizing an unsymmetric input matrix.
As a whole: 226196185 rows and 226196185 columns and 480047894 nonzeros
File Read time: 14.7936
isolated vertice: 0
Load balance: 28.2725
Nonzeros: 480047894
===== Running the SV algorithm ======
Iteration 1: diff 58447205, spmv 0
total 2.448, GP 0.429, SpMV 1.833, Hooking 0.183, Others 0.003
Iteration 2: diff 165804661, spmv 0
total 1.207, GP 0.467, SpMV 0.408, Hooking 0.330, Others 0.003
Iteration 3: diff 1436926, spmv 0
total 0.971, GP 0.390, SpMV 0.406, Hooking 0.173, Others 0.003
Iteration 4: diff 2609, spmv 1
total 0.839, GP 0.370, SpMV 0.216, Hooking 0.250, Others 0.003
Iteration 5: diff 575, spmv 1
total 0.738, GP 0.367, SpMV 0.130, Hooking 0.237, Others 0.003
Iteration 6: diff 0, spmv 1
total 0.739, GP 0.369, SpMV 0.135, Hooking 0.233, Others 0.003
Number of components: 3971144
Total time: 11.2002
=================================================

===== Running LACC ======
Iteration: 1 converged: 0 stars: 14307450 nonstars: 211888735
 Time:  t_cond_hook: 3.58897 t_starcheck1: 1.5974e-05 t_uncond_hook: 0.881805 t_starcheck2: 0.0447741 t_shortcut: 0.300617 t_starcheck: 0.707458
Iteration: 2 converged: 12253501 stars: 251231 nonstars: 213691453
 Time:  t_cond_hook: 0.531394 t_starcheck1: 0.0635769 t_uncond_hook: 0.492044 t_starcheck2: 0.0686638 t_shortcut: 0.230874 t_starcheck: 0.482131
Iteration: 3 converged: 12469142 stars: 43677 nonstars: 213683366
 Time:  t_cond_hook: 0.434225 t_starcheck1: 0.027519 t_uncond_hook: 0.447416 t_starcheck2: 0.027617 t_shortcut: 0.232387 t_starcheck: 0.456824
Iteration: 4 converged: 12507213 stars: 6289 nonstars: 213682683
 Time:  t_cond_hook: 0.562133 t_starcheck1: 0.0497999 t_uncond_hook: 0.464134 t_starcheck2: 0.017761 t_shortcut: 0.224691 t_starcheck: 0.449582
Iteration: 5 converged: 12512884 stars: 213683301 nonstars: 0
 Time:  t_cond_hook: 0.449956 t_starcheck1: 0.021008 t_uncond_hook: 0.446695 t_starcheck2: 0.0160871 t_shortcut: 0.221584 t_starcheck: 0.438699
Iteration: 5 converged: 12512884 stars: 213683301 nonstars: 0
 Time:  t_cond_hook: 0.449956 t_starcheck1: 0.021008 t_uncond_hook: 0.446695 t_starcheck2: 0.0160871 t_shortcut: 0.221584 t_starcheck: 0.438699
Iteration: 6 converged: 226196185 stars: 0 nonstars: 0
Number of components: 3971144
Total time: 14.0031
=================================================

Process Grid (p x p x t): 32 x 32 x 16
filename: /project/projectdirs/m1982/LACC/noheader/uk-2005.mtx
COMBBLAS Warning: It is dangerous to create (matrix) objects without specifying the communicator, are you sure you want to create this object in MPI_COMM_WORLD?
File is 16451547498 bytes
MPIIO WARNING: DVS stripe width of 32 was requested but DVS set it to 28
See MPICH_MPIIO_DVS_MAXNODES in the intro_mpi man page.
As a whole: 39454746 rows and 39454746 columns and 936364282 nonzeros
Symmatricizing an unsymmetric input matrix.
As a whole: 39454746 rows and 39454746 columns and 1581073454 nonzeros
File Read time: 13.004
isolated vertice: 0
Load balance: 1.45098
Nonzeros: 1581073454
===== Running the SV algorithm ======
Iteration 1: diff 34316986, spmv 0
total 0.656, GP 0.246, SpMV 0.292, Hooking 0.116, Others 0.001
Iteration 2: diff 34716282, spmv 0
total 0.569, GP 0.286, SpMV 0.096, Hooking 0.186, Others 0.001
Iteration 3: diff 38820930, spmv 0
total 0.490, GP 0.275, SpMV 0.089, Hooking 0.126, Others 0.001
Iteration 4: diff 10742073, spmv 0
total 0.334, GP 0.138, SpMV 0.090, Hooking 0.106, Others 0.001
Iteration 5: diff 45757, spmv 0
total 0.277, GP 0.095, SpMV 0.095, Hooking 0.086, Others 0.001
Iteration 6: diff 42, spmv 1
total 0.311, GP 0.085, SpMV 0.148, Hooking 0.076, Others 0.001
Iteration 7: diff 0, spmv 1
total 0.168, GP 0.085, SpMV 0.010, Hooking 0.073, Others 0.001
Number of components: 7727
Total time: 3.30899
=================================================

===== Running LACC ======
Iteration: 1 converged: 0 stars: 25873567 nonstars: 13581179
 Time:  t_cond_hook: 0.341521 t_starcheck1: 1.69277e-05 t_uncond_hook: 0.192952 t_starcheck2: 0.00372982 t_shortcut: 0.159574 t_starcheck: 0.493485
Iteration: 2 converged: 67623 stars: 5172009 nonstars: 34215114
 Time:  t_cond_hook: 0.150377 t_starcheck1: 0.203175 t_uncond_hook: 0.165912 t_starcheck2: 0.018584 t_shortcut: 0.0869021 t_starcheck: 0.248124
Iteration: 3 converged: 144406 stars: 265474 nonstars: 39044866
 Time:  t_cond_hook: 0.147624 t_starcheck1: 0.0503199 t_uncond_hook: 0.113846 t_starcheck2: 0.0149839 t_shortcut: 0.0689189 t_starcheck: 0.162939
Iteration: 4 converged: 193872 stars: 13727 nonstars: 39247147
 Time:  t_cond_hook: 0.107442 t_starcheck1: 0.0269451 t_uncond_hook: 0.110535 t_starcheck2: 0.0123689 t_shortcut: 0.056283 t_starcheck: 0.106831
Iteration: 5 converged: 201144 stars: 723 nonstars: 39252879
 Time:  t_cond_hook: 0.10947 t_starcheck1: 0.027796 t_uncond_hook: 0.123862 t_starcheck2: 0.013181 t_shortcut: 0.0508101 t_starcheck: 0.118821
Iteration: 6 converged: 201867 stars: 39252879 nonstars: 0
 Time:  t_cond_hook: 0.105896 t_starcheck1: 0.020231 t_uncond_hook: 0.110879 t_starcheck2: 0.011869 t_shortcut: 0.0510969 t_starcheck: 0.098917
Iteration: 6 converged: 201867 stars: 39252879 nonstars: 0
 Time:  t_cond_hook: 0.105896 t_starcheck1: 0.020231 t_uncond_hook: 0.110879 t_starcheck2: 0.011869 t_shortcut: 0.0510969 t_starcheck: 0.098917
Iteration: 7 converged: 39454746 stars: 0 nonstars: 0
Number of components: 7727
Total time: 4.74355
=================================================

srun: Job 23816700 step creation temporarily disabled, retrying
srun: Step created for job 23816700
Process Grid (p x p x t): 32 x 32 x 16
filename: /project/projectdirs/m1982/LACC/noheader/twitter7.mtx
COMBBLAS Warning: It is dangerous to create (matrix) objects without specifying the communicator, are you sure you want to create this object in MPI_COMM_WORLD?
File is 24659244697 bytes
MPIIO WARNING: DVS stripe width of 32 was requested but DVS set it to 28
See MPICH_MPIIO_DVS_MAXNODES in the intro_mpi man page.
As a whole: 41652230 rows and 41652230 columns and 1468365182 nonzeros
Symmatricizing an unsymmetric input matrix.
As a whole: 41652230 rows and 41652230 columns and 2405026390 nonzeros
File Read time: 24.9601
isolated vertice: 0
Load balance: 1.2168
Nonzeros: 2405026390
===== Running the SV algorithm ======
Iteration 1: diff 36636276, spmv 0
total 0.582, GP 0.210, SpMV 0.265, Hooking 0.106, Others 0.001
Iteration 2: diff 41620900, spmv 0
total 0.566, GP 0.274, SpMV 0.102, Hooking 0.189, Others 0.001
Iteration 3: diff 3244207, spmv 0
total 0.351, GP 0.146, SpMV 0.098, Hooking 0.106, Others 0.001
Iteration 4: diff 158, spmv 0
total 0.261, GP 0.073, SpMV 0.101, Hooking 0.087, Others 0.001
Iteration 5: diff 0, spmv 1
total 0.310, GP 0.066, SpMV 0.165, Hooking 0.078, Others 0.001
Number of components: 1
Total time: 2.64065
=================================================

===== Running LACC ======
Iteration: 1 converged: 0 stars: 5722564 nonstars: 35929666
 Time:  t_cond_hook: 0.282413 t_starcheck1: 1.78814e-05 t_uncond_hook: 0.218916 t_starcheck2: 0.000377893 t_shortcut: 0.155946 t_starcheck: 0.46202
Iteration: 2 converged: 0 stars: 403 nonstars: 41651827
 Time:  t_cond_hook: 0.137554 t_starcheck1: 0.123907 t_uncond_hook: 0.137161 t_starcheck2: 0.013159 t_shortcut: 0.0753641 t_starcheck: 0.24862
Iteration: 3 converged: 0 stars: 0 nonstars: 41652230
 Time:  t_cond_hook: 0.120268 t_starcheck1: 0.020314 t_uncond_hook: 0.12191 t_starcheck2: 0.00959587 t_shortcut: 0.0718391 t_starcheck: 0.127662
Iteration: 4 converged: 0 stars: 41652230 nonstars: 0
 Time:  t_cond_hook: 0.117991 t_starcheck1: 0.0174489 t_uncond_hook: 0.12203 t_starcheck2: 0.00922585 t_shortcut: 0.054271 t_starcheck: 0.105095
Iteration: 4 converged: 0 stars: 41652230 nonstars: 0
 Time:  t_cond_hook: 0.117991 t_starcheck1: 0.0174489 t_uncond_hook: 0.12203 t_starcheck2: 0.00922585 t_shortcut: 0.054271 t_starcheck: 0.105095
Iteration: 5 converged: 41652230 stars: 0 nonstars: 0
Number of components: 1
Total time: 3.81912
=================================================

Process Grid (p x p x t): 32 x 32 x 16
filename: /project/projectdirs/m1982/LACC/noheader/sk-2005.mtx
COMBBLAS Warning: It is dangerous to create (matrix) objects without specifying the communicator, are you sure you want to create this object in MPI_COMM_WORLD?
File is 34382171786 bytes
MPIIO WARNING: DVS stripe width of 32 was requested but DVS set it to 28
See MPICH_MPIIO_DVS_MAXNODES in the intro_mpi man page.
As a whole: 50636073 rows and 50636073 columns and 1949412601 nonzeros
Symmatricizing an unsymmetric input matrix.
As a whole: 50636073 rows and 50636073 columns and 3639246313 nonzeros
File Read time: 25.5368
isolated vertice: 0
Load balance: 1.34828
Nonzeros: 3639246313
===== Running the SV algorithm ======
Iteration 1: diff 45282772, spmv 0
total 0.726, GP 0.282, SpMV 0.311, Hooking 0.132, Others 0.001
Iteration 2: diff 48537666, spmv 0
total 0.568, GP 0.249, SpMV 0.105, Hooking 0.214, Others 0.001
Iteration 3: diff 47887993, spmv 0
total 0.417, GP 0.176, SpMV 0.098, Hooking 0.142, Others 0.001
Iteration 4: diff 5757920, spmv 0
total 0.349, GP 0.132, SpMV 0.098, Hooking 0.118, Others 0.001
Iteration 5: diff 97484, spmv 0
total 0.297, GP 0.084, SpMV 0.098, Hooking 0.114, Others 0.001
Iteration 6: diff 352, spmv 1
total 0.336, GP 0.085, SpMV 0.160, Hooking 0.091, Others 0.001
Iteration 7: diff 0, spmv 1
total 0.184, GP 0.086, SpMV 0.011, Hooking 0.086, Others 0.001
Number of components: 45
Total time: 3.49707
=================================================

===== Running LACC ======
Iteration: 1 converged: 0 stars: 22987505 nonstars: 27648568
 Time:  t_cond_hook: 0.331779 t_starcheck1: 1.78814e-05 t_uncond_hook: 0.250991 t_starcheck2: 0.00412011 t_shortcut: 0.195201 t_starcheck: 0.440749
Iteration: 2 converged: 236 stars: 2358414 nonstars: 48277423
 Time:  t_cond_hook: 0.163845 t_starcheck1: 0.126499 t_uncond_hook: 0.185378 t_starcheck2: 0.0209429 t_shortcut: 0.0993528 t_starcheck: 0.240277
Iteration: 3 converged: 291 stars: 412217 nonstars: 50223565
 Time:  t_cond_hook: 0.169966 t_starcheck1: 0.0279961 t_uncond_hook: 0.155558 t_starcheck2: 0.0134861 t_shortcut: 0.0726869 t_starcheck: 0.143552
Iteration: 4 converged: 1673 stars: 29926 nonstars: 50604474
 Time:  t_cond_hook: 0.14077 t_starcheck1: 0.027539 t_uncond_hook: 0.14565 t_starcheck2: 0.012239 t_shortcut: 0.0634751 t_starcheck: 0.12771
Iteration: 5 converged: 1955 stars: 0 nonstars: 50634118
 Time:  t_cond_hook: 0.140914 t_starcheck1: 0.0367541 t_uncond_hook: 0.138856 t_starcheck2: 0.012212 t_shortcut: 0.0628159 t_starcheck: 0.154959
Iteration: 6 converged: 1955 stars: 50634118 nonstars: 0
 Time:  t_cond_hook: 0.144391 t_starcheck1: 0.018533 t_uncond_hook: 0.138008 t_starcheck2: 0.00887108 t_shortcut: 0.0621018 t_starcheck: 0.118325
Iteration: 6 converged: 1955 stars: 50634118 nonstars: 0
 Time:  t_cond_hook: 0.144391 t_starcheck1: 0.018533 t_uncond_hook: 0.138008 t_starcheck2: 0.00887108 t_shortcut: 0.0621018 t_starcheck: 0.118325
Iteration: 7 converged: 50636073 stars: 0 nonstars: 0
Number of components: 45
Total time: 5.60086
=================================================

Process Grid (p x p x t): 32 x 32 x 16
filename: /project/projectdirs/m1982/LACC/noheader/MOLIERE_2016.mtx
COMBBLAS Warning: It is dangerous to create (matrix) objects without specifying the communicator, are you sure you want to create this object in MPI_COMM_WORLD?
File is 88119102918 bytes
MPIIO WARNING: DVS stripe width of 32 was requested but DVS set it to 28
See MPICH_MPIIO_DVS_MAXNODES in the intro_mpi man page.
As a whole: 30219118 rows and 30219118 columns and 3338650683 nonzeros
Symmatricizing an unsymmetric input matrix.
As a whole: 30219118 rows and 30219118 columns and 6677301366 nonzeros
File Read time: 73.6282
isolated vertice: 0
Load balance: 1.02736
Nonzeros: 6677301366
===== Running the SV algorithm ======
Iteration 1: diff 29205004, spmv 0
total 0.447, GP 0.171, SpMV 0.171, Hooking 0.104, Others 0.001
Iteration 2: diff 29994634, spmv 0
total 0.442, GP 0.170, SpMV 0.112, Hooking 0.160, Others 0.001
Iteration 3: diff 2574262, spmv 0
total 0.343, GP 0.143, SpMV 0.113, Hooking 0.087, Others 0.001
Iteration 4: diff 222223, spmv 0
total 0.276, GP 0.084, SpMV 0.111, Hooking 0.081, Others 0.001
Iteration 5: diff 1845, spmv 1
total 0.304, GP 0.064, SpMV 0.168, Hooking 0.072, Others 0.001
Iteration 6: diff 0, spmv 1
total 0.147, GP 0.060, SpMV 0.015, Hooking 0.072, Others 0.001
Number of components: 4457
Total time: 2.43619
=================================================

===== Running LACC ======
Iteration: 1 converged: 0 stars: 6674817 nonstars: 23544301
 Time:  t_cond_hook: 0.232493 t_starcheck1: 1.5974e-05 t_uncond_hook: 0.252565 t_starcheck2: 0.000335932 t_shortcut: 0.131298 t_starcheck: 0.378817
Iteration: 2 converged: 10009 stars: 156671 nonstars: 30052438
 Time:  t_cond_hook: 0.147634 t_starcheck1: 0.063812 t_uncond_hook: 0.14635 t_starcheck2: 0.0144441 t_shortcut: 0.064368 t_starcheck: 0.196402
Iteration: 3 converged: 10088 stars: 6649 nonstars: 30202381
 Time:  t_cond_hook: 0.228419 t_starcheck1: 0.046474 t_uncond_hook: 0.139014 t_starcheck2: 0.0113721 t_shortcut: 0.0518951 t_starcheck: 0.0939641
Iteration: 4 converged: 10088 stars: 123 nonstars: 30208907
 Time:  t_cond_hook: 0.133423 t_starcheck1: 0.0202091 t_uncond_hook: 0.135575 t_starcheck2: 0.012208 t_shortcut: 0.046113 t_starcheck: 0.0909228
Iteration: 5 converged: 10088 stars: 0 nonstars: 30209030
 Time:  t_cond_hook: 0.171845 t_starcheck1: 0.0521629 t_uncond_hook: 0.133666 t_starcheck2: 0.00816607 t_shortcut: 0.0434182 t_starcheck: 0.107746
Iteration: 6 converged: 10088 stars: 30209030 nonstars: 0
 Time:  t_cond_hook: 0.129535 t_starcheck1: 0.0152969 t_uncond_hook: 0.136126 t_starcheck2: 0.00845599 t_shortcut: 0.043103 t_starcheck: 0.0812371
Iteration: 6 converged: 10088 stars: 30209030 nonstars: 0
 Time:  t_cond_hook: 0.129535 t_starcheck1: 0.0152969 t_uncond_hook: 0.136126 t_starcheck2: 0.00845599 t_shortcut: 0.043103 t_starcheck: 0.0812371
Iteration: 7 converged: 30219118 stars: 0 nonstars: 0
Number of components: 4457
Total time: 5.55652
=================================================

Process Grid (p x p x t): 32 x 32 x 16
filename: /project/projectdirs/m1982/HipMCL/eukarya/Renamed_euk_vs_euk_30_50length.indexed.list.noheader
COMBBLAS Warning: It is dangerous to create (matrix) objects without specifying the communicator, are you sure you want to create this object in MPI_COMM_WORLD?
File is 7976295135 bytes
MPIIO WARNING: DVS stripe width of 32 was requested but DVS set it to 28
See MPICH_MPIIO_DVS_MAXNODES in the intro_mpi man page.
As a whole: 3243106 rows and 3243106 columns and 359744161 nonzeros
Symmatricizing an unsymmetric input matrix.
As a whole: 3243106 rows and 3243106 columns and 359763936 nonzeros
File Read time: 7.48851
isolated vertice: 0
Load balance: 1.02376
Nonzeros: 359763936
===== Running the SV algorithm ======
Iteration 1: diff 2932181, spmv 0
total 0.276, GP 0.125, SpMV 0.082, Hooking 0.068, Others 0.000
Iteration 2: diff 1798870, spmv 0
total 0.204, GP 0.080, SpMV 0.025, Hooking 0.099, Others 0.000
Iteration 3: diff 1113592, spmv 0
total 0.132, GP 0.062, SpMV 0.022, Hooking 0.047, Others 0.000
Iteration 4: diff 1247465, spmv 0
total 0.118, GP 0.059, SpMV 0.024, Hooking 0.036, Others 0.000
Iteration 5: diff 799875, spmv 0
total 0.150, GP 0.076, SpMV 0.023, Hooking 0.050, Others 0.000
Iteration 6: diff 61702, spmv 0
total 0.124, GP 0.058, SpMV 0.019, Hooking 0.047, Others 0.000
Iteration 7: diff 0, spmv 1
total 0.258, GP 0.057, SpMV 0.162, Hooking 0.038, Others 0.000
Number of components: 164156
Total time: 1.43866
=================================================

===== Running LACC ======
Iteration: 1 converged: 0 stars: 2554298 nonstars: 688808
 Time:  t_cond_hook: 0.158758 t_starcheck1: 1.3113e-05 t_uncond_hook: 0.0981729 t_starcheck2: 0.000188112 t_shortcut: 0.084976 t_starcheck: 0.242736
Iteration: 2 converged: 577766 stars: 2010650 nonstars: 654690
 Time:  t_cond_hook: 0.045516 t_starcheck1: 0.0373139 t_uncond_hook: 0.0520771 t_starcheck2: 0.0288908 t_shortcut: 0.0180221 t_starcheck: 0.0551128
Iteration: 3 converged: 1061288 stars: 1526961 nonstars: 654857
 Time:  t_cond_hook: 0.070029 t_starcheck1: 0.023993 t_uncond_hook: 0.043493 t_starcheck2: 0.0232568 t_shortcut: 0.0164671 t_starcheck: 0.0482049
Iteration: 4 converged: 1659477 stars: 678909 nonstars: 904720
 Time:  t_cond_hook: 0.0439122 t_starcheck1: 0.0256882 t_uncond_hook: 0.0437899 t_starcheck2: 0.0158031 t_shortcut: 0.0139399 t_starcheck: 0.0442259
Iteration: 5 converged: 1904934 stars: 1207342 nonstars: 130830
 Time:  t_cond_hook: 0.0393419 t_starcheck1: 0.032479 t_uncond_hook: 0.0386391 t_starcheck2: 0.0130079 t_shortcut: 0.0133989 t_starcheck: 0.0446839
Iteration: 6 converged: 1938893 stars: 1304213 nonstars: 0
 Time:  t_cond_hook: 0.039104 t_starcheck1: 0.021277 t_uncond_hook: 0.053401 t_starcheck2: 0.0119951 t_shortcut: 0.021976 t_starcheck: 0.025836
Iteration: 6 converged: 1938893 stars: 1304213 nonstars: 0
 Time:  t_cond_hook: 0.039104 t_starcheck1: 0.021277 t_uncond_hook: 0.053401 t_starcheck2: 0.0119951 t_shortcut: 0.021976 t_starcheck: 0.025836
Iteration: 7 converged: 3243106 stars: 0 nonstars: 0
Number of components: 164156
Total time: 1.95173
=================================================

srun: Job 23816700 step creation temporarily disabled, retrying
srun: Step created for job 23816700
Process Grid (p x p x t): 32 x 32 x 16
filename: /project/projectdirs/m1982/HipMCL/archaea/Renamed_arch_vs_arch_30_50length.indexed.list.noheader
COMBBLAS Warning: It is dangerous to create (matrix) objects without specifying the communicator, are you sure you want to create this object in MPI_COMM_WORLD?
File is 4401682095 bytes
MPIIO WARNING: DVS stripe width of 32 was requested but DVS set it to 28
See MPICH_MPIIO_DVS_MAXNODES in the intro_mpi man page.
As a whole: 1644227 rows and 1644227 columns and 204784551 nonzeros
Symmatricizing an unsymmetric input matrix.
As a whole: 1644227 rows and 1644227 columns and 204792654 nonzeros
File Read time: 6.48418
isolated vertice: 0
Load balance: 1.02123
Nonzeros: 204792654
===== Running the SV algorithm ======
Iteration 1: diff 1530708, spmv 0
total 0.244, GP 0.114, SpMV 0.065, Hooking 0.065, Others 0.000
Iteration 2: diff 903421, spmv 0
total 0.118, GP 0.035, SpMV 0.013, Hooking 0.070, Others 0.000
Iteration 3: diff 464796, spmv 0
total 0.086, GP 0.033, SpMV 0.012, Hooking 0.041, Others 0.000
Iteration 4: diff 390180, spmv 0
total 0.084, GP 0.031, SpMV 0.012, Hooking 0.040, Others 0.001
Iteration 5: diff 276779, spmv 0
total 0.091, GP 0.031, SpMV 0.012, Hooking 0.048, Others 0.000
Iteration 6: diff 204544, spmv 0
total 0.077, GP 0.030, SpMV 0.011, Hooking 0.035, Others 0.000
Iteration 7: diff 10701, spmv 0
total 0.085, GP 0.038, SpMV 0.012, Hooking 0.034, Others 0.000
Iteration 8: diff 0, spmv 1
total 0.218, GP 0.031, SpMV 0.151, Hooking 0.036, Others 0.000
Number of components: 59794
Total time: 1.14824
=================================================

===== Running LACC ======
Iteration: 1 converged: 0 stars: 1333418 nonstars: 310809
 Time:  t_cond_hook: 0.118442 t_starcheck1: 1.19209e-05 t_uncond_hook: 0.075897 t_starcheck2: 0.000193119 t_shortcut: 0.0943129 t_starcheck: 0.219822
Iteration: 2 converged: 279740 stars: 1103408 nonstars: 261079
 Time:  t_cond_hook: 0.0333481 t_starcheck1: 0.0288639 t_uncond_hook: 0.045198 t_starcheck2: 0.0212882 t_shortcut: 0.0154998 t_starcheck: 0.043196
Iteration: 3 converged: 509132 stars: 969729 nonstars: 165366
 Time:  t_cond_hook: 0.0309489 t_starcheck1: 0.0232799 t_uncond_hook: 0.029762 t_starcheck2: 0.0172861 t_shortcut: 0.0136461 t_starcheck: 0.0439341
Iteration: 4 converged: 921298 stars: 525011 nonstars: 197918
 Time:  t_cond_hook: 0.0274532 t_starcheck1: 0.021477 t_uncond_hook: 0.032275 t_starcheck2: 0.015223 t_shortcut: 0.0132818 t_starcheck: 0.0514181
Iteration: 5 converged: 1130882 stars: 443194 nonstars: 70151
 Time:  t_cond_hook: 0.0294991 t_starcheck1: 0.03122 t_uncond_hook: 0.031518 t_starcheck2: 0.011553 t_shortcut: 0.01212 t_starcheck: 0.043611
Iteration: 6 converged: 1258664 stars: 374274 nonstars: 11289
 Time:  t_cond_hook: 0.0469689 t_starcheck1: 0.0348148 t_uncond_hook: 0.0273819 t_starcheck2: 0.0112319 t_shortcut: 0.0158441 t_starcheck: 0.036186
Iteration: 7 converged: 1272765 stars: 371462 nonstars: 0
 Time:  t_cond_hook: 0.0237131 t_starcheck1: 0.0166042 t_uncond_hook: 0.118694 t_starcheck2: 0.009233 t_shortcut: 0.00929403 t_starcheck: 0.0258651
Iteration: 7 converged: 1272765 stars: 371462 nonstars: 0
 Time:  t_cond_hook: 0.0237131 t_starcheck1: 0.0166042 t_uncond_hook: 0.118694 t_starcheck2: 0.009233 t_shortcut: 0.00929403 t_starcheck: 0.0258651
Iteration: 8 converged: 1644227 stars: 0 nonstars: 0
Number of components: 59794
Total time: 1.76764
=================================================

Process Grid (p x p x t): 32 x 32 x 16
filename: /project/projectdirs/m1982/LACC/noheader/out.dbpedia-link
COMBBLAS Warning: It is dangerous to create (matrix) objects without specifying the communicator, are you sure you want to create this object in MPI_COMM_WORLD?
File is 2712460738 bytes
MPIIO WARNING: DVS stripe width of 32 was requested but DVS set it to 28
See MPICH_MPIIO_DVS_MAXNODES in the intro_mpi man page.
As a whole: 18268991 rows and 18268991 columns and 136537566 nonzeros
Symmatricizing an unsymmetric input matrix.
As a whole: 18268991 rows and 18268991 columns and 253780418 nonzeros
File Read time: 5.15707
isolated vertice: 0
Load balance: 1.22594
Nonzeros: 253780418
===== Running the SV algorithm ======
Iteration 1: diff 11597204, spmv 0
total 0.364, GP 0.167, SpMV 0.123, Hooking 0.075, Others 0.000
Iteration 2: diff 18248660, spmv 0
total 0.388, GP 0.198, SpMV 0.045, Hooking 0.145, Others 0.001
Iteration 3: diff 18263171, spmv 0
total 0.313, GP 0.116, SpMV 0.072, Hooking 0.124, Others 0.000
Iteration 4: diff 27554, spmv 0
total 0.192, GP 0.072, SpMV 0.058, Hooking 0.062, Others 0.001
Iteration 5: diff 0, spmv 1
total 0.319, GP 0.068, SpMV 0.172, Hooking 0.078, Others 0.000
Number of components: 1365
Total time: 1.93076
=================================================

===== Running LACC ======
Iteration: 1 converged: 0 stars: 5553381 nonstars: 12715610
 Time:  t_cond_hook: 0.129215 t_starcheck1: 1.3113e-05 t_uncond_hook: 0.15341 t_starcheck2: 0.0200889 t_shortcut: 0.133532 t_starcheck: 0.351959
Iteration: 2 converged: 3446 stars: 3638 nonstars: 18261907
 Time:  t_cond_hook: 0.173243 t_starcheck1: 0.127932 t_uncond_hook: 0.190696 t_starcheck2: 0.0242729 t_shortcut: 0.063714 t_starcheck: 0.183926
Iteration: 3 converged: 3446 stars: 33 nonstars: 18265512
 Time:  t_cond_hook: 0.136089 t_starcheck1: 0.0392499 t_uncond_hook: 0.121622 t_starcheck2: 0.0178568 t_shortcut: 0.03812 t_starcheck: 0.0759439
Iteration: 4 converged: 3479 stars: 18265512 nonstars: 0
 Time:  t_cond_hook: 0.086154 t_starcheck1: 0.023309 t_uncond_hook: 0.0742359 t_starcheck2: 0.0161619 t_shortcut: 0.0316851 t_starcheck: 0.0708921
Iteration: 4 converged: 3479 stars: 18265512 nonstars: 0
 Time:  t_cond_hook: 0.086154 t_starcheck1: 0.023309 t_uncond_hook: 0.0742359 t_starcheck2: 0.0161619 t_shortcut: 0.0316851 t_starcheck: 0.0708921
Iteration: 5 converged: 18268991 stars: 0 nonstars: 0
Number of components: 1365
Total time: 2.79527
=================================================

srun: Job 23816700 step creation temporarily disabled, retrying
srun: Step created for job 23816700
Process Grid (p x p x t): 32 x 32 x 16
filename: /project/projectdirs/m1982/LACC/noheader/sd1-arc
COMBBLAS Warning: It is dangerous to create (matrix) objects without specifying the communicator, are you sure you want to create this object in MPI_COMM_WORLD?
File is 34401667529 bytes
MPIIO WARNING: DVS stripe width of 32 was requested but DVS set it to 28
See MPICH_MPIIO_DVS_MAXNODES in the intro_mpi man page.
As a whole: 82924686 rows and 82924686 columns and 1937489265 nonzeros
Symmatricizing an unsymmetric input matrix.
As a whole: 82924686 rows and 82924686 columns and 3681303908 nonzeros
File Read time: 30.6868
isolated vertice: 0
Load balance: 1.03174
Nonzeros: 3681303908
===== Running the SV algorithm ======
Iteration 1: diff 66153513, spmv 0
total 0.674, GP 0.293, SpMV 0.264, Hooking 0.116, Others 0.001
Iteration 2: diff 81942259, spmv 0
total 0.832, GP 0.411, SpMV 0.179, Hooking 0.241, Others 0.001
Iteration 3: diff 65165911, spmv 0
total 0.615, GP 0.293, SpMV 0.171, Hooking 0.149, Others 0.001
Iteration 4: diff 199808, spmv 0
total 0.398, GP 0.129, SpMV 0.164, Hooking 0.104, Others 0.001
Iteration 5: diff 203, spmv 1
total 0.403, GP 0.129, SpMV 0.155, Hooking 0.118, Others 0.001
Iteration 6: diff 91, spmv 1
total 0.256, GP 0.127, SpMV 0.011, Hooking 0.118, Others 0.001
Iteration 7: diff 0, spmv 1
total 0.261, GP 0.128, SpMV 0.013, Hooking 0.119, Others 0.001
Number of components: 246969
Total time: 4.54384
=================================================

===== Running LACC ======
Iteration: 1 converged: 0 stars: 32532103 nonstars: 50392583
 Time:  t_cond_hook: 0.378973 t_starcheck1: 1.78814e-05 t_uncond_hook: 0.333849 t_starcheck2: 0.00114298 t_shortcut: 0.260915 t_starcheck: 0.719619
Iteration: 2 converged: 555121 stars: 161391 nonstars: 82208174
 Time:  t_cond_hook: 0.238543 t_starcheck1: 0.304123 t_uncond_hook: 0.222729 t_starcheck2: 0.016181 t_shortcut: 0.156109 t_starcheck: 0.427816
Iteration: 3 converged: 572019 stars: 60689 nonstars: 82291978
 Time:  t_cond_hook: 0.258429 t_starcheck1: 0.0374141 t_uncond_hook: 0.244971 t_starcheck2: 0.0136461 t_shortcut: 0.119196 t_starcheck: 0.190968
Iteration: 4 converged: 631469 stars: 990 nonstars: 82292227
 Time:  t_cond_hook: 0.188171 t_starcheck1: 0.0371041 t_uncond_hook: 0.216188 t_starcheck2: 0.0141399 t_shortcut: 0.0992961 t_starcheck: 0.220816
Iteration: 5 converged: 632001 stars: 82292685 nonstars: 0
 Time:  t_cond_hook: 0.211825 t_starcheck1: 0.0345819 t_uncond_hook: 0.216855 t_starcheck2: 0.012536 t_shortcut: 0.0951941 t_starcheck: 0.187316
Iteration: 5 converged: 632001 stars: 82292685 nonstars: 0
 Time:  t_cond_hook: 0.211825 t_starcheck1: 0.0345819 t_uncond_hook: 0.216855 t_starcheck2: 0.012536 t_shortcut: 0.0951941 t_starcheck: 0.187316
Iteration: 6 converged: 82924686 stars: 0 nonstars: 0
Number of components: 246969
Total time: 7.02183
=================================================

