Process Grid (p x p x t): 8 x 8 x 16
filename: /project/projectdirs/m1982/LACC/noheader/MOLIERE_2016.mtx
COMBBLAS Warning: It is dangerous to create (matrix) objects without specifying the communicator, are you sure you want to create this object in MPI_COMM_WORLD?
File is 88119102918 bytes
MPIIO WARNING: DVS stripe width of 32 was requested but DVS set it to 28
See MPICH_MPIIO_DVS_MAXNODES in the intro_mpi man page.
As a whole: 30219118 rows and 30219118 columns and 3338650683 nonzeros
Symmatricizing an unsymmetric input matrix.
As a whole: 30219118 rows and 30219118 columns and 6677301366 nonzeros
File Read time: 1116.12
isolated vertice: 0
Load balance: 1.00845
Nonzeros: 6677301366
===== Running the SV algorithm ======
Iteration 1: diff 29205004, spmv 0
total 2.075, GP 0.504, SpMV 1.216, Hooking 0.352, Others 0.003
Iteration 2: diff 29994634, spmv 0
total 2.177, GP 0.586, SpMV 1.152, Hooking 0.437, Others 0.003
Iteration 3: diff 2574262, spmv 0
total 1.751, GP 0.250, SpMV 1.145, Hooking 0.354, Others 0.003
Iteration 4: diff 222223, spmv 0
total 1.704, GP 0.222, SpMV 1.140, Hooking 0.338, Others 0.003
Iteration 5: diff 1845, spmv 1
total 0.732, GP 0.221, SpMV 0.137, Hooking 0.371, Others 0.003
Iteration 6: diff 0, spmv 1
total 0.684, GP 0.221, SpMV 0.092, Hooking 0.369, Others 0.003
Number of components: 4457
Total time: 9.55289
=================================================

===== Running LACC ======
Iteration: 1 converged: 0 stars: 6674817 nonstars: 23544301
 Time:  t_cond_hook: 1.25271 t_starcheck1: 0.000267982 t_uncond_hook: 1.46799 t_starcheck2: 0.00194311 t_shortcut: 0.538711 t_starcheck: 0.941972
Iteration: 2 converged: 10009 stars: 156671 nonstars: 30052438
 Time:  t_cond_hook: 1.33593 t_starcheck1: 0.183445 t_uncond_hook: 1.25107 t_starcheck2: 0.0188999 t_shortcut: 0.41519 t_starcheck: 0.784877
Iteration: 3 converged: 10088 stars: 6649 nonstars: 30202381
 Time:  t_cond_hook: 1.23912 t_starcheck1: 0.0586951 t_uncond_hook: 1.2009 t_starcheck2: 0.0128639 t_shortcut: 0.377576 t_starcheck: 0.687615
Iteration: 4 converged: 10088 stars: 123 nonstars: 30208907
 Time:  t_cond_hook: 1.2266 t_starcheck1: 0.0105572 t_uncond_hook: 1.19555 t_starcheck2: 0.012325 t_shortcut: 0.365853 t_starcheck: 0.736887
Iteration: 5 converged: 10088 stars: 0 nonstars: 30209030
 Time:  t_cond_hook: 1.3259 t_starcheck1: 0.060864 t_uncond_hook: 1.19387 t_starcheck2: 0.0116348 t_shortcut: 0.371375 t_starcheck: 0.732584
Iteration: 6 converged: 10088 stars: 30209030 nonstars: 0
 Time:  t_cond_hook: 1.22295 t_starcheck1: 0.00913501 t_uncond_hook: 1.19526 t_starcheck2: 0.0116689 t_shortcut: 0.368268 t_starcheck: 0.676349
Iteration: 6 converged: 10088 stars: 30209030 nonstars: 0
 Time:  t_cond_hook: 1.22295 t_starcheck1: 0.00913501 t_uncond_hook: 1.19526 t_starcheck2: 0.0116689 t_shortcut: 0.368268 t_starcheck: 0.676349
Iteration: 7 converged: 30219118 stars: 0 nonstars: 0
Number of components: 4457
Total time: 50.657
=================================================

Process Grid (p x p x t): 8 x 8 x 16
filename: /project/projectdirs/m1982/HipMCL/eukarya/Renamed_euk_vs_euk_30_50length.indexed.list.noheader
COMBBLAS Warning: It is dangerous to create (matrix) objects without specifying the communicator, are you sure you want to create this object in MPI_COMM_WORLD?
File is 7976295135 bytes
MPIIO WARNING: DVS stripe width of 32 was requested but DVS set it to 28
See MPICH_MPIIO_DVS_MAXNODES in the intro_mpi man page.
As a whole: 3243106 rows and 3243106 columns and 359744161 nonzeros
Symmatricizing an unsymmetric input matrix.
As a whole: 3243106 rows and 3243106 columns and 359763936 nonzeros
File Read time: 85.0069
isolated vertice: 0
Load balance: 1.00267
Nonzeros: 359763936
===== Running the SV algorithm ======
Iteration 1: diff 2932181, spmv 0
total 0.164, GP 0.048, SpMV 0.062, Hooking 0.054, Others 0.001
Iteration 2: diff 1798870, spmv 0
total 0.214, GP 0.096, SpMV 0.042, Hooking 0.075, Others 0.001
Iteration 3: diff 1113592, spmv 0
total 0.221, GP 0.111, SpMV 0.047, Hooking 0.063, Others 0.001
Iteration 4: diff 1247465, spmv 0
total 0.193, GP 0.090, SpMV 0.040, Hooking 0.062, Others 0.001
Iteration 5: diff 799875, spmv 0
total 0.201, GP 0.101, SpMV 0.040, Hooking 0.059, Others 0.001
Iteration 6: diff 61702, spmv 0
total 0.183, GP 0.084, SpMV 0.040, Hooking 0.059, Others 0.001
Iteration 7: diff 0, spmv 1
total 0.175, GP 0.083, SpMV 0.023, Hooking 0.068, Others 0.001
Number of components: 164156
Total time: 1.42745
=================================================

===== Running LACC ======
Iteration: 1 converged: 0 stars: 2554298 nonstars: 688808
 Time:  t_cond_hook: 0.0773952 t_starcheck1: 2.40803e-05 t_uncond_hook: 0.112414 t_starcheck2: 0.000341892 t_shortcut: 0.076649 t_starcheck: 0.255528
Iteration: 2 converged: 577766 stars: 2010650 nonstars: 654690
 Time:  t_cond_hook: 0.129119 t_starcheck1: 0.0628359 t_uncond_hook: 0.137022 t_starcheck2: 0.0190768 t_shortcut: 0.0587201 t_starcheck: 0.155814
Iteration: 3 converged: 1061288 stars: 1526961 nonstars: 654857
 Time:  t_cond_hook: 0.0653169 t_starcheck1: 0.0430222 t_uncond_hook: 0.06426 t_starcheck2: 0.0277641 t_shortcut: 0.0459299 t_starcheck: 0.094763
Iteration: 4 converged: 1659477 stars: 678909 nonstars: 904720
 Time:  t_cond_hook: 0.055301 t_starcheck1: 0.031966 t_uncond_hook: 0.0754149 t_starcheck2: 0.019433 t_shortcut: 0.0331221 t_starcheck: 0.074796
Iteration: 5 converged: 1904934 stars: 1207342 nonstars: 130830
 Time:  t_cond_hook: 0.0488391 t_starcheck1: 0.029649 t_uncond_hook: 0.05108 t_starcheck2: 0.0155299 t_shortcut: 0.0276129 t_starcheck: 0.0637362
Iteration: 6 converged: 1938893 stars: 1304213 nonstars: 0
 Time:  t_cond_hook: 0.045892 t_starcheck1: 0.0231009 t_uncond_hook: 0.058913 t_starcheck2: 0.022815 t_shortcut: 0.0259109 t_starcheck: 0.047992
Iteration: 6 converged: 1938893 stars: 1304213 nonstars: 0
 Time:  t_cond_hook: 0.045892 t_starcheck1: 0.0231009 t_uncond_hook: 0.058913 t_starcheck2: 0.022815 t_shortcut: 0.0259109 t_starcheck: 0.047992
Iteration: 7 converged: 3243106 stars: 0 nonstars: 0
Number of components: 164156
Total time: 3.62114
=================================================

srun: Job 23798445 step creation temporarily disabled, retrying
srun: Step created for job 23798445
Process Grid (p x p x t): 8 x 8 x 16
filename: /project/projectdirs/m1982/HipMCL/archaea/Renamed_arch_vs_arch_30_50length.indexed.list.noheader
COMBBLAS Warning: It is dangerous to create (matrix) objects without specifying the communicator, are you sure you want to create this object in MPI_COMM_WORLD?
File is 4401682095 bytes
MPIIO WARNING: DVS stripe width of 32 was requested but DVS set it to 28
See MPICH_MPIIO_DVS_MAXNODES in the intro_mpi man page.
As a whole: 1644227 rows and 1644227 columns and 204784551 nonzeros
Symmatricizing an unsymmetric input matrix.
As a whole: 1644227 rows and 1644227 columns and 204792654 nonzeros
File Read time: 48.436
isolated vertice: 0
Load balance: 1.00739
Nonzeros: 204792654
===== Running the SV algorithm ======
Iteration 1: diff 1530708, spmv 0
total 0.101, GP 0.028, SpMV 0.033, Hooking 0.039, Others 0.000
Iteration 2: diff 903421, spmv 0
total 0.131, GP 0.059, SpMV 0.022, Hooking 0.049, Others 0.000
Iteration 3: diff 464796, spmv 0
total 0.148, GP 0.080, SpMV 0.023, Hooking 0.044, Others 0.000
Iteration 4: diff 390180, spmv 0
total 0.136, GP 0.072, SpMV 0.020, Hooking 0.044, Others 0.000
Iteration 5: diff 276779, spmv 0
total 0.113, GP 0.051, SpMV 0.020, Hooking 0.042, Others 0.000
Iteration 6: diff 204544, spmv 0
total 0.113, GP 0.051, SpMV 0.019, Hooking 0.042, Others 0.000
Iteration 7: diff 10701, spmv 0
total 0.112, GP 0.050, SpMV 0.020, Hooking 0.042, Others 0.000
Iteration 8: diff 0, spmv 1
total 0.115, GP 0.051, SpMV 0.017, Hooking 0.047, Others 0.000
Number of components: 59794
Total time: 1.02268
=================================================

===== Running LACC ======
Iteration: 1 converged: 0 stars: 1333418 nonstars: 310809
 Time:  t_cond_hook: 0.03743 t_starcheck1: 1.90735e-05 t_uncond_hook: 0.0584779 t_starcheck2: 0.000236988 t_shortcut: 0.0469549 t_starcheck: 0.139245
Iteration: 2 converged: 279740 stars: 1103408 nonstars: 261079
 Time:  t_cond_hook: 0.0766149 t_starcheck1: 0.033464 t_uncond_hook: 0.0859811 t_starcheck2: 0.0112772 t_shortcut: 0.032105 t_starcheck: 0.078048
Iteration: 3 converged: 509132 stars: 969729 nonstars: 165366
 Time:  t_cond_hook: 0.0315959 t_starcheck1: 0.0241311 t_uncond_hook: 0.0349872 t_starcheck2: 0.016994 t_shortcut: 0.024122 t_starcheck: 0.04849
Iteration: 4 converged: 921298 stars: 525011 nonstars: 197918
 Time:  t_cond_hook: 0.0264189 t_starcheck1: 0.0346789 t_uncond_hook: 0.0470419 t_starcheck2: 0.014256 t_shortcut: 0.0162499 t_starcheck: 0.0425401
Iteration: 5 converged: 1130882 stars: 443194 nonstars: 70151
 Time:  t_cond_hook: 0.025192 t_starcheck1: 0.024936 t_uncond_hook: 0.0287931 t_starcheck2: 0.00826311 t_shortcut: 0.0121229 t_starcheck: 0.034852
Iteration: 6 converged: 1258664 stars: 374274 nonstars: 11289
 Time:  t_cond_hook: 0.0487509 t_starcheck1: 0.0229712 t_uncond_hook: 0.0266469 t_starcheck2: 0.00524092 t_shortcut: 0.0101361 t_starcheck: 0.0315478
Iteration: 7 converged: 1272765 stars: 371462 nonstars: 0
 Time:  t_cond_hook: 0.0229251 t_starcheck1: 0.00933194 t_uncond_hook: 0.016639 t_starcheck2: 0.00851488 t_shortcut: 0.009161 t_starcheck: 0.0180051
Iteration: 7 converged: 1272765 stars: 371462 nonstars: 0
 Time:  t_cond_hook: 0.0229251 t_starcheck1: 0.00933194 t_uncond_hook: 0.016639 t_starcheck2: 0.00851488 t_shortcut: 0.009161 t_starcheck: 0.0180051
Iteration: 8 converged: 1644227 stars: 0 nonstars: 0
Number of components: 59794
Total time: 2.1086
=================================================

srun: Job 23798445 step creation temporarily disabled, retrying
srun: Step created for job 23798445
Process Grid (p x p x t): 8 x 8 x 16
filename: /project/projectdirs/m1982/LACC/noheader/out.dbpedia-link
COMBBLAS Warning: It is dangerous to create (matrix) objects without specifying the communicator, are you sure you want to create this object in MPI_COMM_WORLD?
File is 2712460738 bytes
MPIIO WARNING: DVS stripe width of 32 was requested but DVS set it to 28
See MPICH_MPIIO_DVS_MAXNODES in the intro_mpi man page.
As a whole: 18268991 rows and 18268991 columns and 136537566 nonzeros
Symmatricizing an unsymmetric input matrix.
As a whole: 18268991 rows and 18268991 columns and 253780418 nonzeros
File Read time: 35.4669
isolated vertice: 0
Load balance: 1.0896
Nonzeros: 253780418
===== Running the SV algorithm ======
Iteration 1: diff 11597204, spmv 0
total 0.527, GP 0.146, SpMV 0.166, Hooking 0.213, Others 0.002
Iteration 2: diff 18248660, spmv 0
total 0.886, GP 0.526, SpMV 0.118, Hooking 0.240, Others 0.002
Iteration 3: diff 18263171, spmv 0
total 0.641, GP 0.301, SpMV 0.120, Hooking 0.219, Others 0.002
Iteration 4: diff 27554, spmv 0
total 0.384, GP 0.109, SpMV 0.119, Hooking 0.153, Others 0.002
Iteration 5: diff 0, spmv 1
total 0.306, GP 0.109, SpMV 0.025, Hooking 0.171, Others 0.002
Number of components: 1365
Total time: 3.04674
=================================================

===== Running LACC ======
Iteration: 1 converged: 0 stars: 5553381 nonstars: 12715610
 Time:  t_cond_hook: 0.228732 t_starcheck1: 6.10352e-05 t_uncond_hook: 0.406502 t_starcheck2: 0.00128484 t_shortcut: 0.310165 t_starcheck: 1.04734
Iteration: 2 converged: 3446 stars: 3638 nonstars: 18261907
 Time:  t_cond_hook: 0.437588 t_starcheck1: 0.233882 t_uncond_hook: 0.15642 t_starcheck2: 0.00867391 t_shortcut: 0.273313 t_starcheck: 0.415675
Iteration: 3 converged: 3446 stars: 33 nonstars: 18265512
 Time:  t_cond_hook: 0.128203 t_starcheck1: 0.00766778 t_uncond_hook: 0.137798 t_starcheck2: 0.0083251 t_shortcut: 0.193193 t_starcheck: 0.36179
Iteration: 4 converged: 3479 stars: 18265512 nonstars: 0
 Time:  t_cond_hook: 0.130113 t_starcheck1: 0.00705194 t_uncond_hook: 0.137406 t_starcheck2: 0.00831008 t_shortcut: 0.19138 t_starcheck: 0.345832
Iteration: 4 converged: 3479 stars: 18265512 nonstars: 0
 Time:  t_cond_hook: 0.130113 t_starcheck1: 0.00705194 t_uncond_hook: 0.137406 t_starcheck2: 0.00831008 t_shortcut: 0.19138 t_starcheck: 0.345832
Iteration: 5 converged: 18268991 stars: 0 nonstars: 0
Number of components: 1365
Total time: 6.81593
=================================================

srun: Job 23798445 step creation temporarily disabled, retrying
srun: Step created for job 23798445
Process Grid (p x p x t): 8 x 8 x 16
filename: /project/projectdirs/m1982/LACC/noheader/sd1-arc
COMBBLAS Warning: It is dangerous to create (matrix) objects without specifying the communicator, are you sure you want to create this object in MPI_COMM_WORLD?
File is 34401667529 bytes
MPIIO WARNING: DVS stripe width of 32 was requested but DVS set it to 28
See MPICH_MPIIO_DVS_MAXNODES in the intro_mpi man page.
slurmstepd: error: *** STEP 23798445.4 ON nid06887 CANCELLED AT 2019-08-13T10:39:01 DUE TO TIME LIMIT ***
srun: got SIGCONT
srun: forcing job termination
