Process Grid (p x p x t): 8 x 8 x 16
filename: /project/projectdirs/m1982/LACC/noheader/sd1-arc
COMBBLAS Warning: It is dangerous to create (matrix) objects without specifying the communicator, are you sure you want to create this object in MPI_COMM_WORLD?
File is 34401667529 bytes
MPIIO WARNING: DVS stripe width of 32 was requested but DVS set it to 28
See MPICH_MPIIO_DVS_MAXNODES in the intro_mpi man page.
As a whole: 82924686 rows and 82924686 columns and 1937489265 nonzeros
Symmatricizing an unsymmetric input matrix.
As a whole: 82924686 rows and 82924686 columns and 3681303908 nonzeros
File Read time: 459.442
isolated vertice: 0
Load balance: 1.01276
Nonzeros: 3681303908
===== Running the SV algorithm ======
Iteration 1: diff 66153513, spmv 0
total 2.332, GP 0.552, SpMV 0.892, Hooking 0.880, Others 0.008
Iteration 2: diff 81942259, spmv 0
total 4.056, GP 2.283, SpMV 0.761, Hooking 1.005, Others 0.008
Iteration 3: diff 65165911, spmv 0
total 2.097, GP 0.507, SpMV 0.738, Hooking 0.844, Others 0.008
Iteration 4: diff 199808, spmv 0
total 1.759, GP 0.374, SpMV 0.723, Hooking 0.655, Others 0.008
Iteration 5: diff 203, spmv 1
total 1.158, GP 0.364, SpMV 0.107, Hooking 0.679, Others 0.007
Iteration 6: diff 91, spmv 1
total 1.119, GP 0.364, SpMV 0.076, Hooking 0.672, Others 0.008
Iteration 7: diff 0, spmv 1
total 1.116, GP 0.364, SpMV 0.071, Hooking 0.673, Others 0.008
Number of components: 246969
Total time: 14.8328
=================================================

===== Running LACC ======
Iteration: 1 converged: 0 stars: 32532103 nonstars: 50392583
 Time:  t_cond_hook: 1.13988 t_starcheck1: 0.0002141 t_uncond_hook: 1.79245 t_starcheck2: 0.00526619 t_shortcut: 1.08851 t_starcheck: 3.24874
Iteration: 2 converged: 555121 stars: 161391 nonstars: 82208174
 Time:  t_cond_hook: 1.08789 t_starcheck1: 0.593494 t_uncond_hook: 0.950343 t_starcheck2: 0.0475719 t_shortcut: 0.945281 t_starcheck: 1.5222
Iteration: 3 converged: 572019 stars: 60689 nonstars: 82291978
 Time:  t_cond_hook: 0.842475 t_starcheck1: 0.0306981 t_uncond_hook: 0.888952 t_starcheck2: 0.0342879 t_shortcut: 0.783131 t_starcheck: 1.36924
Iteration: 4 converged: 631469 stars: 990 nonstars: 82292227
 Time:  t_cond_hook: 0.79328 t_starcheck1: 0.0786219 t_uncond_hook: 0.819264 t_starcheck2: 0.033035 t_shortcut: 0.735646 t_starcheck: 1.386
Iteration: 5 converged: 632001 stars: 82292685 nonstars: 0
 Time:  t_cond_hook: 0.828718 t_starcheck1: 0.0623569 t_uncond_hook: 0.859083 t_starcheck2: 0.0301249 t_shortcut: 0.71975 t_starcheck: 1.31741
Iteration: 5 converged: 632001 stars: 82292685 nonstars: 0
 Time:  t_cond_hook: 0.828718 t_starcheck1: 0.0623569 t_uncond_hook: 0.859083 t_starcheck2: 0.0301249 t_shortcut: 0.71975 t_starcheck: 1.31741
Iteration: 6 converged: 82924686 stars: 0 nonstars: 0
Number of components: 246969
Total time: 40.935
=================================================

srun: Job 23799706 step creation temporarily disabled, retrying
srun: Step created for job 23799706
Process Grid (p x p x t): 8 x 8 x 16
filename: /project/projectdirs/m1982/LACC/noheader/kmer_V1r.mtx
COMBBLAS Warning: It is dangerous to create (matrix) objects without specifying the communicator, are you sure you want to create this object in MPI_COMM_WORLD?
File is 4412689701 bytes
MPIIO WARNING: DVS stripe width of 32 was requested but DVS set it to 28
See MPICH_MPIIO_DVS_MAXNODES in the intro_mpi man page.
As a whole: 214005017 rows and 214005017 columns and 232705452 nonzeros
Symmatricizing an unsymmetric input matrix.
As a whole: 214005017 rows and 214005017 columns and 465410904 nonzeros
File Read time: 97.4644
isolated vertice: 0
Load balance: 1.00051
Nonzeros: 465410904
===== Running the SV algorithm ======
Iteration 1: diff 145241805, spmv 0
total 4.603, GP 1.156, SpMV 1.155, Hooking 2.273, Others 0.018
Iteration 2: diff 134253444, spmv 0
total 7.134, GP 1.409, SpMV 0.661, Hooking 5.046, Others 0.018
Iteration 3: diff 142882581, spmv 0
total 10.502, GP 7.140, SpMV 0.658, Hooking 2.686, Others 0.018
Iteration 4: diff 169969303, spmv 0
total 11.650, GP 8.249, SpMV 0.663, Hooking 2.720, Others 0.018
Iteration 5: diff 201511770, spmv 0
total 10.341, GP 7.187, SpMV 0.657, Hooking 2.479, Others 0.018
Iteration 6: diff 210142594, spmv 0
total 8.211, GP 5.042, SpMV 0.660, Hooking 2.490, Others 0.018
Iteration 7: diff 213920264, spmv 0
total 3.951, GP 1.251, SpMV 0.657, Hooking 2.025, Others 0.018
Iteration 8: diff 3624368, spmv 0
total 3.261, GP 0.919, SpMV 0.659, Hooking 1.665, Others 0.019
Iteration 9: diff 4173, spmv 1
total 2.753, GP 0.931, SpMV 0.164, Hooking 1.640, Others 0.018
Iteration 10: diff 0, spmv 1
total 2.615, GP 0.931, SpMV 0.035, Hooking 1.631, Others 0.018
Number of components: 9
Total time: 67.5857
=================================================

===== Running LACC ======
Iteration: 1 converged: 0 stars: 170489332 nonstars: 43515685
 Time:  t_cond_hook: 1.33349 t_starcheck1: 0.000221968 t_uncond_hook: 3.74255 t_starcheck2: 0.013499 t_shortcut: 2.42285 t_starcheck: 15.4052
Iteration: 2 converged: 0 stars: 145269512 nonstars: 68735505
 Time:  t_cond_hook: 1.70003 t_starcheck1: 4.65736 t_uncond_hook: 1.94437 t_starcheck2: 0.308089 t_shortcut: 2.82453 t_starcheck: 14.3941
Iteration: 3 converged: 0 stars: 112839330 nonstars: 101165687
 Time:  t_cond_hook: 1.96182 t_starcheck1: 3.91634 t_uncond_hook: 2.18504 t_starcheck2: 0.402526 t_shortcut: 2.89173 t_starcheck: 12.5169
Iteration: 4 converged: 22 stars: 55830213 nonstars: 158174782
 Time:  t_cond_hook: 2.38386 t_starcheck1: 2.68302 t_uncond_hook: 1.61713 t_starcheck2: 0.344331 t_shortcut: 2.91918 t_starcheck: 8.88189
Iteration: 5 converged: 95 stars: 9242780 nonstars: 204762142
 Time:  t_cond_hook: 1.65578 t_starcheck1: 1.03416 t_uncond_hook: 1.04304 t_starcheck2: 0.163057 t_shortcut: 2.6535 t_starcheck: 3.95854
Iteration: 6 converged: 230 stars: 95700 nonstars: 213909087
 Time:  t_cond_hook: 0.904368 t_starcheck1: 0.45174 t_uncond_hook: 0.847773 t_starcheck2: 0.0787728 t_shortcut: 2.03773 t_starcheck: 3.39419
Iteration: 7 converged: 500 stars: 450 nonstars: 214004067
 Time:  t_cond_hook: 0.833987 t_starcheck1: 0.0886879 t_uncond_hook: 0.912568 t_starcheck2: 0.074614 t_shortcut: 1.8172 t_starcheck: 3.32961
Iteration: 8 converged: 625 stars: 0 nonstars: 214004392
 Time:  t_cond_hook: 0.797079 t_starcheck1: 0.0848238 t_uncond_hook: 0.844125 t_starcheck2: 0.0743768 t_shortcut: 1.73012 t_starcheck: 3.30378
Iteration: 9 converged: 625 stars: 214004392 nonstars: 0
 Time:  t_cond_hook: 0.74066 t_starcheck1: 0.051142 t_uncond_hook: 0.848159 t_starcheck2: 0.0736799 t_shortcut: 1.72621 t_starcheck: 3.28202
Iteration: 9 converged: 625 stars: 214004392 nonstars: 0
 Time:  t_cond_hook: 0.74066 t_starcheck1: 0.051142 t_uncond_hook: 0.848159 t_starcheck2: 0.0736799 t_shortcut: 1.72621 t_starcheck: 3.28202
Iteration: 10 converged: 214005017 stars: 0 nonstars: 0
Number of components: 9
Total time: 138.77
=================================================

