Process Grid (p x p x t): 2 x 2 x 16
filename: /project/projectdirs/m1982/LACC/noheader/HV15R.mtx
COMBBLAS Warning: It is dangerous to create (matrix) objects without specifying the communicator, are you sure you want to create this object in MPI_COMM_WORLD?
File is 10095084900 bytes
MPIIO WARNING: DVS stripe width of 32 was requested but DVS set it to 28
See MPICH_MPIIO_DVS_MAXNODES in the intro_mpi man page.
As a whole: 2017169 rows and 2017169 columns and 283073458 nonzeros
Symmatricizing an unsymmetric input matrix.
As a whole: 2017169 rows and 2017169 columns and 326732307 nonzeros
File Read time: 793.959
isolated vertice: 0
Load balance: 1.00639
Nonzeros: 326732307
===== Running the SV algorithm ======
Iteration 1: diff 2002215, spmv 0
total 1.051, GP 0.200, SpMV 0.524, Hooking 0.324, Others 0.003
Iteration 2: diff 1887420, spmv 0
total 0.914, GP 0.166, SpMV 0.463, Hooking 0.283, Others 0.003
Iteration 3: diff 1828471, spmv 0
total 0.868, GP 0.156, SpMV 0.461, Hooking 0.247, Others 0.003
Iteration 4: diff 1723598, spmv 0
total 0.864, GP 0.155, SpMV 0.463, Hooking 0.244, Others 0.003
Iteration 5: diff 1408603, spmv 0
total 0.861, GP 0.153, SpMV 0.462, Hooking 0.244, Others 0.002
Iteration 6: diff 469907, spmv 0
total 0.859, GP 0.152, SpMV 0.460, Hooking 0.244, Others 0.003
Iteration 7: diff 0, spmv 0
total 0.861, GP 0.151, SpMV 0.463, Hooking 0.244, Others 0.002
Number of components: 1
Total time: 6.45664
=================================================

===== Running LACC ======
Iteration: 1 converged: 0 stars: 1107075 nonstars: 910094
 Time:  t_cond_hook: 0.565291 t_starcheck1: 0.000291824 t_uncond_hook: 0.557745 t_starcheck2: 0.00183201 t_shortcut: 0.334205 t_starcheck: 0.60356
Iteration: 2 converged: 0 stars: 822458 nonstars: 1194711
 Time:  t_cond_hook: 0.800561 t_starcheck1: 0.183342 t_uncond_hook: 0.537942 t_starcheck2: 0.0126741 t_shortcut: 0.315121 t_starcheck: 0.557437
Iteration: 3 converged: 0 stars: 657707 nonstars: 1359462
 Time:  t_cond_hook: 0.609175 t_starcheck1: 0.171966 t_uncond_hook: 0.496477 t_starcheck2: 0.011111 t_shortcut: 0.298087 t_starcheck: 0.544038
Iteration: 4 converged: 0 stars: 461192 nonstars: 1555977
 Time:  t_cond_hook: 0.543551 t_starcheck1: 0.142223 t_uncond_hook: 0.499224 t_starcheck2: 0.011122 t_shortcut: 0.296936 t_starcheck: 0.543928
Iteration: 5 converged: 0 stars: 0 nonstars: 2017169
 Time:  t_cond_hook: 0.529769 t_starcheck1: 0.108296 t_uncond_hook: 0.499569 t_starcheck2: 0.0110941 t_shortcut: 0.296694 t_starcheck: 0.543912
Iteration: 6 converged: 0 stars: 2017169 nonstars: 0
 Time:  t_cond_hook: 0.484572 t_starcheck1: 0.00757909 t_uncond_hook: 0.496521 t_starcheck2: 0.01109 t_shortcut: 0.297421 t_starcheck: 0.544041
Iteration: 6 converged: 0 stars: 2017169 nonstars: 0
 Time:  t_cond_hook: 0.484572 t_starcheck1: 0.00757909 t_uncond_hook: 0.496521 t_starcheck2: 0.01109 t_shortcut: 0.297421 t_starcheck: 0.544041
Iteration: 7 converged: 2017169 stars: 0 nonstars: 0
Number of components: 1
Total time: 34.8558
=================================================

Process Grid (p x p x t): 2 x 2 x 16
filename: /project/projectdirs/m1982/LACC/noheader/uk-2002.mtx
COMBBLAS Warning: It is dangerous to create (matrix) objects without specifying the communicator, are you sure you want to create this object in MPI_COMM_WORLD?
File is 5042641736 bytes
MPIIO WARNING: DVS stripe width of 32 was requested but DVS set it to 28
See MPICH_MPIIO_DVS_MAXNODES in the intro_mpi man page.
As a whole: 18484117 rows and 18484117 columns and 298113762 nonzeros
Symmatricizing an unsymmetric input matrix.
As a whole: 18484117 rows and 18484117 columns and 529444615 nonzeros
File Read time: 699.897
isolated vertice: 0
Load balance: 1.01201
Nonzeros: 529444615
===== Running the SV algorithm ======
Iteration 1: diff 15548174, spmv 0
total 6.099, GP 1.481, SpMV 1.668, Hooking 2.926, Others 0.024
Iteration 2: diff 16187106, spmv 0
total 5.678, GP 1.420, SpMV 1.406, Hooking 2.827, Others 0.025
Iteration 3: diff 18043400, spmv 0
total 5.143, GP 1.269, SpMV 1.404, Hooking 2.445, Others 0.025
Iteration 4: diff 10903723, spmv 0
total 4.898, GP 1.229, SpMV 1.407, Hooking 2.237, Others 0.025
Iteration 5: diff 257804, spmv 0
total 4.844, GP 1.220, SpMV 1.406, Hooking 2.192, Others 0.025
Iteration 6: diff 2202, spmv 1
total 3.617, GP 1.217, SpMV 0.180, Hooking 2.195, Others 0.025
Iteration 7: diff 0, spmv 1
total 3.541, GP 1.216, SpMV 0.109, Hooking 2.192, Others 0.025
Number of components: 1990
Total time: 35.2732
=================================================

===== Running LACC ======
Iteration: 1 converged: 0 stars: 12140894 nonstars: 6343223
 Time:  t_cond_hook: 2.03002 t_starcheck1: 0.00121808 t_uncond_hook: 3.10524 t_starcheck2: 0.0173872 t_shortcut: 2.96719 t_starcheck: 4.98536
Iteration: 2 converged: 7156 stars: 4267380 nonstars: 14209581
 Time:  t_cond_hook: 2.29796 t_starcheck1: 1.77188 t_uncond_hook: 1.92002 t_starcheck2: 0.17919 t_shortcut: 2.76486 t_starcheck: 4.55542
Iteration: 3 converged: 16318 stars: 342747 nonstars: 18125052
 Time:  t_cond_hook: 1.62951 t_starcheck1: 0.773414 t_uncond_hook: 1.63878 t_starcheck2: 0.104522 t_shortcut: 2.45717 t_starcheck: 4.40542
Iteration: 4 converged: 24086 stars: 25592 nonstars: 18434439
 Time:  t_cond_hook: 1.4739 t_starcheck1: 0.105282 t_uncond_hook: 1.58521 t_starcheck2: 0.0745938 t_shortcut: 2.3611 t_starcheck: 4.37059
Iteration: 5 converged: 24494 stars: 2152 nonstars: 18457471
 Time:  t_cond_hook: 1.46148 t_starcheck1: 0.0487969 t_uncond_hook: 1.58767 t_starcheck2: 0.0683391 t_shortcut: 2.27465 t_starcheck: 4.34725
Iteration: 6 converged: 24989 stars: 18459128 nonstars: 0
 Time:  t_cond_hook: 1.46412 t_starcheck1: 0.0420609 t_uncond_hook: 1.58311 t_starcheck2: 0.0676379 t_shortcut: 2.27338 t_starcheck: 4.36463
Iteration: 6 converged: 24989 stars: 18459128 nonstars: 0
 Time:  t_cond_hook: 1.46412 t_starcheck1: 0.0420609 t_uncond_hook: 1.58311 t_starcheck2: 0.0676379 t_shortcut: 2.27338 t_starcheck: 4.36463
Iteration: 7 converged: 18484117 stars: 0 nonstars: 0
Number of components: 1990
Total time: 108.587
=================================================

Process Grid (p x p x t): 2 x 2 x 16
filename: /project/projectdirs/m1982/LACC/noheader/Queen_4147.mtx
COMBBLAS Warning: It is dangerous to create (matrix) objects without specifying the communicator, are you sure you want to create this object in MPI_COMM_WORLD?
File is 4801000621 bytes
MPIIO WARNING: DVS stripe width of 32 was requested but DVS set it to 28
See MPICH_MPIIO_DVS_MAXNODES in the intro_mpi man page.
As a whole: 4147110 rows and 4147110 columns and 166823197 nonzeros
Symmatricizing an unsymmetric input matrix.
As a whole: 4147110 rows and 4147110 columns and 329499284 nonzeros
File Read time: 433.109
isolated vertice: 0
Load balance: 1.01265
Nonzeros: 329499284
===== Running the SV algorithm ======
Iteration 1: diff 4094239, spmv 0
total 1.865, GP 0.378, SpMV 0.830, Hooking 0.651, Others 0.006
Iteration 2: diff 3775657, spmv 0
total 1.674, GP 0.326, SpMV 0.767, Hooking 0.576, Others 0.006
Iteration 3: diff 3756325, spmv 0
total 1.578, GP 0.306, SpMV 0.773, Hooking 0.493, Others 0.005
Iteration 4: diff 3663423, spmv 0
total 1.554, GP 0.296, SpMV 0.770, Hooking 0.483, Others 0.006
Iteration 5: diff 3334885, spmv 0
total 1.553, GP 0.294, SpMV 0.775, Hooking 0.479, Others 0.005
Iteration 6: diff 3688048, spmv 0
total 1.544, GP 0.291, SpMV 0.766, Hooking 0.481, Others 0.005
Iteration 7: diff 1518636, spmv 0
total 1.547, GP 0.289, SpMV 0.773, Hooking 0.479, Others 0.006
Iteration 8: diff 0, spmv 0
total 1.541, GP 0.288, SpMV 0.765, Hooking 0.482, Others 0.005
Number of components: 1
Total time: 13.2061
=================================================

===== Running LACC ======
Iteration: 1 converged: 0 stars: 2468375 nonstars: 1678735
 Time:  t_cond_hook: 0.920768 t_starcheck1: 0.000454903 t_uncond_hook: 0.953138 t_starcheck2: 0.00377584 t_shortcut: 0.69772 t_starcheck: 1.17569
Iteration: 2 converged: 0 stars: 1826235 nonstars: 2320875
 Time:  t_cond_hook: 1.45737 t_starcheck1: 0.381141 t_uncond_hook: 0.868219 t_starcheck2: 0.026021 t_shortcut: 0.624473 t_starcheck: 1.09585
Iteration: 3 converged: 0 stars: 1528310 nonstars: 2618800
 Time:  t_cond_hook: 1.0246 t_starcheck1: 0.34425 t_uncond_hook: 0.824956 t_starcheck2: 0.024811 t_shortcut: 0.577623 t_starcheck: 1.05775
Iteration: 4 converged: 0 stars: 1557318 nonstars: 2589792
 Time:  t_cond_hook: 0.904275 t_starcheck1: 0.302835 t_uncond_hook: 0.840352 t_starcheck2: 0.0348032 t_shortcut: 0.568982 t_starcheck: 1.05601
Iteration: 5 converged: 0 stars: 1415305 nonstars: 2731805
 Time:  t_cond_hook: 0.860546 t_starcheck1: 0.29402 t_uncond_hook: 0.815292 t_starcheck2: 0.0225098 t_shortcut: 0.567428 t_starcheck: 1.05604
Iteration: 6 converged: 0 stars: 0 nonstars: 4147110
 Time:  t_cond_hook: 0.852556 t_starcheck1: 0.264143 t_uncond_hook: 0.821931 t_starcheck2: 0.022649 t_shortcut: 0.56801 t_starcheck: 1.0549
Iteration: 7 converged: 0 stars: 4147110 nonstars: 0
 Time:  t_cond_hook: 0.786567 t_starcheck1: 0.015316 t_uncond_hook: 0.816776 t_starcheck2: 0.022666 t_shortcut: 0.567931 t_starcheck: 1.05532
Iteration: 7 converged: 0 stars: 4147110 nonstars: 0
 Time:  t_cond_hook: 0.786567 t_starcheck1: 0.015316 t_uncond_hook: 0.816776 t_starcheck2: 0.022666 t_shortcut: 0.567931 t_starcheck: 1.05532
Iteration: 8 converged: 4147110 stars: 0 nonstars: 0
Number of components: 1
Total time: 49.8959
=================================================

srun: Job 23784218 step creation temporarily disabled, retrying
srun: Step created for job 23784218
Process Grid (p x p x t): 2 x 2 x 16
filename: /project/projectdirs/m1982/LACC/noheader/kmer_A2a.mtx
COMBBLAS Warning: It is dangerous to create (matrix) objects without specifying the communicator, are you sure you want to create this object in MPI_COMM_WORLD?
File is 3370814474 bytes
MPIIO WARNING: DVS stripe width of 32 was requested but DVS set it to 28
See MPICH_MPIIO_DVS_MAXNODES in the intro_mpi man page.
slurmstepd: error: Detected 1 oom-kill event(s) in step 23784218.3 cgroup. Some of your processes may have been killed by the cgroup out-of-memory handler.
srun: error: nid02813: tasks 0-3: Out Of Memory
srun: Terminating job step 23784218.3
Process Grid (p x p x t): 2 x 2 x 16
filename: /project/projectdirs/m1982/LACC/noheader/kmer_V1r.mtx
COMBBLAS Warning: It is dangerous to create (matrix) objects without specifying the communicator, are you sure you want to create this object in MPI_COMM_WORLD?
File is 4412689701 bytes
MPIIO WARNING: DVS stripe width of 32 was requested but DVS set it to 28
See MPICH_MPIIO_DVS_MAXNODES in the intro_mpi man page.
terminate called after throwing an instance of 'std::bad_alloc'
  what():  std::bad_alloc
srun: error: nid02813: task 1: Aborted
srun: Terminating job step 23784218.4
slurmstepd: error: *** STEP 23784218.4 ON nid02813 CANCELLED AT 2019-08-12T23:53:15 ***
srun: error: nid02813: tasks 0,2-3: Terminated
srun: Force Terminated job step 23784218.4
Process Grid (p x p x t): 2 x 2 x 16
filename: /project/projectdirs/m1982/LACC/noheader/mawi_201512020330.mtx
COMBBLAS Warning: It is dangerous to create (matrix) objects without specifying the communicator, are you sure you want to create this object in MPI_COMM_WORLD?
File is 5144900929 bytes
MPIIO WARNING: DVS stripe width of 32 was requested but DVS set it to 28
See MPICH_MPIIO_DVS_MAXNODES in the intro_mpi man page.
slurmstepd: error: Detected 1 oom-kill event(s) in step 23784218.5 cgroup. Some of your processes may have been killed by the cgroup out-of-memory handler.
srun: error: nid02813: tasks 0-2: Out Of Memory
srun: Terminating job step 23784218.5
slurmstepd: error: *** STEP 23784218.5 ON nid02813 CANCELLED AT 2019-08-13T00:08:22 ***
Process Grid (p x p x t): 2 x 2 x 16
filename: /project/projectdirs/m1982/LACC/noheader/uk-2005.mtx
COMBBLAS Warning: It is dangerous to create (matrix) objects without specifying the communicator, are you sure you want to create this object in MPI_COMM_WORLD?
File is 16451547498 bytes
MPIIO WARNING: DVS stripe width of 32 was requested but DVS set it to 28
See MPICH_MPIIO_DVS_MAXNODES in the intro_mpi man page.
As a whole: 39454746 rows and 39454746 columns and 936364282 nonzeros
slurmstepd: error: Detected 1 oom-kill event(s) in step 23784218.6 cgroup. Some of your processes may have been killed by the cgroup out-of-memory handler.
srun: error: nid02813: tasks 0,3: Out Of Memory
srun: Terminating job step 23784218.6
srun: Job 23784218 step creation temporarily disabled, retrying
srun: Step created for job 23784218
Process Grid (p x p x t): 2 x 2 x 16
filename: /project/projectdirs/m1982/LACC/noheader/twitter7.mtx
COMBBLAS Warning: It is dangerous to create (matrix) objects without specifying the communicator, are you sure you want to create this object in MPI_COMM_WORLD?
File is 24659244697 bytes
MPIIO WARNING: DVS stripe width of 32 was requested but DVS set it to 28
See MPICH_MPIIO_DVS_MAXNODES in the intro_mpi man page.
slurmstepd: error: Detected 1 oom-kill event(s) in step 23784218.7 cgroup. Some of your processes may have been killed by the cgroup out-of-memory handler.
srun: error: nid02813: tasks 0,2-3: Out Of Memory
srun: Terminating job step 23784218.7
slurmstepd: error: *** STEP 23784218.7 ON nid02813 CANCELLED AT 2019-08-13T02:15:59 ***
srun: Job 23784218 step creation temporarily disabled, retrying
srun: Step created for job 23784218
Process Grid (p x p x t): 2 x 2 x 16
filename: /project/projectdirs/m1982/LACC/noheader/sk-2005.mtx
COMBBLAS Warning: It is dangerous to create (matrix) objects without specifying the communicator, are you sure you want to create this object in MPI_COMM_WORLD?
File is 34382171786 bytes
MPIIO WARNING: DVS stripe width of 32 was requested but DVS set it to 28
See MPICH_MPIIO_DVS_MAXNODES in the intro_mpi man page.
slurmstepd: error: Detected 1 oom-kill event(s) in step 23784218.8 cgroup. Some of your processes may have been killed by the cgroup out-of-memory handler.
srun: error: nid02813: tasks 0-3: Out Of Memory
srun: Terminating job step 23784218.8
srun: Job 23784218 step creation temporarily disabled, retrying
srun: Step created for job 23784218
Process Grid (p x p x t): 2 x 2 x 16
filename: /project/projectdirs/m1982/LACC/noheader/MOLIERE_2016.mtx
COMBBLAS Warning: It is dangerous to create (matrix) objects without specifying the communicator, are you sure you want to create this object in MPI_COMM_WORLD?
File is 88119102918 bytes
MPIIO WARNING: DVS stripe width of 32 was requested but DVS set it to 28
See MPICH_MPIIO_DVS_MAXNODES in the intro_mpi man page.
terminate called after throwing an instance of 'std::bad_alloc'
  what():  std::bad_alloc
srun: error: nid02813: task 3: Aborted
srun: Terminating job step 23784218.9
slurmstepd: error: *** STEP 23784218.9 ON nid02813 CANCELLED AT 2019-08-13T06:25:16 ***
srun: error: nid02813: tasks 0-2: Terminated
srun: Force Terminated job step 23784218.9
Process Grid (p x p x t): 2 x 2 x 16
filename: /project/projectdirs/m1982/HipMCL/eukarya/Renamed_euk_vs_euk_30_50length.indexed.list.noheader
COMBBLAS Warning: It is dangerous to create (matrix) objects without specifying the communicator, are you sure you want to create this object in MPI_COMM_WORLD?
File is 7976295135 bytes
MPIIO WARNING: DVS stripe width of 32 was requested but DVS set it to 28
See MPICH_MPIIO_DVS_MAXNODES in the intro_mpi man page.
As a whole: 3243106 rows and 3243106 columns and 359744161 nonzeros
Symmatricizing an unsymmetric input matrix.
As a whole: 3243106 rows and 3243106 columns and 359763936 nonzeros
File Read time: 1446.92
isolated vertice: 0
Load balance: 1.00073
Nonzeros: 359763936
===== Running the SV algorithm ======
Iteration 1: diff 2932181, spmv 0
total 1.542, GP 0.309, SpMV 0.699, Hooking 0.529, Others 0.004
Iteration 2: diff 1798870, spmv 0
total 1.420, GP 0.279, SpMV 0.628, Hooking 0.509, Others 0.005
Iteration 3: diff 1113592, spmv 0
total 1.338, GP 0.263, SpMV 0.623, Hooking 0.447, Others 0.005
Iteration 4: diff 1247465, spmv 0
total 1.317, GP 0.252, SpMV 0.626, Hooking 0.433, Others 0.005
Iteration 5: diff 799875, spmv 0
total 1.311, GP 0.251, SpMV 0.628, Hooking 0.428, Others 0.005
Iteration 6: diff 61702, spmv 0
total 1.309, GP 0.250, SpMV 0.625, Hooking 0.430, Others 0.004
Iteration 7: diff 0, spmv 1
total 0.877, GP 0.250, SpMV 0.174, Hooking 0.449, Others 0.005
Number of components: 164156
Total time: 9.50129
=================================================

===== Running LACC ======
Iteration: 1 converged: 0 stars: 2554298 nonstars: 688808
 Time:  t_cond_hook: 0.791505 t_starcheck1: 0.000298977 t_uncond_hook: 0.894618 t_starcheck2: 0.00308299 t_shortcut: 0.557496 t_starcheck: 1.04299
Iteration: 2 converged: 577766 stars: 2010650 nonstars: 654690
 Time:  t_cond_hook: 0.817247 t_starcheck1: 0.421009 t_uncond_hook: 0.862292 t_starcheck2: 0.178989 t_shortcut: 0.447793 t_starcheck: 0.773881
Iteration: 3 converged: 1061288 stars: 1526961 nonstars: 654857
 Time:  t_cond_hook: 0.693292 t_starcheck1: 0.311249 t_uncond_hook: 0.84166 t_starcheck2: 0.223455 t_shortcut: 0.362871 t_starcheck: 0.62155
Iteration: 4 converged: 1659477 stars: 678909 nonstars: 904720
 Time:  t_cond_hook: 0.695431 t_starcheck1: 0.293134 t_uncond_hook: 0.709362 t_starcheck2: 0.175216 t_shortcut: 0.339642 t_starcheck: 0.875457
Iteration: 5 converged: 1904934 stars: 1207342 nonstars: 130830
 Time:  t_cond_hook: 0.657076 t_starcheck1: 0.150776 t_uncond_hook: 0.669293 t_starcheck2: 0.082948 t_shortcut: 0.277796 t_starcheck: 0.694074
Iteration: 6 converged: 1938893 stars: 1304213 nonstars: 0
 Time:  t_cond_hook: 0.667439 t_starcheck1: 0.225565 t_uncond_hook: 0.681559 t_starcheck2: 0.218885 t_shortcut: 0.264339 t_starcheck: 0.66857
Iteration: 6 converged: 1938893 stars: 1304213 nonstars: 0
 Time:  t_cond_hook: 0.667439 t_starcheck1: 0.225565 t_uncond_hook: 0.681559 t_starcheck2: 0.218885 t_shortcut: 0.264339 t_starcheck: 0.66857
Iteration: 7 converged: 3243106 stars: 0 nonstars: 0
Number of components: 164156
Total time: 42.4605
=================================================

srun: Job 23784218 step creation temporarily disabled, retrying
srun: Step created for job 23784218
Process Grid (p x p x t): 2 x 2 x 16
filename: /project/projectdirs/m1982/HipMCL/archaea/Renamed_arch_vs_arch_30_50length.indexed.list.noheader
COMBBLAS Warning: It is dangerous to create (matrix) objects without specifying the communicator, are you sure you want to create this object in MPI_COMM_WORLD?
File is 4401682095 bytes
MPIIO WARNING: DVS stripe width of 32 was requested but DVS set it to 28
See MPICH_MPIIO_DVS_MAXNODES in the intro_mpi man page.
As a whole: 1644227 rows and 1644227 columns and 204784551 nonzeros
Symmatricizing an unsymmetric input matrix.
As a whole: 1644227 rows and 1644227 columns and 204792654 nonzeros
File Read time: 775.467
isolated vertice: 0
Load balance: 1.00213
Nonzeros: 204792654
===== Running the SV algorithm ======
Iteration 1: diff 1530708, spmv 0
total 0.645, GP 0.131, SpMV 0.264, Hooking 0.247, Others 0.002
Iteration 2: diff 903421, spmv 0
total 0.577, GP 0.123, SpMV 0.224, Hooking 0.227, Others 0.002
Iteration 3: diff 464796, spmv 0
total 0.548, GP 0.116, SpMV 0.226, Hooking 0.204, Others 0.002
Iteration 4: diff 390180, spmv 0
total 0.542, GP 0.114, SpMV 0.226, Hooking 0.200, Others 0.002
Iteration 5: diff 276779, spmv 0
total 0.540, GP 0.113, SpMV 0.226, Hooking 0.199, Others 0.002
Iteration 6: diff 204544, spmv 0
total 0.538, GP 0.113, SpMV 0.224, Hooking 0.199, Others 0.002
Iteration 7: diff 10701, spmv 0
total 0.540, GP 0.113, SpMV 0.226, Hooking 0.199, Others 0.002
Iteration 8: diff 0, spmv 1
total 0.360, GP 0.113, SpMV 0.045, Hooking 0.200, Others 0.002
Number of components: 59794
Total time: 4.42962
=================================================

===== Running LACC ======
Iteration: 1 converged: 0 stars: 1333418 nonstars: 310809
 Time:  t_cond_hook: 0.361713 t_starcheck1: 0.000182867 t_uncond_hook: 0.320271 t_starcheck2: 0.00133705 t_shortcut: 0.245909 t_starcheck: 0.437731
Iteration: 2 converged: 279740 stars: 1103408 nonstars: 261079
 Time:  t_cond_hook: 0.307135 t_starcheck1: 0.176267 t_uncond_hook: 0.316385 t_starcheck2: 0.0716329 t_shortcut: 0.190791 t_starcheck: 0.338862
Iteration: 3 converged: 509132 stars: 969729 nonstars: 165366
 Time:  t_cond_hook: 0.25581 t_starcheck1: 0.139181 t_uncond_hook: 0.352056 t_starcheck2: 0.109027 t_shortcut: 0.155995 t_starcheck: 0.281637
Iteration: 4 converged: 921298 stars: 525011 nonstars: 197918
 Time:  t_cond_hook: 0.2471 t_starcheck1: 0.122302 t_uncond_hook: 0.256917 t_starcheck2: 0.102149 t_shortcut: 0.111955 t_starcheck: 0.337633
Iteration: 5 converged: 1130882 stars: 443194 nonstars: 70151
 Time:  t_cond_hook: 0.245559 t_starcheck1: 0.077389 t_uncond_hook: 0.252951 t_starcheck2: 0.0525448 t_shortcut: 0.0822399 t_starcheck: 0.232542
Iteration: 6 converged: 1258664 stars: 374274 nonstars: 11289
 Time:  t_cond_hook: 0.241795 t_starcheck1: 0.0706589 t_uncond_hook: 0.241497 t_starcheck2: 0.031687 t_shortcut: 0.064364 t_starcheck: 0.166274
Iteration: 7 converged: 1272765 stars: 371462 nonstars: 0
 Time:  t_cond_hook: 0.242839 t_starcheck1: 0.0570729 t_uncond_hook: 0.0463009 t_starcheck2: 0.0578861 t_shortcut: 0.0616689 t_starcheck: 0.154782
Iteration: 7 converged: 1272765 stars: 371462 nonstars: 0
 Time:  t_cond_hook: 0.242839 t_starcheck1: 0.0570729 t_uncond_hook: 0.0463009 t_starcheck2: 0.0578861 t_shortcut: 0.0616689 t_starcheck: 0.154782
Iteration: 8 converged: 1644227 stars: 0 nonstars: 0
Number of components: 59794
Total time: 20.4534
=================================================

Process Grid (p x p x t): 2 x 2 x 16
filename: /project/projectdirs/m1982/LACC/noheader/out.dbpedia-link
COMBBLAS Warning: It is dangerous to create (matrix) objects without specifying the communicator, are you sure you want to create this object in MPI_COMM_WORLD?
File is 2712460738 bytes
MPIIO WARNING: DVS stripe width of 32 was requested but DVS set it to 28
See MPICH_MPIIO_DVS_MAXNODES in the intro_mpi man page.
As a whole: 18268991 rows and 18268991 columns and 136537566 nonzeros
Symmatricizing an unsymmetric input matrix.
As a whole: 18268991 rows and 18268991 columns and 253780418 nonzeros
File Read time: 614.88
isolated vertice: 0
Load balance: 1.0041
Nonzeros: 253780418
===== Running the SV algorithm ======
Iteration 1: diff 11597204, spmv 0
total 5.410, GP 1.460, SpMV 1.073, Hooking 2.852, Others 0.024
Iteration 2: diff 18248660, spmv 0
total 5.660, GP 1.852, SpMV 0.741, Hooking 3.044, Others 0.023
Iteration 3: diff 18263171, spmv 0
total 4.386, GP 1.219, SpMV 0.740, Hooking 2.404, Others 0.023
Iteration 4: diff 27554, spmv 0
total 4.110, GP 1.217, SpMV 0.742, Hooking 2.127, Others 0.023
Iteration 5: diff 0, spmv 1
total 3.479, GP 1.217, SpMV 0.088, Hooking 2.151, Others 0.023
Number of components: 1365
Total time: 24.5575
=================================================

===== Running LACC ======
Iteration: 1 converged: 0 stars: 5553381 nonstars: 12715610
 Time:  t_cond_hook: 1.52598 t_starcheck1: 0.000956059 t_uncond_hook: 3.30961 t_starcheck2: 0.0175581 t_shortcut: 2.95019 t_starcheck: 5.06044
Iteration: 2 converged: 3446 stars: 3638 nonstars: 18261907
 Time:  t_cond_hook: 1.41221 t_starcheck1: 1.18788 t_uncond_hook: 0.995642 t_starcheck2: 0.085526 t_shortcut: 2.76693 t_starcheck: 4.51604
Iteration: 3 converged: 3446 stars: 33 nonstars: 18265512
 Time:  t_cond_hook: 0.798351 t_starcheck1: 0.054096 t_uncond_hook: 0.92529 t_starcheck2: 0.0843501 t_shortcut: 2.31224 t_starcheck: 4.35736
Iteration: 4 converged: 3479 stars: 18265512 nonstars: 0
 Time:  t_cond_hook: 0.799338 t_starcheck1: 0.0521319 t_uncond_hook: 0.926248 t_starcheck2: 0.0840509 t_shortcut: 2.27519 t_starcheck: 4.33061
Iteration: 4 converged: 3479 stars: 18265512 nonstars: 0
 Time:  t_cond_hook: 0.799338 t_starcheck1: 0.0521319 t_uncond_hook: 0.926248 t_starcheck2: 0.0840509 t_shortcut: 2.27519 t_starcheck: 4.33061
Iteration: 5 converged: 18268991 stars: 0 nonstars: 0
Number of components: 1365
Total time: 63.8988
=================================================

Process Grid (p x p x t): 2 x 2 x 16
filename: /project/projectdirs/m1982/LACC/noheader/sd1-arc
COMBBLAS Warning: It is dangerous to create (matrix) objects without specifying the communicator, are you sure you want to create this object in MPI_COMM_WORLD?
File is 34401667529 bytes
MPIIO WARNING: DVS stripe width of 32 was requested but DVS set it to 28
See MPICH_MPIIO_DVS_MAXNODES in the intro_mpi man page.
slurmstepd: error: Detected 1 oom-kill event(s) in step 23784218.13 cgroup. Some of your processes may have been killed by the cgroup out-of-memory handler.
srun: error: nid02813: tasks 1-3: Out Of Memory
srun: Terminating job step 23784218.13
