Process Grid (p x p x t): 4 x 4 x 16
filename: /project/projectdirs/m1982/LACC/noheader/HV15R.mtx
COMBBLAS Warning: It is dangerous to create (matrix) objects without specifying the communicator, are you sure you want to create this object in MPI_COMM_WORLD?
File is 10095084900 bytes
MPIIO WARNING: DVS stripe width of 32 was requested but DVS set it to 28
See MPICH_MPIIO_DVS_MAXNODES in the intro_mpi man page.
As a whole: 2017169 rows and 2017169 columns and 283073458 nonzeros
Symmatricizing an unsymmetric input matrix.
As a whole: 2017169 rows and 2017169 columns and 326732307 nonzeros
File Read time: 192.17
isolated vertice: 0
Load balance: 1.01998
Nonzeros: 326732307
===== Running the SV algorithm ======
Iteration 1: diff 2002215, spmv 0
total 0.335, GP 0.094, SpMV 0.104, Hooking 0.137, Others 0.001
Iteration 2: diff 1887420, spmv 0
total 0.272, GP 0.068, SpMV 0.082, Hooking 0.121, Others 0.001
Iteration 3: diff 1828471, spmv 0
total 0.216, GP 0.062, SpMV 0.081, Hooking 0.073, Others 0.001
Iteration 4: diff 1723598, spmv 0
total 0.212, GP 0.060, SpMV 0.083, Hooking 0.069, Others 0.001
Iteration 5: diff 1408603, spmv 0
total 0.210, GP 0.059, SpMV 0.082, Hooking 0.069, Others 0.001
Iteration 6: diff 469907, spmv 0
total 0.210, GP 0.058, SpMV 0.082, Hooking 0.069, Others 0.001
Iteration 7: diff 0, spmv 0
total 0.210, GP 0.058, SpMV 0.081, Hooking 0.069, Others 0.001
Number of components: 1
Total time: 1.73626
=================================================

===== Running LACC ======
Iteration: 1 converged: 0 stars: 1107075 nonstars: 910094
 Time:  t_cond_hook: 0.15119 t_starcheck1: 7.9155e-05 t_uncond_hook: 0.180946 t_starcheck2: 0.00060606 t_shortcut: 0.105845 t_starcheck: 0.23218
Iteration: 2 converged: 0 stars: 822458 nonstars: 1194711
 Time:  t_cond_hook: 0.140309 t_starcheck1: 0.068296 t_uncond_hook: 0.101499 t_starcheck2: 0.00395179 t_shortcut: 0.091697 t_starcheck: 0.179691
Iteration: 3 converged: 0 stars: 657707 nonstars: 1359462
 Time:  t_cond_hook: 0.168349 t_starcheck1: 0.0517681 t_uncond_hook: 0.102836 t_starcheck2: 0.00350308 t_shortcut: 0.086453 t_starcheck: 0.170503
Iteration: 4 converged: 0 stars: 461192 nonstars: 1555977
 Time:  t_cond_hook: 0.126638 t_starcheck1: 0.0470421 t_uncond_hook: 0.095016 t_starcheck2: 0.00383306 t_shortcut: 0.086113 t_starcheck: 0.169919
Iteration: 5 converged: 0 stars: 0 nonstars: 2017169
 Time:  t_cond_hook: 0.119335 t_starcheck1: 0.05795 t_uncond_hook: 0.0931571 t_starcheck2: 0.00367689 t_shortcut: 0.0860081 t_starcheck: 0.169789
Iteration: 6 converged: 0 stars: 2017169 nonstars: 0
 Time:  t_cond_hook: 0.088124 t_starcheck1: 0.00307679 t_uncond_hook: 0.0920401 t_starcheck2: 0.00354004 t_shortcut: 0.0864809 t_starcheck: 0.159554
Iteration: 6 converged: 0 stars: 2017169 nonstars: 0
 Time:  t_cond_hook: 0.088124 t_starcheck1: 0.00307679 t_uncond_hook: 0.0920401 t_starcheck2: 0.00354004 t_shortcut: 0.0864809 t_starcheck: 0.159554
Iteration: 7 converged: 2017169 stars: 0 nonstars: 0
Number of components: 1
Total time: 8.63594
=================================================

srun: Job 23784455 step creation temporarily disabled, retrying
srun: Step created for job 23784455
Process Grid (p x p x t): 4 x 4 x 16
filename: /project/projectdirs/m1982/LACC/noheader/uk-2002.mtx
COMBBLAS Warning: It is dangerous to create (matrix) objects without specifying the communicator, are you sure you want to create this object in MPI_COMM_WORLD?
File is 5042641736 bytes
MPIIO WARNING: DVS stripe width of 32 was requested but DVS set it to 28
See MPICH_MPIIO_DVS_MAXNODES in the intro_mpi man page.
As a whole: 18484117 rows and 18484117 columns and 298113762 nonzeros
Symmatricizing an unsymmetric input matrix.
As a whole: 18484117 rows and 18484117 columns and 529444615 nonzeros
File Read time: 168.839
isolated vertice: 0
Load balance: 1.03507
Nonzeros: 529444615
===== Running the SV algorithm ======
Iteration 1: diff 15548174, spmv 0
total 1.901, GP 0.595, SpMV 0.537, Hooking 0.763, Others 0.006
Iteration 2: diff 16187106, spmv 0
total 2.449, GP 1.159, SpMV 0.430, Hooking 0.852, Others 0.007
Iteration 3: diff 18043400, spmv 0
total 1.626, GP 0.469, SpMV 0.435, Hooking 0.716, Others 0.007
Iteration 4: diff 10903723, spmv 0
total 1.477, GP 0.405, SpMV 0.425, Hooking 0.641, Others 0.006
Iteration 5: diff 257804, spmv 0
total 1.446, GP 0.399, SpMV 0.428, Hooking 0.612, Others 0.006
Iteration 6: diff 2202, spmv 1
total 1.168, GP 0.398, SpMV 0.111, Hooking 0.652, Others 0.006
Iteration 7: diff 0, spmv 1
total 1.089, GP 0.397, SpMV 0.033, Hooking 0.652, Others 0.007
Number of components: 1990
Total time: 11.7033
=================================================

===== Running LACC ======
Iteration: 1 converged: 0 stars: 12140894 nonstars: 6343223
 Time:  t_cond_hook: 0.637096 t_starcheck1: 0.000341892 t_uncond_hook: 1.14139 t_starcheck2: 0.00457501 t_shortcut: 0.976872 t_starcheck: 1.80469
Iteration: 2 converged: 7156 stars: 4267380 nonstars: 14209581
 Time:  t_cond_hook: 1.0513 t_starcheck1: 0.644506 t_uncond_hook: 0.657786 t_starcheck2: 0.0876281 t_shortcut: 0.876479 t_starcheck: 1.50539
Iteration: 3 converged: 16318 stars: 342747 nonstars: 18125052
 Time:  t_cond_hook: 0.569977 t_starcheck1: 0.396732 t_uncond_hook: 0.55015 t_starcheck2: 0.0460341 t_shortcut: 0.785759 t_starcheck: 1.40225
Iteration: 4 converged: 24086 stars: 25592 nonstars: 18434439
 Time:  t_cond_hook: 0.471805 t_starcheck1: 0.0524242 t_uncond_hook: 0.525763 t_starcheck2: 0.0297961 t_shortcut: 0.754502 t_starcheck: 1.40281
Iteration: 5 converged: 24494 stars: 2152 nonstars: 18457471
 Time:  t_cond_hook: 0.471589 t_starcheck1: 0.0438612 t_uncond_hook: 0.528193 t_starcheck2: 0.0267451 t_shortcut: 0.732366 t_starcheck: 1.38623
Iteration: 6 converged: 24989 stars: 18459128 nonstars: 0
 Time:  t_cond_hook: 0.506977 t_starcheck1: 0.0412941 t_uncond_hook: 0.526842 t_starcheck2: 0.0263391 t_shortcut: 0.733589 t_starcheck: 1.35995
Iteration: 6 converged: 24989 stars: 18459128 nonstars: 0
 Time:  t_cond_hook: 0.506977 t_starcheck1: 0.0412941 t_uncond_hook: 0.526842 t_starcheck2: 0.0263391 t_shortcut: 0.733589 t_starcheck: 1.35995
Iteration: 7 converged: 18484117 stars: 0 nonstars: 0
Number of components: 1990
Total time: 33.7295
=================================================

Process Grid (p x p x t): 4 x 4 x 16
filename: /project/projectdirs/m1982/LACC/noheader/Queen_4147.mtx
COMBBLAS Warning: It is dangerous to create (matrix) objects without specifying the communicator, are you sure you want to create this object in MPI_COMM_WORLD?
File is 4801000621 bytes
MPIIO WARNING: DVS stripe width of 32 was requested but DVS set it to 28
See MPICH_MPIIO_DVS_MAXNODES in the intro_mpi man page.
As a whole: 4147110 rows and 4147110 columns and 166823197 nonzeros
Symmatricizing an unsymmetric input matrix.
As a whole: 4147110 rows and 4147110 columns and 329499284 nonzeros
File Read time: 102.47
isolated vertice: 0
Load balance: 1.03803
Nonzeros: 329499284
===== Running the SV algorithm ======
Iteration 1: diff 4094239, spmv 0
total 0.538, GP 0.156, SpMV 0.196, Hooking 0.184, Others 0.002
Iteration 2: diff 3775657, spmv 0
total 0.503, GP 0.128, SpMV 0.177, Hooking 0.197, Others 0.002
Iteration 3: diff 3756325, spmv 0
total 0.434, GP 0.116, SpMV 0.178, Hooking 0.139, Others 0.002
Iteration 4: diff 3663423, spmv 0
total 0.416, GP 0.107, SpMV 0.177, Hooking 0.130, Others 0.002
Iteration 5: diff 3334885, spmv 0
total 0.411, GP 0.104, SpMV 0.177, Hooking 0.128, Others 0.002
Iteration 6: diff 3688048, spmv 0
total 0.407, GP 0.104, SpMV 0.174, Hooking 0.128, Others 0.002
Iteration 7: diff 1518636, spmv 0
total 0.410, GP 0.103, SpMV 0.179, Hooking 0.126, Others 0.002
Iteration 8: diff 0, spmv 0
total 0.430, GP 0.126, SpMV 0.176, Hooking 0.127, Others 0.002
Number of components: 1
Total time: 3.68352
=================================================

===== Running LACC ======
Iteration: 1 converged: 0 stars: 2468375 nonstars: 1678735
 Time:  t_cond_hook: 0.226216 t_starcheck1: 0.000205994 t_uncond_hook: 0.291627 t_starcheck2: 0.00111985 t_shortcut: 0.201743 t_starcheck: 0.406012
Iteration: 2 converged: 0 stars: 1826235 nonstars: 2320875
 Time:  t_cond_hook: 0.271106 t_starcheck1: 0.139424 t_uncond_hook: 0.216974 t_starcheck2: 0.00766706 t_shortcut: 0.199683 t_starcheck: 0.342058
Iteration: 3 converged: 0 stars: 1528310 nonstars: 2618800
 Time:  t_cond_hook: 0.354683 t_starcheck1: 0.0987461 t_uncond_hook: 0.199401 t_starcheck2: 0.00749898 t_shortcut: 0.165645 t_starcheck: 0.327161
Iteration: 4 converged: 0 stars: 1557318 nonstars: 2589792
 Time:  t_cond_hook: 0.253196 t_starcheck1: 0.089273 t_uncond_hook: 0.21118 t_starcheck2: 0.011632 t_shortcut: 0.162633 t_starcheck: 0.323086
Iteration: 5 converged: 0 stars: 1415305 nonstars: 2731805
 Time:  t_cond_hook: 0.231208 t_starcheck1: 0.093389 t_uncond_hook: 0.194864 t_starcheck2: 0.00663018 t_shortcut: 0.1624 t_starcheck: 0.323064
Iteration: 6 converged: 0 stars: 0 nonstars: 4147110
 Time:  t_cond_hook: 0.22113 t_starcheck1: 0.091311 t_uncond_hook: 0.19243 t_starcheck2: 0.00644994 t_shortcut: 0.162486 t_starcheck: 0.322617
Iteration: 7 converged: 0 stars: 4147110 nonstars: 0
 Time:  t_cond_hook: 0.186529 t_starcheck1: 0.00490308 t_uncond_hook: 0.196355 t_starcheck2: 0.00648379 t_shortcut: 0.162164 t_starcheck: 0.299438
Iteration: 7 converged: 0 stars: 4147110 nonstars: 0
 Time:  t_cond_hook: 0.186529 t_starcheck1: 0.00490308 t_uncond_hook: 0.196355 t_starcheck2: 0.00648379 t_shortcut: 0.162164 t_starcheck: 0.299438
Iteration: 8 converged: 4147110 stars: 0 nonstars: 0
Number of components: 1
Total time: 13.0675
=================================================

Process Grid (p x p x t): 4 x 4 x 16
filename: /project/projectdirs/m1982/LACC/noheader/kmer_A2a.mtx
COMBBLAS Warning: It is dangerous to create (matrix) objects without specifying the communicator, are you sure you want to create this object in MPI_COMM_WORLD?
File is 3370814474 bytes
MPIIO WARNING: DVS stripe width of 32 was requested but DVS set it to 28
See MPICH_MPIIO_DVS_MAXNODES in the intro_mpi man page.
As a whole: 170728175 rows and 170728175 columns and 180292586 nonzeros
Symmatricizing an unsymmetric input matrix.
As a whole: 170728175 rows and 170728175 columns and 360585172 nonzeros
File Read time: 318.197
isolated vertice: 0
Load balance: 1.00023
Nonzeros: 360585172
===== Running the SV algorithm ======
Iteration 1: diff 114976404, spmv 0
total 12.249, GP 3.587, SpMV 1.657, Hooking 6.945, Others 0.059
Iteration 2: diff 103090354, spmv 0
total 20.506, GP 3.893, SpMV 0.962, Hooking 15.593, Others 0.059
Iteration 3: diff 106249066, spmv 0
total 25.528, GP 16.689, SpMV 0.963, Hooking 7.817, Others 0.060
Iteration 4: diff 121391934, spmv 0
total 23.756, GP 15.321, SpMV 0.963, Hooking 7.413, Others 0.058
Iteration 5: diff 146637525, spmv 0
total 15.717, GP 7.758, SpMV 0.966, Hooking 6.935, Others 0.059
Iteration 6: diff 166138405, spmv 0
total 10.968, GP 3.563, SpMV 0.967, Hooking 6.379, Others 0.059
Iteration 7: diff 78074674, spmv 0
total 9.899, GP 3.004, SpMV 0.967, Hooking 5.868, Others 0.060
Iteration 8: diff 3360917, spmv 0
total 9.071, GP 2.878, SpMV 0.967, Hooking 5.169, Others 0.058
Iteration 9: diff 59687, spmv 1
total 8.311, GP 2.871, SpMV 0.286, Hooking 5.095, Others 0.059
Iteration 10: diff 0, spmv 1
total 8.231, GP 2.866, SpMV 0.092, Hooking 5.213, Others 0.059
Number of components: 5353
Total time: 148.337
=================================================

===== Running LACC ======
Iteration: 1 converged: 0 stars: 137804739 nonstars: 32923436
 Time:  t_cond_hook: 2.43432 t_starcheck1: 0.00121713 t_uncond_hook: 9.20711 t_starcheck2: 0.0412629 t_shortcut: 6.91584 t_starcheck: 29.481
Iteration: 2 converged: 0 stars: 119643068 nonstars: 51085107
 Time:  t_cond_hook: 4.36392 t_starcheck1: 10.749 t_uncond_hook: 4.17695 t_starcheck2: 0.588735 t_shortcut: 7.74222 t_starcheck: 29.228
Iteration: 3 converged: 210 stars: 101554365 nonstars: 69173600
 Time:  t_cond_hook: 3.94679 t_starcheck1: 7.62778 t_uncond_hook: 4.88953 t_starcheck2: 1.04619 t_shortcut: 7.89655 t_starcheck: 19.5445
Iteration: 4 converged: 7060 stars: 63161396 nonstars: 107559719
 Time:  t_cond_hook: 3.36833 t_starcheck1: 5.56062 t_uncond_hook: 3.19862 t_starcheck2: 0.935767 t_shortcut: 7.55749 t_starcheck: 13.5134
Iteration: 5 converged: 51495 stars: 30901082 nonstars: 139775598
 Time:  t_cond_hook: 2.29277 t_starcheck1: 3.1552 t_uncond_hook: 1.7158 t_starcheck2: 0.484055 t_shortcut: 7.11336 t_starcheck: 11.3554
Iteration: 6 converged: 237482 stars: 730802 nonstars: 169759891
 Time:  t_cond_hook: 1.48816 t_starcheck1: 2.03199 t_uncond_hook: 1.45574 t_starcheck2: 0.229012 t_shortcut: 6.30576 t_starcheck: 10.4253
Iteration: 7 converged: 344893 stars: 21462 nonstars: 170361820
 Time:  t_cond_hook: 1.57204 t_starcheck1: 0.202372 t_uncond_hook: 1.44203 t_starcheck2: 0.173975 t_shortcut: 5.74147 t_starcheck: 10.2083
Iteration: 8 converged: 355716 stars: 0 nonstars: 170372459
 Time:  t_cond_hook: 1.17681 t_starcheck1: 0.15173 t_uncond_hook: 1.44066 t_starcheck2: 0.163436 t_shortcut: 5.62748 t_starcheck: 10.2122
Iteration: 9 converged: 355716 stars: 170372459 nonstars: 0
 Time:  t_cond_hook: 1.25211 t_starcheck1: 0.098752 t_uncond_hook: 1.44065 t_starcheck2: 0.161244 t_shortcut: 5.32904 t_starcheck: 10.0993
Iteration: 9 converged: 355716 stars: 170372459 nonstars: 0
 Time:  t_cond_hook: 1.25211 t_starcheck1: 0.098752 t_uncond_hook: 1.44065 t_starcheck2: 0.161244 t_shortcut: 5.32904 t_starcheck: 10.0993
Iteration: 10 converged: 170728175 stars: 0 nonstars: 0
Number of components: 5353
Total time: 313.079
=================================================

Process Grid (p x p x t): 4 x 4 x 16
filename: /project/projectdirs/m1982/LACC/noheader/kmer_V1r.mtx
COMBBLAS Warning: It is dangerous to create (matrix) objects without specifying the communicator, are you sure you want to create this object in MPI_COMM_WORLD?
File is 4412689701 bytes
MPIIO WARNING: DVS stripe width of 32 was requested but DVS set it to 28
See MPICH_MPIIO_DVS_MAXNODES in the intro_mpi man page.
As a whole: 214005017 rows and 214005017 columns and 232705452 nonzeros
Symmatricizing an unsymmetric input matrix.
As a whole: 214005017 rows and 214005017 columns and 465410904 nonzeros
File Read time: 391.758
isolated vertice: 0
Load balance: 1.00028
Nonzeros: 465410904
===== Running the SV algorithm ======
Iteration 1: diff 145241805, spmv 0
total 15.413, GP 4.478, SpMV 2.242, Hooking 8.620, Others 0.073
Iteration 2: diff 134253444, spmv 0
total 26.206, GP 4.880, SpMV 1.283, Hooking 19.972, Others 0.072
Iteration 3: diff 142882581, spmv 0
total 32.420, GP 21.335, SpMV 1.263, Hooking 9.749, Others 0.072
Iteration 4: diff 169969303, spmv 0
total 28.386, GP 17.764, SpMV 1.262, Hooking 9.286, Others 0.074
Iteration 5: diff 201511770, spmv 0
total 17.877, GP 7.787, SpMV 1.253, Hooking 8.764, Others 0.073
Iteration 6: diff 210142594, spmv 0
total 12.768, GP 4.037, SpMV 1.264, Hooking 7.394, Others 0.073
Iteration 7: diff 213920264, spmv 0
total 11.681, GP 3.658, SpMV 1.261, Hooking 6.692, Others 0.070
Iteration 8: diff 3624368, spmv 0
total 11.393, GP 3.631, SpMV 1.313, Hooking 6.378, Others 0.071
Iteration 9: diff 4173, spmv 1
total 10.407, GP 3.603, SpMV 0.369, Hooking 6.365, Others 0.070
Iteration 10: diff 0, spmv 1
total 10.136, GP 3.631, SpMV 0.111, Hooking 6.324, Others 0.070
Number of components: 9
Total time: 181.74
=================================================

===== Running LACC ======
Iteration: 1 converged: 0 stars: 170489332 nonstars: 43515685
 Time:  t_cond_hook: 2.76664 t_starcheck1: 0.00159812 t_uncond_hook: 11.4651 t_starcheck2: 0.0484719 t_shortcut: 8.67015 t_starcheck: 37.6807
Iteration: 2 converged: 0 stars: 145269512 nonstars: 68735505
 Time:  t_cond_hook: 5.74265 t_starcheck1: 13.958 t_uncond_hook: 5.14543 t_starcheck2: 0.668436 t_shortcut: 9.73502 t_starcheck: 35.5737
Iteration: 3 converged: 0 stars: 112839330 nonstars: 101165687
 Time:  t_cond_hook: 5.66407 t_starcheck1: 9.6204 t_uncond_hook: 5.44937 t_starcheck2: 0.973524 t_shortcut: 9.86754 t_starcheck: 22.6552
Iteration: 4 converged: 22 stars: 55830213 nonstars: 158174782
 Time:  t_cond_hook: 4.48629 t_starcheck1: 6.23514 t_uncond_hook: 3.00986 t_starcheck2: 0.692122 t_shortcut: 9.40773 t_starcheck: 16.4148
Iteration: 5 converged: 95 stars: 9242780 nonstars: 204762142
 Time:  t_cond_hook: 2.64761 t_starcheck1: 2.69333 t_uncond_hook: 1.90187 t_starcheck2: 0.317834 t_shortcut: 8.84832 t_starcheck: 13.6703
Iteration: 6 converged: 230 stars: 95700 nonstars: 213909087
 Time:  t_cond_hook: 1.63471 t_starcheck1: 0.727319 t_uncond_hook: 2.19384 t_starcheck2: 0.203221 t_shortcut: 7.48881 t_starcheck: 12.7899
Iteration: 7 converged: 500 stars: 450 nonstars: 214004067
 Time:  t_cond_hook: 1.40733 t_starcheck1: 0.19458 t_uncond_hook: 1.7695 t_starcheck2: 0.193501 t_shortcut: 6.93644 t_starcheck: 12.7027
Iteration: 8 converged: 625 stars: 0 nonstars: 214004392
 Time:  t_cond_hook: 1.49551 t_starcheck1: 0.183057 t_uncond_hook: 1.76763 t_starcheck2: 0.19443 t_shortcut: 6.69163 t_starcheck: 12.6527
Iteration: 9 converged: 625 stars: 214004392 nonstars: 0
 Time:  t_cond_hook: 1.4072 t_starcheck1: 0.117594 t_uncond_hook: 1.76811 t_starcheck2: 0.192939 t_shortcut: 6.69184 t_starcheck: 12.7039
Iteration: 9 converged: 625 stars: 214004392 nonstars: 0
 Time:  t_cond_hook: 1.4072 t_starcheck1: 0.117594 t_uncond_hook: 1.76811 t_starcheck2: 0.192939 t_shortcut: 6.69184 t_starcheck: 12.7039
Iteration: 10 converged: 214005017 stars: 0 nonstars: 0
Number of components: 9
Total time: 380.705
=================================================

srun: Job 23784455 step creation temporarily disabled, retrying
srun: Step created for job 23784455
Process Grid (p x p x t): 4 x 4 x 16
filename: /project/projectdirs/m1982/LACC/noheader/mawi_201512020330.mtx
COMBBLAS Warning: It is dangerous to create (matrix) objects without specifying the communicator, are you sure you want to create this object in MPI_COMM_WORLD?
File is 5144900929 bytes
MPIIO WARNING: DVS stripe width of 32 was requested but DVS set it to 28
See MPICH_MPIIO_DVS_MAXNODES in the intro_mpi man page.
As a whole: 226196185 rows and 226196185 columns and 240023949 nonzeros
Symmatricizing an unsymmetric input matrix.
As a whole: 226196185 rows and 226196185 columns and 480047894 nonzeros
File Read time: 407.381
isolated vertice: 0
Load balance: 3.64034
Nonzeros: 480047894
===== Running the SV algorithm ======
Iteration 1: diff 58447205, spmv 0
total 28.104, GP 4.371, SpMV 14.525, Hooking 9.132, Others 0.076
Iteration 2: diff 165804661, spmv 0
total 22.656, GP 9.289, SpMV 1.932, Hooking 11.358, Others 0.077
Iteration 3: diff 1436926, spmv 0
total 12.926, GP 3.820, SpMV 1.916, Hooking 7.113, Others 0.077
Iteration 4: diff 2609, spmv 1
total 11.151, GP 3.811, SpMV 0.443, Hooking 6.822, Others 0.076
Iteration 5: diff 575, spmv 1
total 11.162, GP 3.806, SpMV 0.347, Hooking 6.933, Others 0.076
Iteration 6: diff 0, spmv 1
total 11.023, GP 3.802, SpMV 0.347, Hooking 6.799, Others 0.075
Number of components: 3971144
Total time: 116.653
=================================================

===== Running LACC ======
Iteration: 1 converged: 0 stars: 14307450 nonstars: 211888735
 Time:  t_cond_hook: 29.4049 t_starcheck1: 0.000241041 t_uncond_hook: 13.2908 t_starcheck2: 0.0515881 t_shortcut: 8.99992 t_starcheck: 15.1036
Iteration: 2 converged: 12253501 stars: 251231 nonstars: 213691453
 Time:  t_cond_hook: 2.53922 t_starcheck1: 0.793714 t_uncond_hook: 3.50682 t_starcheck2: 0.748494 t_shortcut: 7.13631 t_starcheck: 12.8215
Iteration: 3 converged: 12469142 stars: 43677 nonstars: 213683366
 Time:  t_cond_hook: 2.51857 t_starcheck1: 0.145032 t_uncond_hook: 2.45817 t_starcheck2: 0.21575 t_shortcut: 7.0623 t_starcheck: 12.7853
Iteration: 4 converged: 12507213 stars: 6289 nonstars: 213682683
 Time:  t_cond_hook: 2.15025 t_starcheck1: 0.168113 t_uncond_hook: 2.45717 t_starcheck2: 0.199348 t_shortcut: 7.0461 t_starcheck: 12.7778
Iteration: 5 converged: 12512884 stars: 213683301 nonstars: 0
 Time:  t_cond_hook: 2.06668 t_starcheck1: 0.120651 t_uncond_hook: 2.45506 t_starcheck2: 0.195935 t_shortcut: 7.05112 t_starcheck: 12.7137
Iteration: 5 converged: 12512884 stars: 213683301 nonstars: 0
 Time:  t_cond_hook: 2.06668 t_starcheck1: 0.120651 t_uncond_hook: 2.45506 t_starcheck2: 0.195935 t_shortcut: 7.05112 t_starcheck: 12.7137
Iteration: 6 converged: 226196185 stars: 0 nonstars: 0
Number of components: 3971144
Total time: 195.104
=================================================

Process Grid (p x p x t): 4 x 4 x 16
filename: /project/projectdirs/m1982/LACC/noheader/uk-2005.mtx
COMBBLAS Warning: It is dangerous to create (matrix) objects without specifying the communicator, are you sure you want to create this object in MPI_COMM_WORLD?
File is 16451547498 bytes
MPIIO WARNING: DVS stripe width of 32 was requested but DVS set it to 28
See MPICH_MPIIO_DVS_MAXNODES in the intro_mpi man page.
As a whole: 39454746 rows and 39454746 columns and 936364282 nonzeros
Symmatricizing an unsymmetric input matrix.
As a whole: 39454746 rows and 39454746 columns and 1581073454 nonzeros
File Read time: 546.682
isolated vertice: 0
Load balance: 1.03103
Nonzeros: 1581073454
===== Running the SV algorithm ======
Iteration 1: diff 34316986, spmv 0
total 3.896, GP 0.919, SpMV 1.358, Hooking 1.605, Others 0.014
Iteration 2: diff 34716282, spmv 0
total 5.173, GP 2.305, SpMV 1.190, Hooking 1.664, Others 0.014
Iteration 3: diff 38820930, spmv 0
total 3.415, GP 0.811, SpMV 1.193, Hooking 1.396, Others 0.014
Iteration 4: diff 10742073, spmv 0
total 3.128, GP 0.678, SpMV 1.193, Hooking 1.243, Others 0.014
Iteration 5: diff 45757, spmv 0
total 3.058, GP 0.669, SpMV 1.193, Hooking 1.182, Others 0.014
Iteration 6: diff 42, spmv 1
total 2.012, GP 0.668, SpMV 0.124, Hooking 1.206, Others 0.014
Iteration 7: diff 0, spmv 1
total 1.986, GP 0.667, SpMV 0.101, Hooking 1.204, Others 0.014
Number of components: 7727
Total time: 23.6377
=================================================

===== Running LACC ======
Iteration: 1 converged: 0 stars: 25873567 nonstars: 13581179
 Time:  t_cond_hook: 1.71245 t_starcheck1: 0.000678778 t_uncond_hook: 2.534 t_starcheck2: 0.00954103 t_shortcut: 1.81205 t_starcheck: 3.35977
Iteration: 2 converged: 67623 stars: 5172009 nonstars: 34215114
 Time:  t_cond_hook: 2.41335 t_starcheck1: 1.22917 t_uncond_hook: 1.64721 t_starcheck2: 0.183493 t_shortcut: 1.68589 t_starcheck: 2.69391
Iteration: 3 converged: 144406 stars: 265474 nonstars: 39044866
 Time:  t_cond_hook: 1.40963 t_starcheck1: 0.416183 t_uncond_hook: 1.33809 t_starcheck2: 0.0848911 t_shortcut: 1.42846 t_starcheck: 2.4864
Iteration: 4 converged: 193872 stars: 13727 nonstars: 39247147
 Time:  t_cond_hook: 1.25925 t_starcheck1: 0.110327 t_uncond_hook: 1.30752 t_starcheck2: 0.0605061 t_shortcut: 1.34136 t_starcheck: 2.47488
Iteration: 5 converged: 201144 stars: 723 nonstars: 39252879
 Time:  t_cond_hook: 1.2457 t_starcheck1: 0.0716829 t_uncond_hook: 1.29359 t_starcheck2: 0.05549 t_shortcut: 1.33028 t_starcheck: 2.45771
Iteration: 6 converged: 201867 stars: 39252879 nonstars: 0
 Time:  t_cond_hook: 1.22013 t_starcheck1: 0.0378549 t_uncond_hook: 1.31466 t_starcheck2: 0.0547659 t_shortcut: 1.29001 t_starcheck: 2.39779
Iteration: 6 converged: 201867 stars: 39252879 nonstars: 0
 Time:  t_cond_hook: 1.22013 t_starcheck1: 0.0378549 t_uncond_hook: 1.31466 t_starcheck2: 0.0547659 t_shortcut: 1.29001 t_starcheck: 2.39779
Iteration: 7 converged: 39454746 stars: 0 nonstars: 0
Number of components: 7727
Total time: 76.2276
=================================================

Process Grid (p x p x t): 4 x 4 x 16
filename: /project/projectdirs/m1982/LACC/noheader/twitter7.mtx
COMBBLAS Warning: It is dangerous to create (matrix) objects without specifying the communicator, are you sure you want to create this object in MPI_COMM_WORLD?
File is 24659244697 bytes
MPIIO WARNING: DVS stripe width of 32 was requested but DVS set it to 28
See MPICH_MPIIO_DVS_MAXNODES in the intro_mpi man page.
As a whole: 41652230 rows and 41652230 columns and 1468365182 nonzeros
Symmatricizing an unsymmetric input matrix.
As a whole: 41652230 rows and 41652230 columns and 2405026390 nonzeros
File Read time: 1442.27
isolated vertice: 0
Load balance: 1.02775
Nonzeros: 2405026390
===== Running the SV algorithm ======
Iteration 1: diff 36636276, spmv 0
total 5.262, GP 0.905, SpMV 2.657, Hooking 1.686, Others 0.015
Iteration 2: diff 41620900, spmv 0
total 5.736, GP 2.448, SpMV 1.437, Hooking 1.836, Others 0.014
Iteration 3: diff 3244207, spmv 0
total 3.580, GP 0.728, SpMV 1.435, Hooking 1.402, Others 0.015
Iteration 4: diff 158, spmv 0
total 3.491, GP 0.734, SpMV 1.434, Hooking 1.308, Others 0.015
Iteration 5: diff 0, spmv 1
total 2.231, GP 0.734, SpMV 0.127, Hooking 1.356, Others 0.015
Number of components: 1
Total time: 22.3019
=================================================

===== Running LACC ======
Iteration: 1 converged: 0 stars: 5722564 nonstars: 35929666
 Time:  t_cond_hook: 3.87203 t_starcheck1: 0.000699997 t_uncond_hook: 2.92883 t_starcheck2: 0.010041 t_shortcut: 1.81032 t_starcheck: 3.2329
Iteration: 2 converged: 0 stars: 403 nonstars: 41651827
 Time:  t_cond_hook: 2.68241 t_starcheck1: 0.690833 t_uncond_hook: 1.7118 t_starcheck2: 0.0573349 t_shortcut: 1.56357 t_starcheck: 2.68478
Iteration: 3 converged: 0 stars: 0 nonstars: 41652230
 Time:  t_cond_hook: 1.60339 t_starcheck1: 0.0422158 t_uncond_hook: 1.65822 t_starcheck2: 0.0569642 t_shortcut: 1.38315 t_starcheck: 2.58555
Iteration: 4 converged: 0 stars: 41652230 nonstars: 0
 Time:  t_cond_hook: 1.52849 t_starcheck1: 0.0391459 t_uncond_hook: 1.60978 t_starcheck2: 0.0578279 t_shortcut: 1.33222 t_starcheck: 2.53392
Iteration: 4 converged: 0 stars: 41652230 nonstars: 0
 Time:  t_cond_hook: 1.52849 t_starcheck1: 0.0391459 t_uncond_hook: 1.60978 t_starcheck2: 0.0578279 t_shortcut: 1.33222 t_starcheck: 2.53392
Iteration: 5 converged: 41652230 stars: 0 nonstars: 0
Number of components: 1
Total time: 78.0627
=================================================

Process Grid (p x p x t): 4 x 4 x 16
filename: /project/projectdirs/m1982/LACC/noheader/sk-2005.mtx
COMBBLAS Warning: It is dangerous to create (matrix) objects without specifying the communicator, are you sure you want to create this object in MPI_COMM_WORLD?
File is 34382171786 bytes
MPIIO WARNING: DVS stripe width of 32 was requested but DVS set it to 28
See MPICH_MPIIO_DVS_MAXNODES in the intro_mpi man page.
As a whole: 50636073 rows and 50636073 columns and 1949412601 nonzeros
Symmatricizing an unsymmetric input matrix.
As a whole: 50636073 rows and 50636073 columns and 3639246313 nonzeros
File Read time: 1148.95
isolated vertice: 0
Load balance: 1.03402
Nonzeros: 3639246313
===== Running the SV algorithm ======
Iteration 1: diff 45282772, spmv 0
total 5.449, GP 1.105, SpMV 2.288, Hooking 2.038, Others 0.018
Iteration 2: diff 48537666, spmv 0
total 6.189, GP 2.007, SpMV 2.047, Hooking 2.117, Others 0.018
Iteration 3: diff 47887993, spmv 0
total 4.632, GP 0.879, SpMV 2.045, Hooking 1.689, Others 0.019
Iteration 4: diff 5757920, spmv 0
total 4.449, GP 0.866, SpMV 2.047, Hooking 1.517, Others 0.019
Iteration 5: diff 97484, spmv 0
total 4.431, GP 0.861, SpMV 2.047, Hooking 1.503, Others 0.019
Iteration 6: diff 352, spmv 1
total 2.627, GP 0.860, SpMV 0.212, Hooking 1.537, Others 0.018
Iteration 7: diff 0, spmv 1
total 2.588, GP 0.859, SpMV 0.178, Hooking 1.533, Others 0.018
Number of components: 45
Total time: 31.5913
=================================================

===== Running LACC ======
Iteration: 1 converged: 0 stars: 22987505 nonstars: 27648568
 Time:  t_cond_hook: 2.52095 t_starcheck1: 0.000891924 t_uncond_hook: 3.55772 t_starcheck2: 0.012064 t_shortcut: 2.11911 t_starcheck: 3.78808
Iteration: 2 converged: 236 stars: 2358414 nonstars: 48277423
 Time:  t_cond_hook: 3.55304 t_starcheck1: 1.10643 t_uncond_hook: 2.49059 t_starcheck2: 0.122077 t_shortcut: 1.88672 t_starcheck: 3.27876
Iteration: 3 converged: 291 stars: 412217 nonstars: 50223565
 Time:  t_cond_hook: 2.22597 t_starcheck1: 0.214982 t_uncond_hook: 2.27102 t_starcheck2: 0.080436 t_shortcut: 1.69305 t_starcheck: 3.13074
Iteration: 4 converged: 1673 stars: 29926 nonstars: 50604474
 Time:  t_cond_hook: 2.08568 t_starcheck1: 0.126103 t_uncond_hook: 2.24672 t_starcheck2: 0.070962 t_shortcut: 1.6803 t_starcheck: 3.16023
Iteration: 5 converged: 1955 stars: 0 nonstars: 50634118
 Time:  t_cond_hook: 2.12328 t_starcheck1: 0.0892391 t_uncond_hook: 2.17149 t_starcheck2: 0.0700958 t_shortcut: 1.66528 t_starcheck: 3.14178
Iteration: 6 converged: 1955 stars: 50634118 nonstars: 0
 Time:  t_cond_hook: 2.07988 t_starcheck1: 0.0479021 t_uncond_hook: 2.21997 t_starcheck2: 0.0692592 t_shortcut: 1.62862 t_starcheck: 3.08805
Iteration: 6 converged: 1955 stars: 50634118 nonstars: 0
 Time:  t_cond_hook: 2.07988 t_starcheck1: 0.0479021 t_uncond_hook: 2.21997 t_starcheck2: 0.0692592 t_shortcut: 1.62862 t_starcheck: 3.08805
Iteration: 7 converged: 50636073 stars: 0 nonstars: 0
Number of components: 45
Total time: 127.083
=================================================

srun: Job 23784455 step creation temporarily disabled, retrying
srun: Step created for job 23784455
Process Grid (p x p x t): 4 x 4 x 16
filename: /project/projectdirs/m1982/LACC/noheader/MOLIERE_2016.mtx
COMBBLAS Warning: It is dangerous to create (matrix) objects without specifying the communicator, are you sure you want to create this object in MPI_COMM_WORLD?
File is 88119102918 bytes
MPIIO WARNING: DVS stripe width of 32 was requested but DVS set it to 28
See MPICH_MPIIO_DVS_MAXNODES in the intro_mpi man page.
As a whole: 30219118 rows and 30219118 columns and 3338650683 nonzeros
Symmatricizing an unsymmetric input matrix.
As a whole: 30219118 rows and 30219118 columns and 6677301366 nonzeros
File Read time: 4237.7
isolated vertice: 0
Load balance: 1.00501
Nonzeros: 6677301366
slurmstepd: error: Detected 1 oom-kill event(s) in step 23784455.9 cgroup. Some of your processes may have been killed by the cgroup out-of-memory handler.
slurmstepd: error: Detected 1 oom-kill event(s) in step 23784455.9 cgroup. Some of your processes may have been killed by the cgroup out-of-memory handler.
srun: error: nid03084: tasks 4-6: Out Of Memory
srun: Terminating job step 23784455.9
slurmstepd: error: Detected 1 oom-kill event(s) in step 23784455.9 cgroup. Some of your processes may have been killed by the cgroup out-of-memory handler.
slurmstepd: error: Detected 1 oom-kill event(s) in step 23784455.9 cgroup. Some of your processes may have been killed by the cgroup out-of-memory handler.
Process Grid (p x p x t): 4 x 4 x 16
filename: /project/projectdirs/m1982/HipMCL/eukarya/Renamed_euk_vs_euk_30_50length.indexed.list.noheader
COMBBLAS Warning: It is dangerous to create (matrix) objects without specifying the communicator, are you sure you want to create this object in MPI_COMM_WORLD?
File is 7976295135 bytes
MPIIO WARNING: DVS stripe width of 32 was requested but DVS set it to 28
See MPICH_MPIIO_DVS_MAXNODES in the intro_mpi man page.
As a whole: 3243106 rows and 3243106 columns and 359744161 nonzeros
Symmatricizing an unsymmetric input matrix.
As a whole: 3243106 rows and 3243106 columns and 359763936 nonzeros
File Read time: 337.842
isolated vertice: 0
Load balance: 1.0024
Nonzeros: 359763936
===== Running the SV algorithm ======
Iteration 1: diff 2932181, spmv 0
total 0.421, GP 0.111, SpMV 0.159, Hooking 0.149, Others 0.001
Iteration 2: diff 1798870, spmv 0
total 0.460, GP 0.146, SpMV 0.137, Hooking 0.176, Others 0.001
Iteration 3: diff 1113592, spmv 0
total 0.414, GP 0.124, SpMV 0.134, Hooking 0.155, Others 0.001
Iteration 4: diff 1247465, spmv 0
total 0.393, GP 0.117, SpMV 0.133, Hooking 0.141, Others 0.001
Iteration 5: diff 799875, spmv 0
total 0.391, GP 0.117, SpMV 0.134, Hooking 0.139, Others 0.001
Iteration 6: diff 61702, spmv 0
total 0.389, GP 0.117, SpMV 0.135, Hooking 0.136, Others 0.001
Iteration 7: diff 0, spmv 1
total 0.309, GP 0.117, SpMV 0.042, Hooking 0.149, Others 0.001
Number of components: 164156
Total time: 2.90726
=================================================

===== Running LACC ======
Iteration: 1 converged: 0 stars: 2554298 nonstars: 688808
 Time:  t_cond_hook: 0.185002 t_starcheck1: 9.60827e-05 t_uncond_hook: 0.264714 t_starcheck2: 0.000928879 t_shortcut: 0.177041 t_starcheck: 0.394574
Iteration: 2 converged: 577766 stars: 2010650 nonstars: 654690
 Time:  t_cond_hook: 0.260787 t_starcheck1: 0.136685 t_uncond_hook: 0.274601 t_starcheck2: 0.070565 t_shortcut: 0.137004 t_starcheck: 0.258263
Iteration: 3 converged: 1061288 stars: 1526961 nonstars: 654857
 Time:  t_cond_hook: 0.171598 t_starcheck1: 0.0999701 t_uncond_hook: 0.287616 t_starcheck2: 0.060905 t_shortcut: 0.112706 t_starcheck: 0.204499
Iteration: 4 converged: 1659477 stars: 678909 nonstars: 904720
 Time:  t_cond_hook: 0.154176 t_starcheck1: 0.0960469 t_uncond_hook: 0.181672 t_starcheck2: 0.053 t_shortcut: 0.0869741 t_starcheck: 0.174743
Iteration: 5 converged: 1904934 stars: 1207342 nonstars: 130830
 Time:  t_cond_hook: 0.156891 t_starcheck1: 0.082613 t_uncond_hook: 0.152337 t_starcheck2: 0.029393 t_shortcut: 0.0758839 t_starcheck: 0.155973
Iteration: 6 converged: 1938893 stars: 1304213 nonstars: 0
 Time:  t_cond_hook: 0.149336 t_starcheck1: 0.068856 t_uncond_hook: 0.161277 t_starcheck2: 0.063971 t_shortcut: 0.0731201 t_starcheck: 0.137163
Iteration: 6 converged: 1938893 stars: 1304213 nonstars: 0
 Time:  t_cond_hook: 0.149336 t_starcheck1: 0.068856 t_uncond_hook: 0.161277 t_starcheck2: 0.063971 t_shortcut: 0.0731201 t_starcheck: 0.137163
Iteration: 7 converged: 3243106 stars: 0 nonstars: 0
Number of components: 164156
Total time: 10.9504
=================================================

Process Grid (p x p x t): 4 x 4 x 16
filename: /project/projectdirs/m1982/HipMCL/archaea/Renamed_arch_vs_arch_30_50length.indexed.list.noheader
COMBBLAS Warning: It is dangerous to create (matrix) objects without specifying the communicator, are you sure you want to create this object in MPI_COMM_WORLD?
File is 4401682095 bytes
MPIIO WARNING: DVS stripe width of 32 was requested but DVS set it to 28
See MPICH_MPIIO_DVS_MAXNODES in the intro_mpi man page.
As a whole: 1644227 rows and 1644227 columns and 204784551 nonzeros
Symmatricizing an unsymmetric input matrix.
As a whole: 1644227 rows and 1644227 columns and 204792654 nonzeros
File Read time: 187.718
isolated vertice: 0
Load balance: 1.00266
Nonzeros: 204792654
===== Running the SV algorithm ======
Iteration 1: diff 1530708, spmv 0
total 0.249, GP 0.081, SpMV 0.070, Hooking 0.097, Others 0.001
Iteration 2: diff 903421, spmv 0
total 0.250, GP 0.087, SpMV 0.051, Hooking 0.110, Others 0.001
Iteration 3: diff 464796, spmv 0
total 0.223, GP 0.078, SpMV 0.051, Hooking 0.093, Others 0.001
Iteration 4: diff 390180, spmv 0
total 0.213, GP 0.073, SpMV 0.051, Hooking 0.088, Others 0.001
Iteration 5: diff 276779, spmv 0
total 0.212, GP 0.072, SpMV 0.051, Hooking 0.088, Others 0.001
Iteration 6: diff 204544, spmv 0
total 0.210, GP 0.072, SpMV 0.051, Hooking 0.086, Others 0.001
Iteration 7: diff 10701, spmv 0
total 0.210, GP 0.072, SpMV 0.052, Hooking 0.086, Others 0.001
Iteration 8: diff 0, spmv 1
total 0.190, GP 0.072, SpMV 0.025, Hooking 0.092, Others 0.001
Number of components: 59794
Total time: 1.84979
=================================================

===== Running LACC ======
Iteration: 1 converged: 0 stars: 1333418 nonstars: 310809
 Time:  t_cond_hook: 0.0942261 t_starcheck1: 5.29289e-05 t_uncond_hook: 0.127553 t_starcheck2: 0.000488043 t_shortcut: 0.106049 t_starcheck: 0.234818
Iteration: 2 converged: 279740 stars: 1103408 nonstars: 261079
 Time:  t_cond_hook: 0.125044 t_starcheck1: 0.0827439 t_uncond_hook: 0.138759 t_starcheck2: 0.040391 t_shortcut: 0.0946851 t_starcheck: 0.157286
Iteration: 3 converged: 509132 stars: 969729 nonstars: 165366
 Time:  t_cond_hook: 0.0734041 t_starcheck1: 0.0686679 t_uncond_hook: 0.171428 t_starcheck2: 0.0468061 t_shortcut: 0.072381 t_starcheck: 0.145045
Iteration: 4 converged: 921298 stars: 525011 nonstars: 197918
 Time:  t_cond_hook: 0.0700989 t_starcheck1: 0.0762351 t_uncond_hook: 0.0824549 t_starcheck2: 0.044338 t_shortcut: 0.0534251 t_starcheck: 0.110261
Iteration: 5 converged: 1130882 stars: 443194 nonstars: 70151
 Time:  t_cond_hook: 0.0663581 t_starcheck1: 0.0508139 t_uncond_hook: 0.0642281 t_starcheck2: 0.031702 t_shortcut: 0.0398219 t_starcheck: 0.0855372
Iteration: 6 converged: 1258664 stars: 374274 nonstars: 11289
 Time:  t_cond_hook: 0.0844569 t_starcheck1: 0.0455189 t_uncond_hook: 0.060101 t_starcheck2: 0.0188599 t_shortcut: 0.0423501 t_starcheck: 0.153932
Iteration: 7 converged: 1272765 stars: 371462 nonstars: 0
 Time:  t_cond_hook: 0.0615098 t_starcheck1: 0.0355029 t_uncond_hook: 0.025306 t_starcheck2: 0.033751 t_shortcut: 0.036145 t_starcheck: 0.138907
Iteration: 7 converged: 1272765 stars: 371462 nonstars: 0
 Time:  t_cond_hook: 0.0615098 t_starcheck1: 0.0355029 t_uncond_hook: 0.025306 t_starcheck2: 0.033751 t_shortcut: 0.036145 t_starcheck: 0.138907
Iteration: 8 converged: 1644227 stars: 0 nonstars: 0
Number of components: 59794
Total time: 6.42242
=================================================

Process Grid (p x p x t): 4 x 4 x 16
filename: /project/projectdirs/m1982/LACC/noheader/out.dbpedia-link
COMBBLAS Warning: It is dangerous to create (matrix) objects without specifying the communicator, are you sure you want to create this object in MPI_COMM_WORLD?
File is 2712460738 bytes
MPIIO WARNING: DVS stripe width of 32 was requested but DVS set it to 28
See MPICH_MPIIO_DVS_MAXNODES in the intro_mpi man page.
As a whole: 18268991 rows and 18268991 columns and 136537566 nonzeros
Symmatricizing an unsymmetric input matrix.
As a whole: 18268991 rows and 18268991 columns and 253780418 nonzeros
File Read time: 143.775
isolated vertice: 0
Load balance: 1.0355
Nonzeros: 253780418
===== Running the SV algorithm ======
Iteration 1: diff 11597204, spmv 0
total 1.535, GP 0.415, SpMV 0.387, Hooking 0.726, Others 0.007
Iteration 2: diff 18248660, spmv 0
total 1.950, GP 0.901, SpMV 0.246, Hooking 0.796, Others 0.006
Iteration 3: diff 18263171, spmv 0
total 1.261, GP 0.325, SpMV 0.246, Hooking 0.683, Others 0.007
Iteration 4: diff 27554, spmv 0
total 1.137, GP 0.328, SpMV 0.246, Hooking 0.557, Others 0.006
Iteration 5: diff 0, spmv 1
total 0.941, GP 0.324, SpMV 0.037, Hooking 0.573, Others 0.006
Number of components: 1365
Total time: 7.36985
=================================================

===== Running LACC ======
Iteration: 1 converged: 0 stars: 5553381 nonstars: 12715610
 Time:  t_cond_hook: 0.590445 t_starcheck1: 0.000260115 t_uncond_hook: 1.0638 t_starcheck2: 0.00467396 t_shortcut: 0.83831 t_starcheck: 1.61117
Iteration: 2 converged: 3446 stars: 3638 nonstars: 18261907
 Time:  t_cond_hook: 0.703075 t_starcheck1: 0.436263 t_uncond_hook: 0.398017 t_starcheck2: 0.026891 t_shortcut: 0.769277 t_starcheck: 1.26925
Iteration: 3 converged: 3446 stars: 33 nonstars: 18265512
 Time:  t_cond_hook: 0.279144 t_starcheck1: 0.039542 t_uncond_hook: 0.326594 t_starcheck2: 0.0265479 t_shortcut: 0.639066 t_starcheck: 1.21553
Iteration: 4 converged: 3479 stars: 18265512 nonstars: 0
 Time:  t_cond_hook: 0.271505 t_starcheck1: 0.0182989 t_uncond_hook: 0.307712 t_starcheck2: 0.0257878 t_shortcut: 0.628635 t_starcheck: 1.18402
Iteration: 4 converged: 3479 stars: 18265512 nonstars: 0
 Time:  t_cond_hook: 0.271505 t_starcheck1: 0.0182989 t_uncond_hook: 0.307712 t_starcheck2: 0.0257878 t_shortcut: 0.628635 t_starcheck: 1.18402
Iteration: 5 converged: 18268991 stars: 0 nonstars: 0
Number of components: 1365
Total time: 18.5862
=================================================

Process Grid (p x p x t): 4 x 4 x 16
filename: /project/projectdirs/m1982/LACC/noheader/sd1-arc
COMBBLAS Warning: It is dangerous to create (matrix) objects without specifying the communicator, are you sure you want to create this object in MPI_COMM_WORLD?
File is 34401667529 bytes
MPIIO WARNING: DVS stripe width of 32 was requested but DVS set it to 28
See MPICH_MPIIO_DVS_MAXNODES in the intro_mpi man page.
As a whole: 82924686 rows and 82924686 columns and 1937489265 nonzeros
Symmatricizing an unsymmetric input matrix.
As a whole: 82924686 rows and 82924686 columns and 3681303908 nonzeros
File Read time: 1856.84
isolated vertice: 0
Load balance: 1.00836
Nonzeros: 3681303908
===== Running the SV algorithm ======
Iteration 1: diff 66153513, spmv 0
total 8.084, GP 1.908, SpMV 2.747, Hooking 3.400, Others 0.029
Iteration 2: diff 81942259, spmv 0
total 10.927, GP 4.803, SpMV 2.367, Hooking 3.728, Others 0.029
Iteration 3: diff 65165911, spmv 0
total 6.783, GP 1.477, SpMV 2.371, Hooking 2.906, Others 0.029
Iteration 4: diff 199808, spmv 0
total 6.400, GP 1.466, SpMV 2.366, Hooking 2.540, Others 0.029
Iteration 5: diff 203, spmv 1
total 4.315, GP 1.464, SpMV 0.202, Hooking 2.621, Others 0.028
Iteration 6: diff 91, spmv 1
total 4.291, GP 1.464, SpMV 0.137, Hooking 2.662, Others 0.028
Iteration 7: diff 0, spmv 1
total 4.218, GP 1.463, SpMV 0.133, Hooking 2.593, Others 0.029
Number of components: 246969
Total time: 47.0821
=================================================

===== Running LACC ======
Iteration: 1 converged: 0 stars: 32532103 nonstars: 50392583
 Time:  t_cond_hook: 3.05153 t_starcheck1: 0.00114512 t_uncond_hook: 5.59381 t_starcheck2: 0.02019 t_shortcut: 3.63462 t_starcheck: 7.0502
Iteration: 2 converged: 555121 stars: 161391 nonstars: 82208174
 Time:  t_cond_hook: 6.16036 t_starcheck1: 1.68902 t_uncond_hook: 2.97739 t_starcheck2: 0.147362 t_shortcut: 3.3022 t_starcheck: 5.6023
Iteration: 3 converged: 572019 stars: 60689 nonstars: 82291978
 Time:  t_cond_hook: 2.60061 t_starcheck1: 0.146373 t_uncond_hook: 2.72123 t_starcheck2: 0.109604 t_shortcut: 3.01381 t_starcheck: 5.3893
Iteration: 4 converged: 631469 stars: 990 nonstars: 82292227
 Time:  t_cond_hook: 2.48457 t_starcheck1: 0.226451 t_uncond_hook: 2.59576 t_starcheck2: 0.119265 t_shortcut: 2.90263 t_starcheck: 5.42647
Iteration: 5 converged: 632001 stars: 82292685 nonstars: 0
 Time:  t_cond_hook: 2.59118 t_starcheck1: 0.148223 t_uncond_hook: 2.79366 t_starcheck2: 0.113437 t_shortcut: 2.80545 t_starcheck: 5.26817
Iteration: 5 converged: 632001 stars: 82292685 nonstars: 0
 Time:  t_cond_hook: 2.59118 t_starcheck1: 0.148223 t_uncond_hook: 2.79366 t_starcheck2: 0.113437 t_shortcut: 2.80545 t_starcheck: 5.26817
Iteration: 6 converged: 82924686 stars: 0 nonstars: 0
Number of components: 246969
Total time: 150.681
=================================================

